<?xml version="1.0" encoding="UTF-8" standalone="no"?>
<!-- Created with Inkscape (http://www.inkscape.org/) -->

<svg
   xmlns:dc="http://purl.org/dc/elements/1.1/"
   xmlns:cc="http://creativecommons.org/ns#"
   xmlns:rdf="http://www.w3.org/1999/02/22-rdf-syntax-ns#"
   xmlns:svg="http://www.w3.org/2000/svg"
   xmlns="http://www.w3.org/2000/svg"
   xmlns:sodipodi="http://sodipodi.sourceforge.net/DTD/sodipodi-0.dtd"
   xmlns:inkscape="http://www.inkscape.org/namespaces/inkscape"
   width="513.84906"
   height="316.19736"
   id="svg2"
   version="1.1"
   inkscape:version="0.92.3 (2405546, 2018-03-11)"
   sodipodi:docname="bode11.svg">
  <defs
     id="defs4">
    <marker
       inkscape:stockid="Arrow1Mstart"
       orient="auto"
       refY="0"
       refX="0"
       id="Arrow1Mstart"
       style="overflow:visible">
      <path
         id="path4473"
         d="M 4.2666667,0 6.4,-2.1333333 -1.0666667,0 6.4,2.1333333 Z"
         style="fill-rule:evenodd;stroke:#000000;stroke-width:0.42666668pt"
         inkscape:connector-curvature="0" />
    </marker>
    <marker
       inkscape:stockid="Arrow1Mend"
       orient="auto"
       refY="0"
       refX="0"
       id="Arrow1Mend"
       style="overflow:visible">
      <path
         id="path3770"
         d="M -4.2666667,0 -6.4,2.1333333 1.0666667,0 -6.4,-2.1333333 Z"
         style="fill-rule:evenodd;stroke:#000000;stroke-width:0.42666668pt"
         inkscape:connector-curvature="0" />
    </marker>
    <marker
       inkscape:stockid="Arrow1Mend"
       orient="auto"
       refY="0"
       refX="0"
       id="Arrow1Mend-9"
       style="overflow:visible">
      <path
         inkscape:connector-curvature="0"
         id="path3770-8"
         d="M -4.2666667,0 -6.4,2.1333333 1.0666667,0 -6.4,-2.1333333 Z"
         style="fill-rule:evenodd;stroke:#000000;stroke-width:0.42666668pt" />
    </marker>
  </defs>
  <sodipodi:namedview
     id="base"
     pagecolor="#ffffff"
     bordercolor="#666666"
     borderopacity="1.0"
     inkscape:pageopacity="0.0"
     inkscape:pageshadow="2"
     inkscape:zoom="1.5451324"
     inkscape:cx="252.72622"
     inkscape:cy="130.46765"
     inkscape:document-units="px"
     inkscape:current-layer="layer1"
     showgrid="false"
     inkscape:window-width="1462"
     inkscape:window-height="901"
     inkscape:window-x="59"
     inkscape:window-y="40"
     inkscape:window-maximized="0"
     fit-margin-top="0"
     fit-margin-left="0"
     fit-margin-right="0"
     fit-margin-bottom="0" />
  <metadata
     id="metadata7">
    <rdf:RDF>
      <cc:Work
         rdf:about="">
        <dc:format>image/svg+xml</dc:format>
        <dc:type
           rdf:resource="http://purl.org/dc/dcmitype/StillImage" />
        <dc:title />
      </cc:Work>
    </rdf:RDF>
  </metadata>
  <g
     inkscape:label="Capa 1"
     inkscape:groupmode="layer"
     id="layer1"
     transform="translate(-219.26667,-463.36931)">
    <g
       id="g3834" />
    <g
       id="g921">
      <path
         inkscape:connector-curvature="0"
         id="path4225"
         d="M 344.87961,779.56621 V 470.59765"
         style="fill:none;stroke:#000000;stroke-width:3.77952743;stroke-linecap:butt;stroke-linejoin:miter;stroke-miterlimit:4;stroke-dasharray:none;stroke-opacity:1;marker-end:url(#Arrow1Mend-9)" />
      <text
         id="text3024"
         y="776.95703"
         x="309.24963"
         style="font-style:normal;font-variant:normal;font-weight:normal;font-stretch:normal;font-size:12.80000019px;line-height:0%;font-family:'Times New Roman';-inkscape-font-specification:'Times New Roman';text-align:center;letter-spacing:0px;word-spacing:0px;text-anchor:middle;fill:#000000;fill-opacity:1;stroke:none;stroke-width:1.06666672"
         xml:space="preserve"><tspan
           style="font-size:34.13333511px;line-height:1.25;stroke-width:1.06666672"
           y="776.95703"
           x="309.24963"
           id="tspan3026"
           sodipodi:role="line">-40</tspan></text>
      <path
         inkscape:connector-curvature="0"
         id="path2987"
         d="m 219.26948,585.45865 h 506.61789 v 0"
         style="fill:none;stroke:#000000;stroke-width:3.77952743;stroke-linecap:butt;stroke-linejoin:miter;stroke-miterlimit:4;stroke-dasharray:none;stroke-opacity:1;marker-end:url(#Arrow1Mend)" />
      <text
         id="text3042"
         y="635.24646"
         x="705.45044"
         style="font-style:normal;font-variant:normal;font-weight:normal;font-stretch:normal;font-size:12.80000019px;line-height:0%;font-family:Mathematica1;-inkscape-font-specification:Mathematica1;text-align:center;letter-spacing:0px;word-spacing:0px;text-anchor:middle;fill:#000000;fill-opacity:1;stroke:none;stroke-width:1.06666672"
         xml:space="preserve"><tspan
           style="font-size:42.66666794px;line-height:1.25;stroke-width:1.06666672;-inkscape-font-specification:Alfa-beta;font-family:Alfa-beta;font-weight:normal;font-style:normal;font-stretch:normal;font-variant:normal"
           y="635.24646"
           x="705.45044"
           id="tspan3044"
           sodipodi:role="line">w</tspan></text>
      <path
         sodipodi:nodetypes="ccc"
         inkscape:connector-curvature="0"
         id="path3116"
         d="m 272.96012,585.31548 271.9219,-0.46065 112.45755,184.24587"
         style="fill:none;stroke:#ff0000;stroke-width:3.26173234;stroke-linecap:butt;stroke-linejoin:miter;stroke-miterlimit:4;stroke-dasharray:9.78519685, 9.78519685;stroke-dashoffset:0;stroke-opacity:1" />
      <text
         id="text3016"
         y="616.90039"
         x="488.04675"
         style="font-style:normal;font-variant:normal;font-weight:normal;font-stretch:normal;font-size:12.80000019px;line-height:0%;font-family:'Times New Roman';-inkscape-font-specification:'Times New Roman';text-align:center;letter-spacing:0px;word-spacing:0px;text-anchor:middle;fill:#000000;fill-opacity:1;stroke:none;stroke-width:1.06666672"
         xml:space="preserve"><tspan
           style="font-size:34.13333511px;line-height:1.25;stroke-width:1.06666672"
           y="616.90039"
           x="488.04675"
           id="tspan3018"
           sodipodi:role="line">1</tspan></text>
      <text
         id="text3020"
         y="616.70038"
         x="604.84662"
         style="font-style:normal;font-variant:normal;font-weight:normal;font-stretch:normal;font-size:12.80000019px;line-height:0%;font-family:'Times New Roman';-inkscape-font-specification:'Times New Roman';text-align:center;letter-spacing:0px;word-spacing:0px;text-anchor:middle;fill:#000000;fill-opacity:1;stroke:none;stroke-width:1.06666672"
         xml:space="preserve"><tspan
           style="font-size:34.13333511px;line-height:1.25;stroke-width:1.06666672"
           y="616.70038"
           x="604.84662"
           id="tspan3022"
           sodipodi:role="line">10</tspan></text>
      <path
         inkscape:connector-curvature="0"
         id="path3832"
         d="m 487.7149,575.09553 v 17.01016"
         style="fill:none;stroke:#000000;stroke-width:3.38385081;stroke-linecap:butt;stroke-linejoin:miter;stroke-miterlimit:4;stroke-dasharray:none;stroke-opacity:1" />
      <path
         inkscape:connector-curvature="0"
         id="path3832-4"
         d="m 603.4557,575.09553 v 17.01016"
         style="fill:none;stroke:#000000;stroke-width:3.38385081;stroke-linecap:butt;stroke-linejoin:miter;stroke-miterlimit:4;stroke-dasharray:none;stroke-opacity:1" />
      <text
         id="text3845"
         y="571.88245"
         x="561.54889"
         style="font-style:normal;font-variant:normal;font-weight:normal;font-stretch:normal;font-size:12.80000019px;line-height:0%;font-family:'Times New Roman';-inkscape-font-specification:'Times New Roman';text-align:center;letter-spacing:0px;word-spacing:0px;text-anchor:middle;fill:#000000;fill-opacity:1;stroke:none;stroke-width:1.06666672"
         xml:space="preserve"><tspan
           style="font-style:normal;font-variant:normal;font-weight:normal;font-stretch:normal;font-size:18.66666603px;line-height:1.25;font-family:sans-serif;-inkscape-font-specification:sans-serif;baseline-shift:sub;stroke-width:1.06666672"
           y="571.88245"
           x="561.54889"
           id="tspan3847"
           sodipodi:role="line">0</tspan></text>
      <text
         id="text4071"
         y="495.61188"
         x="388.98068"
         style="font-style:normal;font-variant:normal;font-weight:normal;font-stretch:normal;font-size:12.80000019px;line-height:0%;font-family:'Times New Roman';-inkscape-font-specification:'Times New Roman';text-align:center;letter-spacing:0px;word-spacing:0px;text-anchor:middle;fill:#000000;fill-opacity:1;stroke:none;stroke-width:1.06666672"
         xml:space="preserve"><tspan
           style="font-size:34.13333511px;line-height:1.25;stroke-width:1.06666672"
           y="495.61188"
           x="388.98068"
           id="tspan4073"
           sodipodi:role="line">0º</tspan></text>
      <text
         id="text4075"
         y="495.61188"
         x="546.50806"
         style="font-style:normal;font-variant:normal;font-weight:normal;font-stretch:normal;font-size:12.80000019px;line-height:0%;font-family:'Times New Roman';-inkscape-font-specification:'Times New Roman';text-align:center;letter-spacing:0px;word-spacing:0px;text-anchor:middle;fill:#000000;fill-opacity:1;stroke:none;stroke-width:1.06666672"
         xml:space="preserve"><tspan
           style="font-size:34.13333511px;line-height:1.25;stroke-width:1.06666672"
           y="495.61188"
           x="546.50806"
           id="tspan4077"
           sodipodi:role="line">-90º</tspan></text>
      <text
         id="text4079"
         y="495.57855"
         x="696.98785"
         style="font-style:normal;font-variant:normal;font-weight:normal;font-stretch:normal;font-size:12.80000019px;line-height:0%;font-family:'Times New Roman';-inkscape-font-specification:'Times New Roman';text-align:center;letter-spacing:0px;word-spacing:0px;text-anchor:middle;fill:#000000;fill-opacity:1;stroke:none;stroke-width:1.06666672"
         xml:space="preserve"><tspan
           style="font-size:34.13333511px;line-height:1.25;stroke-width:1.06666672"
           y="495.57855"
           x="696.98785"
           id="tspan4081"
           sodipodi:role="line">-180</tspan></text>
      <path
         inkscape:connector-curvature="0"
         id="path4093"
         d="M 547.17817,738.212 H 658.3229"
         style="fill:none;stroke:#000000;stroke-width:1.06666672px;stroke-linecap:butt;stroke-linejoin:miter;stroke-opacity:1;marker-start:url(#Arrow1Mstart);marker-mid:none;marker-end:url(#Arrow1Mend-9)" />
      <path
         inkscape:connector-curvature="0"
         id="path3028"
         d="M 658.93881,770.68217 V 583.39187"
         style="fill:none;stroke:#000000;stroke-width:2.1996851;stroke-linecap:butt;stroke-linejoin:miter;stroke-miterlimit:4;stroke-dasharray:2.19968503, 4.39937008;stroke-dashoffset:0;stroke-opacity:1" />
      <path
         inkscape:connector-curvature="0"
         id="path3028-4"
         d="M 658.01798,769.99155 H 336.91323"
         style="fill:none;stroke:#000000;stroke-width:2.1996851;stroke-linecap:butt;stroke-linejoin:miter;stroke-miterlimit:4;stroke-dasharray:2.19968503, 4.39937008;stroke-dashoffset:0;stroke-opacity:1" />
      <path
         inkscape:connector-curvature="0"
         id="path3028-3"
         d="M 545.79748,770.68217 V 586.12308"
         style="fill:none;stroke:#000000;stroke-width:2.1996851;stroke-linecap:butt;stroke-linejoin:miter;stroke-miterlimit:4;stroke-dasharray:2.19968503, 4.39937008;stroke-dashoffset:0;stroke-opacity:1" />
      <text
         id="text4929"
         y="735.63416"
         x="595.75122"
         style="font-style:normal;font-variant:normal;font-weight:normal;font-stretch:normal;font-size:12.80000019px;line-height:0%;font-family:'Times New Roman';-inkscape-font-specification:'Times New Roman';text-align:center;letter-spacing:0px;word-spacing:0px;text-anchor:middle;fill:#000000;fill-opacity:1;stroke:none;stroke-width:1.06666672"
         xml:space="preserve"><tspan
           style="font-size:21.33333397px;line-height:1.25;stroke-width:1.06666672"
           y="735.63416"
           x="595.75122"
           id="tspan4931"
           sodipodi:role="line">1 Dec.</tspan></text>
      <text
         id="text3042-7"
         y="570.17822"
         x="543.93445"
         style="font-style:normal;font-variant:normal;font-weight:normal;font-stretch:normal;font-size:12.80000019px;line-height:0%;font-family:Mathematica1;-inkscape-font-specification:Mathematica1;text-align:center;letter-spacing:0px;word-spacing:0px;text-anchor:middle;fill:#000000;fill-opacity:1;stroke:none;stroke-width:1.06666672"
         xml:space="preserve"><tspan
           style="font-style:normal;font-variant:normal;font-weight:normal;font-stretch:normal;font-size:42.66666794px;line-height:1.25;font-family:Alfa-beta;-inkscape-font-specification:Alfa-beta;stroke-width:1.06666672"
           y="570.17822"
           x="543.93445"
           id="tspan3044-6"
           sodipodi:role="line">w</tspan></text>
    </g>
  </g>
</svg>
