<?xml version="1.0" encoding="UTF-8" standalone="no"?>
<!-- Created with Inkscape (http://www.inkscape.org/) -->

<svg
   xmlns:dc="http://purl.org/dc/elements/1.1/"
   xmlns:cc="http://creativecommons.org/ns#"
   xmlns:rdf="http://www.w3.org/1999/02/22-rdf-syntax-ns#"
   xmlns:svg="http://www.w3.org/2000/svg"
   xmlns="http://www.w3.org/2000/svg"
   xmlns:sodipodi="http://sodipodi.sourceforge.net/DTD/sodipodi-0.dtd"
   xmlns:inkscape="http://www.inkscape.org/namespaces/inkscape"
   width="77.785301mm"
   height="63.729542mm"
   viewBox="0 0 275.6172 225.81333"
   id="svg2"
   version="1.1"
   inkscape:version="0.91 r13725"
   sodipodi:docname="bodef18.svg">
  <defs
     id="defs4">
    <marker
       inkscape:isstock="true"
       style="overflow:visible"
       id="marker4683"
       refX="0"
       refY="0"
       orient="auto"
       inkscape:stockid="Arrow1Mend">
      <path
         inkscape:connector-curvature="0"
         transform="matrix(-0.4,0,0,-0.4,-4,0)"
         style="fill:#000000;fill-opacity:1;fill-rule:evenodd;stroke:#000000;stroke-width:1pt;stroke-opacity:1"
         d="M 0,0 5,-5 -12.5,0 5,5 0,0 Z"
         id="path4685" />
    </marker>
    <marker
       inkscape:stockid="Arrow1Mend"
       orient="auto"
       refY="0"
       refX="0"
       id="Arrow1Mend"
       style="overflow:visible"
       inkscape:isstock="true">
      <path
         id="path4285"
         d="M 0,0 5,-5 -12.5,0 5,5 0,0 Z"
         style="fill:#000000;fill-opacity:1;fill-rule:evenodd;stroke:#000000;stroke-width:1pt;stroke-opacity:1"
         transform="matrix(-0.4,0,0,-0.4,-4,0)"
         inkscape:connector-curvature="0" />
    </marker>
    <marker
       inkscape:stockid="Arrow1Mend"
       orient="auto"
       refY="0"
       refX="0"
       id="marker4692-1"
       style="overflow:visible"
       inkscape:isstock="true">
      <path
         id="path4694-8"
         d="M 0,0 5,-5 -12.5,0 5,5 0,0 Z"
         style="fill:#000000;fill-opacity:1;fill-rule:evenodd;stroke:#000000;stroke-width:1pt;stroke-opacity:1"
         transform="matrix(-0.4,0,0,-0.4,-4,0)"
         inkscape:connector-curvature="0" />
    </marker>
    <marker
       inkscape:isstock="true"
       style="overflow:visible"
       id="marker4683-3"
       refX="0"
       refY="0"
       orient="auto"
       inkscape:stockid="Arrow1Mend">
      <path
         inkscape:connector-curvature="0"
         transform="matrix(-0.4,0,0,-0.4,-4,0)"
         style="fill:#000000;fill-opacity:1;fill-rule:evenodd;stroke:#000000;stroke-width:1pt;stroke-opacity:1"
         d="M 0,0 5,-5 -12.5,0 5,5 0,0 Z"
         id="path4685-6" />
    </marker>
    <marker
       inkscape:isstock="true"
       style="overflow:visible"
       id="marker4683-5"
       refX="0"
       refY="0"
       orient="auto"
       inkscape:stockid="Arrow1Mend">
      <path
         inkscape:connector-curvature="0"
         transform="matrix(-0.4,0,0,-0.4,-4,0)"
         style="fill:#000000;fill-opacity:1;fill-rule:evenodd;stroke:#000000;stroke-width:1pt;stroke-opacity:1"
         d="M 0,0 5,-5 -12.5,0 5,5 0,0 Z"
         id="path4685-62" />
    </marker>
    <marker
       inkscape:stockid="Arrow1Mend"
       orient="auto"
       refY="0"
       refX="0"
       id="marker4683-7"
       style="overflow:visible"
       inkscape:isstock="true">
      <path
         id="path4685-5"
         d="M 0,0 5,-5 -12.5,0 5,5 0,0 Z"
         style="fill:#000000;fill-opacity:1;fill-rule:evenodd;stroke:#000000;stroke-width:1pt;stroke-opacity:1"
         transform="matrix(-0.4,0,0,-0.4,-4,0)"
         inkscape:connector-curvature="0" />
    </marker>
    <marker
       inkscape:isstock="true"
       style="overflow:visible"
       id="Arrow1Mend-3"
       refX="0"
       refY="0"
       orient="auto"
       inkscape:stockid="Arrow1Mend">
      <path
         inkscape:connector-curvature="0"
         transform="matrix(-0.4,0,0,-0.4,-4,0)"
         style="fill:#000000;fill-opacity:1;fill-rule:evenodd;stroke:#000000;stroke-width:1pt;stroke-opacity:1"
         d="M 0,0 5,-5 -12.5,0 5,5 0,0 Z"
         id="path4285-5" />
    </marker>
    <marker
       inkscape:isstock="true"
       style="overflow:visible"
       id="marker4692-1-6"
       refX="0"
       refY="0"
       orient="auto"
       inkscape:stockid="Arrow1Mend">
      <path
         inkscape:connector-curvature="0"
         transform="matrix(-0.4,0,0,-0.4,-4,0)"
         style="fill:#000000;fill-opacity:1;fill-rule:evenodd;stroke:#000000;stroke-width:1pt;stroke-opacity:1"
         d="M 0,0 5,-5 -12.5,0 5,5 0,0 Z"
         id="path4694-8-2" />
    </marker>
    <marker
       inkscape:stockid="Arrow1Mend"
       orient="auto"
       refY="0"
       refX="0"
       id="marker4683-3-9"
       style="overflow:visible"
       inkscape:isstock="true">
      <path
         id="path4685-6-1"
         d="M 0,0 5,-5 -12.5,0 5,5 0,0 Z"
         style="fill:#000000;fill-opacity:1;fill-rule:evenodd;stroke:#000000;stroke-width:1pt;stroke-opacity:1"
         transform="matrix(-0.4,0,0,-0.4,-4,0)"
         inkscape:connector-curvature="0" />
    </marker>
    <marker
       inkscape:stockid="Arrow1Mend"
       orient="auto"
       refY="0"
       refX="0"
       id="marker4683-5-2"
       style="overflow:visible"
       inkscape:isstock="true">
      <path
         id="path4685-62-7"
         d="M 0,0 5,-5 -12.5,0 5,5 0,0 Z"
         style="fill:#000000;fill-opacity:1;fill-rule:evenodd;stroke:#000000;stroke-width:1pt;stroke-opacity:1"
         transform="matrix(-0.4,0,0,-0.4,-4,0)"
         inkscape:connector-curvature="0" />
    </marker>
    <marker
       inkscape:stockid="Arrow1Mend"
       orient="auto"
       refY="0"
       refX="0"
       id="marker4683-0"
       style="overflow:visible"
       inkscape:isstock="true">
      <path
         id="path4685-3"
         d="M 0,0 5,-5 -12.5,0 5,5 0,0 Z"
         style="fill:#000000;fill-opacity:1;fill-rule:evenodd;stroke:#000000;stroke-width:1pt;stroke-opacity:1"
         transform="matrix(-0.4,0,0,-0.4,-4,0)"
         inkscape:connector-curvature="0" />
    </marker>
    <marker
       inkscape:isstock="true"
       style="overflow:visible"
       id="Arrow1Mend-6"
       refX="0"
       refY="0"
       orient="auto"
       inkscape:stockid="Arrow1Mend">
      <path
         inkscape:connector-curvature="0"
         transform="matrix(-0.4,0,0,-0.4,-4,0)"
         style="fill:#000000;fill-opacity:1;fill-rule:evenodd;stroke:#000000;stroke-width:1pt;stroke-opacity:1"
         d="M 0,0 5,-5 -12.5,0 5,5 0,0 Z"
         id="path4285-1" />
    </marker>
    <marker
       inkscape:isstock="true"
       style="overflow:visible"
       id="marker4692-1-0"
       refX="0"
       refY="0"
       orient="auto"
       inkscape:stockid="Arrow1Mend">
      <path
         inkscape:connector-curvature="0"
         transform="matrix(-0.4,0,0,-0.4,-4,0)"
         style="fill:#000000;fill-opacity:1;fill-rule:evenodd;stroke:#000000;stroke-width:1pt;stroke-opacity:1"
         d="M 0,0 5,-5 -12.5,0 5,5 0,0 Z"
         id="path4694-8-6" />
    </marker>
    <marker
       inkscape:stockid="Arrow1Mend"
       orient="auto"
       refY="0"
       refX="0"
       id="marker4683-3-3"
       style="overflow:visible"
       inkscape:isstock="true">
      <path
         id="path4685-6-2"
         d="M 0,0 5,-5 -12.5,0 5,5 0,0 Z"
         style="fill:#000000;fill-opacity:1;fill-rule:evenodd;stroke:#000000;stroke-width:1pt;stroke-opacity:1"
         transform="matrix(-0.4,0,0,-0.4,-4,0)"
         inkscape:connector-curvature="0" />
    </marker>
    <marker
       inkscape:stockid="Arrow1Mend"
       orient="auto"
       refY="0"
       refX="0"
       id="marker4683-5-0"
       style="overflow:visible"
       inkscape:isstock="true">
      <path
         id="path4685-62-6"
         d="M 0,0 5,-5 -12.5,0 5,5 0,0 Z"
         style="fill:#000000;fill-opacity:1;fill-rule:evenodd;stroke:#000000;stroke-width:1pt;stroke-opacity:1"
         transform="matrix(-0.4,0,0,-0.4,-4,0)"
         inkscape:connector-curvature="0" />
    </marker>
    <marker
       inkscape:stockid="Arrow1Mend"
       orient="auto"
       refY="0"
       refX="0"
       id="marker4683-4"
       style="overflow:visible"
       inkscape:isstock="true">
      <path
         id="path4685-8"
         d="M 0,0 5,-5 -12.5,0 5,5 0,0 Z"
         style="fill:#000000;fill-opacity:1;fill-rule:evenodd;stroke:#000000;stroke-width:1pt;stroke-opacity:1"
         transform="matrix(-0.4,0,0,-0.4,-4,0)"
         inkscape:connector-curvature="0" />
    </marker>
    <marker
       inkscape:isstock="true"
       style="overflow:visible"
       id="Arrow1Mend-7"
       refX="0"
       refY="0"
       orient="auto"
       inkscape:stockid="Arrow1Mend">
      <path
         inkscape:connector-curvature="0"
         transform="matrix(-0.4,0,0,-0.4,-4,0)"
         style="fill:#000000;fill-opacity:1;fill-rule:evenodd;stroke:#000000;stroke-width:1pt;stroke-opacity:1"
         d="M 0,0 5,-5 -12.5,0 5,5 0,0 Z"
         id="path4285-17" />
    </marker>
    <marker
       inkscape:isstock="true"
       style="overflow:visible"
       id="marker4692-1-2"
       refX="0"
       refY="0"
       orient="auto"
       inkscape:stockid="Arrow1Mend">
      <path
         inkscape:connector-curvature="0"
         transform="matrix(-0.4,0,0,-0.4,-4,0)"
         style="fill:#000000;fill-opacity:1;fill-rule:evenodd;stroke:#000000;stroke-width:1pt;stroke-opacity:1"
         d="M 0,0 5,-5 -12.5,0 5,5 0,0 Z"
         id="path4694-8-7" />
    </marker>
    <marker
       inkscape:stockid="Arrow1Mend"
       orient="auto"
       refY="0"
       refX="0"
       id="marker4683-3-2"
       style="overflow:visible"
       inkscape:isstock="true">
      <path
         id="path4685-6-26"
         d="M 0,0 5,-5 -12.5,0 5,5 0,0 Z"
         style="fill:#000000;fill-opacity:1;fill-rule:evenodd;stroke:#000000;stroke-width:1pt;stroke-opacity:1"
         transform="matrix(-0.4,0,0,-0.4,-4,0)"
         inkscape:connector-curvature="0" />
    </marker>
    <marker
       inkscape:stockid="Arrow1Mend"
       orient="auto"
       refY="0"
       refX="0"
       id="marker4683-5-1"
       style="overflow:visible"
       inkscape:isstock="true">
      <path
         id="path4685-62-0"
         d="M 0,0 5,-5 -12.5,0 5,5 0,0 Z"
         style="fill:#000000;fill-opacity:1;fill-rule:evenodd;stroke:#000000;stroke-width:1pt;stroke-opacity:1"
         transform="matrix(-0.4,0,0,-0.4,-4,0)"
         inkscape:connector-curvature="0" />
    </marker>
    <marker
       inkscape:stockid="Arrow1Mend"
       orient="auto"
       refY="0"
       refX="0"
       id="marker4683-8"
       style="overflow:visible"
       inkscape:isstock="true">
      <path
         id="path4685-1"
         d="M 0,0 5,-5 -12.5,0 5,5 0,0 Z"
         style="fill:#000000;fill-opacity:1;fill-rule:evenodd;stroke:#000000;stroke-width:1pt;stroke-opacity:1"
         transform="matrix(-0.4,0,0,-0.4,-4,0)"
         inkscape:connector-curvature="0" />
    </marker>
    <marker
       inkscape:isstock="true"
       style="overflow:visible"
       id="Arrow1Mend-0"
       refX="0"
       refY="0"
       orient="auto"
       inkscape:stockid="Arrow1Mend">
      <path
         inkscape:connector-curvature="0"
         transform="matrix(-0.4,0,0,-0.4,-4,0)"
         style="fill:#000000;fill-opacity:1;fill-rule:evenodd;stroke:#000000;stroke-width:1pt;stroke-opacity:1"
         d="M 0,0 5,-5 -12.5,0 5,5 0,0 Z"
         id="path4285-3" />
    </marker>
    <marker
       inkscape:isstock="true"
       style="overflow:visible"
       id="marker4692-1-04"
       refX="0"
       refY="0"
       orient="auto"
       inkscape:stockid="Arrow1Mend">
      <path
         inkscape:connector-curvature="0"
         transform="matrix(-0.4,0,0,-0.4,-4,0)"
         style="fill:#000000;fill-opacity:1;fill-rule:evenodd;stroke:#000000;stroke-width:1pt;stroke-opacity:1"
         d="M 0,0 5,-5 -12.5,0 5,5 0,0 Z"
         id="path4694-8-4" />
    </marker>
    <marker
       inkscape:stockid="Arrow1Mend"
       orient="auto"
       refY="0"
       refX="0"
       id="marker4683-3-4"
       style="overflow:visible"
       inkscape:isstock="true">
      <path
         id="path4685-6-4"
         d="M 0,0 5,-5 -12.5,0 5,5 0,0 Z"
         style="fill:#000000;fill-opacity:1;fill-rule:evenodd;stroke:#000000;stroke-width:1pt;stroke-opacity:1"
         transform="matrix(-0.4,0,0,-0.4,-4,0)"
         inkscape:connector-curvature="0" />
    </marker>
    <marker
       inkscape:stockid="Arrow1Mend"
       orient="auto"
       refY="0"
       refX="0"
       id="marker4683-5-7"
       style="overflow:visible"
       inkscape:isstock="true">
      <path
         id="path4685-62-63"
         d="M 0,0 5,-5 -12.5,0 5,5 0,0 Z"
         style="fill:#000000;fill-opacity:1;fill-rule:evenodd;stroke:#000000;stroke-width:1pt;stroke-opacity:1"
         transform="matrix(-0.4,0,0,-0.4,-4,0)"
         inkscape:connector-curvature="0" />
    </marker>
  </defs>
  <sodipodi:namedview
     id="base"
     pagecolor="#ffffff"
     bordercolor="#666666"
     borderopacity="1.0"
     inkscape:pageopacity="0.0"
     inkscape:pageshadow="2"
     inkscape:zoom="2.2134702"
     inkscape:cx="144.97157"
     inkscape:cy="108.72868"
     inkscape:document-units="px"
     inkscape:current-layer="layer1"
     showgrid="false"
     inkscape:window-width="1366"
     inkscape:window-height="705"
     inkscape:window-x="0"
     inkscape:window-y="30"
     inkscape:window-maximized="1"
     fit-margin-top="0"
     fit-margin-left="0"
     fit-margin-right="0"
     fit-margin-bottom="0" />
  <metadata
     id="metadata7">
    <rdf:RDF>
      <cc:Work
         rdf:about="">
        <dc:format>image/svg+xml</dc:format>
        <dc:type
           rdf:resource="http://purl.org/dc/dcmitype/StillImage" />
        <dc:title></dc:title>
      </cc:Work>
    </rdf:RDF>
  </metadata>
  <g
     inkscape:label="Layer 1"
     inkscape:groupmode="layer"
     id="layer1"
     transform="translate(-636.43563,-354.54139)">
    <path
       style="fill:none;fill-rule:evenodd;stroke:#000000;stroke-width:1.41732287;stroke-linecap:butt;stroke-linejoin:miter;stroke-miterlimit:4;stroke-dasharray:none;stroke-opacity:1;marker-end:url(#marker4683)"
       d="m 668.87822,452.85241 235.28867,0"
       id="path4312-2"
       inkscape:connector-curvature="0" />
    <text
       xml:space="preserve"
       style="font-style:normal;font-weight:normal;font-size:6.45091248px;line-height:125%;font-family:sans-serif;letter-spacing:0px;word-spacing:0px;fill:#000000;fill-opacity:1;stroke:none;stroke-width:1px;stroke-linecap:butt;stroke-linejoin:miter;stroke-opacity:1"
       x="902.65765"
       y="467.11423"
       id="text4262-62-0"
       sodipodi:linespacing="125%"><tspan
         sodipodi:role="line"
         id="tspan4264-6-2"
         x="902.65765"
         y="467.11423"
         style="font-style:normal;font-variant:normal;font-weight:normal;font-stretch:normal;font-size:19.84896278px;font-family:Alfa-beta;-inkscape-font-specification:Alfa-beta">w</tspan></text>
    <path
       style="fill:none;fill-rule:evenodd;stroke:#000000;stroke-width:1.41732287;stroke-linecap:butt;stroke-linejoin:miter;stroke-miterlimit:4;stroke-dasharray:none;stroke-opacity:1;marker-end:url(#marker4683-3)"
       d="m 678.30081,580.35472 0,-223.10623"
       id="path4312-2-7"
       inkscape:connector-curvature="0" />
    <text
       xml:space="preserve"
       style="font-style:normal;font-weight:normal;font-size:6.45091248px;line-height:125%;font-family:sans-serif;letter-spacing:0px;word-spacing:0px;fill:#000000;fill-opacity:1;stroke:none;stroke-width:1px;stroke-linecap:butt;stroke-linejoin:miter;stroke-opacity:1"
       x="654.11969"
       y="459.24319"
       id="text4262-62-0-6-2-3"
       sodipodi:linespacing="125%"><tspan
         sodipodi:role="line"
         id="tspan4264-6-2-7-7-6"
         x="654.11969"
         y="459.24319"
         style="font-style:normal;font-variant:normal;font-weight:normal;font-stretch:normal;font-size:19.84896278px;font-family:Alfa-beta;-inkscape-font-specification:Alfa-beta">0</tspan></text>
    <path
       style="fill:none;fill-rule:evenodd;stroke:#000000;stroke-width:1.0629921;stroke-linecap:butt;stroke-linejoin:miter;stroke-miterlimit:4;stroke-dasharray:3.18897638, 3.18897638;stroke-dashoffset:0;stroke-opacity:1"
       d="m 807.03376,369.29485 0,207.11512"
       id="path4555"
       inkscape:connector-curvature="0" />
    <path
       style="fill:none;fill-rule:evenodd;stroke:#000000;stroke-width:1.0629921;stroke-linecap:butt;stroke-linejoin:miter;stroke-miterlimit:4;stroke-dasharray:3.18897638, 3.18897638;stroke-dashoffset:0;stroke-opacity:1"
       d="m 678.30081,369.29485 0,207.11512"
       id="path4555-7"
       inkscape:connector-curvature="0" />
    <path
       style="fill:none;fill-rule:evenodd;stroke:#000000;stroke-width:1.0629921;stroke-linecap:butt;stroke-linejoin:miter;stroke-miterlimit:4;stroke-dasharray:3.18897638, 3.18897638;stroke-dashoffset:0;stroke-opacity:1"
       d="m 742.66728,369.29485 0,207.11512"
       id="path4555-5"
       inkscape:connector-curvature="0" />
    <path
       style="fill:none;fill-rule:evenodd;stroke:#000000;stroke-width:1.0629921;stroke-linecap:butt;stroke-linejoin:miter;stroke-miterlimit:4;stroke-dasharray:3.18897638, 3.18897638;stroke-dashoffset:0;stroke-opacity:1"
       d="m 881.85835,532.85241 -207.11512,0"
       id="path4555-36"
       inkscape:connector-curvature="0" />
    <path
       style="fill:none;fill-rule:evenodd;stroke:#000000;stroke-width:1.0629921;stroke-linecap:butt;stroke-linejoin:miter;stroke-miterlimit:4;stroke-dasharray:3.18897638, 3.18897638;stroke-dashoffset:0;stroke-opacity:1"
       d="m 881.85835,572.85241 -207.11512,0"
       id="path4555-3-0"
       inkscape:connector-curvature="0" />
    <path
       style="fill:none;fill-rule:evenodd;stroke:#000000;stroke-width:1.0629921;stroke-linecap:butt;stroke-linejoin:miter;stroke-miterlimit:4;stroke-dasharray:3.18897638, 3.18897638;stroke-dashoffset:0;stroke-opacity:1"
       d="m 881.85835,492.85241 -207.11512,0"
       id="path4555-6-6"
       inkscape:connector-curvature="0" />
    <path
       style="fill:none;fill-rule:evenodd;stroke:#000000;stroke-width:1.0629921;stroke-linecap:butt;stroke-linejoin:miter;stroke-miterlimit:4;stroke-dasharray:3.18897638, 3.18897638;stroke-dashoffset:0;stroke-opacity:1"
       d="m 881.85835,372.85241 -207.11512,0"
       id="path4555-7-2"
       inkscape:connector-curvature="0" />
    <path
       style="fill:none;fill-rule:evenodd;stroke:#000000;stroke-width:1.0629921;stroke-linecap:butt;stroke-linejoin:miter;stroke-miterlimit:4;stroke-dasharray:3.18897638, 3.18897638;stroke-dashoffset:0;stroke-opacity:1"
       d="m 881.85835,452.85241 -207.11512,0"
       id="path4555-5-6"
       inkscape:connector-curvature="0" />
    <path
       style="fill:none;fill-rule:evenodd;stroke:#000000;stroke-width:1.0629921;stroke-linecap:butt;stroke-linejoin:miter;stroke-miterlimit:4;stroke-dasharray:3.18897638, 3.18897638;stroke-dashoffset:0;stroke-opacity:1"
       d="m 881.85835,412.85241 -207.11512,0"
       id="path4555-35-1"
       inkscape:connector-curvature="0" />
    <text
       xml:space="preserve"
       style="font-style:normal;font-weight:normal;font-size:6.45091248px;line-height:125%;font-family:sans-serif;letter-spacing:0px;word-spacing:0px;fill:#000000;fill-opacity:1;stroke:none;stroke-width:1px;stroke-linecap:butt;stroke-linejoin:miter;stroke-opacity:1"
       x="644.42786"
       y="419.8154"
       id="text4262-62-0-6-2-3-8"
       sodipodi:linespacing="125%"><tspan
         sodipodi:role="line"
         id="tspan4264-6-2-7-7-6-7"
         x="644.42786"
         y="419.8154"
         style="font-style:normal;font-variant:normal;font-weight:normal;font-stretch:normal;font-size:19.84896278px;font-family:Alfa-beta;-inkscape-font-specification:Alfa-beta">20</tspan></text>
    <text
       xml:space="preserve"
       style="font-style:normal;font-weight:normal;font-size:6.45091248px;line-height:125%;font-family:sans-serif;letter-spacing:0px;word-spacing:0px;fill:#000000;fill-opacity:1;stroke:none;stroke-width:1px;stroke-linecap:butt;stroke-linejoin:miter;stroke-opacity:1"
       x="644.0014"
       y="379.53574"
       id="text4262-62-0-6-2-3-9"
       sodipodi:linespacing="125%"><tspan
         sodipodi:role="line"
         id="tspan4264-6-2-7-7-6-2"
         x="644.0014"
         y="379.53574"
         style="font-style:normal;font-variant:normal;font-weight:normal;font-stretch:normal;font-size:19.84896278px;font-family:Alfa-beta;-inkscape-font-specification:Alfa-beta">40</tspan></text>
    <text
       xml:space="preserve"
       style="font-style:normal;font-weight:normal;font-size:6.45091248px;line-height:125%;font-family:sans-serif;letter-spacing:0px;word-spacing:0px;fill:#000000;fill-opacity:1;stroke:none;stroke-width:1px;stroke-linecap:butt;stroke-linejoin:miter;stroke-opacity:1"
       x="634.15442"
       y="499.47958"
       id="text4262-62-0-6-2-3-0"
       sodipodi:linespacing="125%"><tspan
         sodipodi:role="line"
         id="tspan4264-6-2-7-7-6-23"
         x="634.15442"
         y="499.47958"
         style="font-style:normal;font-variant:normal;font-weight:normal;font-stretch:normal;font-size:19.84896278px;font-family:Alfa-beta;-inkscape-font-specification:Alfa-beta">-20</tspan></text>
    <text
       xml:space="preserve"
       style="font-style:normal;font-weight:normal;font-size:6.45091248px;line-height:125%;font-family:sans-serif;letter-spacing:0px;word-spacing:0px;fill:#000000;fill-opacity:1;stroke:none;stroke-width:1px;stroke-linecap:butt;stroke-linejoin:miter;stroke-opacity:1"
       x="633.72803"
       y="539.31171"
       id="text4262-62-0-6-2-3-7"
       sodipodi:linespacing="125%"><tspan
         sodipodi:role="line"
         id="tspan4264-6-2-7-7-6-5"
         x="633.72803"
         y="539.31171"
         style="font-style:normal;font-variant:normal;font-weight:normal;font-stretch:normal;font-size:19.84896278px;font-family:Alfa-beta;-inkscape-font-specification:Alfa-beta">-40</tspan></text>
    <text
       xml:space="preserve"
       style="font-style:normal;font-weight:normal;font-size:6.45091248px;line-height:125%;font-family:sans-serif;letter-spacing:0px;word-spacing:0px;fill:#000000;fill-opacity:1;stroke:none;stroke-width:1px;stroke-linecap:butt;stroke-linejoin:miter;stroke-opacity:1"
       x="634.03815"
       y="579.1438"
       id="text4262-62-0-6-2-3-92"
       sodipodi:linespacing="125%"><tspan
         sodipodi:role="line"
         id="tspan4264-6-2-7-7-6-28"
         x="634.03815"
         y="579.1438"
         style="font-style:normal;font-variant:normal;font-weight:normal;font-stretch:normal;font-size:19.84896278px;font-family:Alfa-beta;-inkscape-font-specification:Alfa-beta">-60</tspan></text>
    <text
       xml:space="preserve"
       style="font-style:normal;font-weight:normal;font-size:6.45091248px;line-height:125%;font-family:sans-serif;letter-spacing:0px;word-spacing:0px;fill:#000000;fill-opacity:1;stroke:none;stroke-width:1px;stroke-linecap:butt;stroke-linejoin:miter;stroke-opacity:1"
       x="808.39697"
       y="450.90628"
       id="text4262-62-0-6-2-3-97-6"
       sodipodi:linespacing="125%"><tspan
         sodipodi:role="line"
         id="tspan4264-6-2-7-7-6-3-1"
         x="808.39697"
         y="450.90628"
         style="font-style:normal;font-variant:normal;font-weight:normal;font-stretch:normal;font-size:12.49999809px;font-family:Alfa-beta;-inkscape-font-specification:Alfa-beta">10</tspan></text>
    <text
       xml:space="preserve"
       style="font-style:normal;font-weight:normal;font-size:6.45091248px;line-height:125%;font-family:sans-serif;letter-spacing:0px;word-spacing:0px;fill:#000000;fill-opacity:1;stroke:none;stroke-width:1px;stroke-linecap:butt;stroke-linejoin:miter;stroke-opacity:1"
       x="745.1803"
       y="451.07935"
       id="text4262-62-0-6-2-3-97-2"
       sodipodi:linespacing="125%"><tspan
         sodipodi:role="line"
         id="tspan4264-6-2-7-7-6-3-9"
         x="745.1803"
         y="451.07935"
         style="font-style:normal;font-variant:normal;font-weight:normal;font-stretch:normal;font-size:12.49999809px;font-family:Alfa-beta;-inkscape-font-specification:Alfa-beta">1</tspan></text>
    <path
       style="fill:none;fill-rule:evenodd;stroke:#000000;stroke-width:1.0629921;stroke-linecap:butt;stroke-linejoin:miter;stroke-miterlimit:4;stroke-dasharray:3.18897638, 3.18897638;stroke-dashoffset:0;stroke-opacity:1"
       d="m 871.40022,369.29486 0,207.1151"
       id="path4555-3"
       inkscape:connector-curvature="0" />
    <text
       xml:space="preserve"
       style="font-style:normal;font-weight:normal;font-size:6.45091248px;line-height:125%;font-family:sans-serif;letter-spacing:0px;word-spacing:0px;fill:#000000;fill-opacity:1;stroke:none;stroke-width:1px;stroke-linecap:butt;stroke-linejoin:miter;stroke-opacity:1"
       x="778.8963"
       y="450.8678"
       id="text4262-62-0-6-2-3-97-2-3"
       sodipodi:linespacing="125%"><tspan
         sodipodi:role="line"
         id="tspan4264-6-2-7-7-6-3-9-6"
         x="778.8963"
         y="450.8678"
         style="font-style:normal;font-variant:normal;font-weight:normal;font-stretch:normal;font-size:12.49999809px;font-family:Alfa-beta;-inkscape-font-specification:Alfa-beta">5</tspan></text>
    <path
       style="fill:none;fill-rule:evenodd;stroke:#000000;stroke-width:1.41732287;stroke-linecap:butt;stroke-linejoin:miter;stroke-miterlimit:4;stroke-dasharray:none;stroke-opacity:1;marker-end:url(#marker4683-7)"
       d="m 668.87822,452.85241 235.28867,0"
       id="path4312-2-6"
       inkscape:connector-curvature="0" />
    <text
       xml:space="preserve"
       style="font-style:normal;font-weight:normal;font-size:6.45091248px;line-height:125%;font-family:sans-serif;letter-spacing:0px;word-spacing:0px;fill:#000000;fill-opacity:1;stroke:none;stroke-width:1px;stroke-linecap:butt;stroke-linejoin:miter;stroke-opacity:1"
       x="902.65765"
       y="467.11423"
       id="text4262-62-0-0"
       sodipodi:linespacing="125%"><tspan
         sodipodi:role="line"
         id="tspan4264-6-2-6"
         x="902.65765"
         y="467.11423"
         style="font-style:normal;font-variant:normal;font-weight:normal;font-stretch:normal;font-size:19.84896278px;font-family:Alfa-beta;-inkscape-font-specification:Alfa-beta">w</tspan></text>
    <path
       style="fill:none;fill-rule:evenodd;stroke:#000000;stroke-width:1.41732287;stroke-linecap:butt;stroke-linejoin:miter;stroke-miterlimit:4;stroke-dasharray:none;stroke-opacity:1;marker-end:url(#marker4683-3-9)"
       d="m 678.30081,580.35472 0,-223.10623"
       id="path4312-2-7-2"
       inkscape:connector-curvature="0" />
    <text
       xml:space="preserve"
       style="font-style:normal;font-weight:normal;font-size:6.45091248px;line-height:125%;font-family:sans-serif;letter-spacing:0px;word-spacing:0px;fill:#000000;fill-opacity:1;stroke:none;stroke-width:1px;stroke-linecap:butt;stroke-linejoin:miter;stroke-opacity:1"
       x="654.11969"
       y="459.24319"
       id="text4262-62-0-6-2-3-6"
       sodipodi:linespacing="125%"><tspan
         sodipodi:role="line"
         id="tspan4264-6-2-7-7-6-1"
         x="654.11969"
         y="459.24319"
         style="font-style:normal;font-variant:normal;font-weight:normal;font-stretch:normal;font-size:19.84896278px;font-family:Alfa-beta;-inkscape-font-specification:Alfa-beta">0</tspan></text>
    <path
       style="fill:none;fill-rule:evenodd;stroke:#000000;stroke-width:1.0629921;stroke-linecap:butt;stroke-linejoin:miter;stroke-miterlimit:4;stroke-dasharray:3.18897638, 3.18897638;stroke-dashoffset:0;stroke-opacity:1"
       d="m 807.03376,369.29485 0,207.11512"
       id="path4555-8"
       inkscape:connector-curvature="0" />
    <path
       style="fill:none;fill-rule:evenodd;stroke:#000000;stroke-width:1.0629921;stroke-linecap:butt;stroke-linejoin:miter;stroke-miterlimit:4;stroke-dasharray:3.18897638, 3.18897638;stroke-dashoffset:0;stroke-opacity:1"
       d="m 678.30081,369.29485 0,207.11512"
       id="path4555-7-7"
       inkscape:connector-curvature="0" />
    <path
       style="fill:none;fill-rule:evenodd;stroke:#000000;stroke-width:1.0629921;stroke-linecap:butt;stroke-linejoin:miter;stroke-miterlimit:4;stroke-dasharray:3.18897638, 3.18897638;stroke-dashoffset:0;stroke-opacity:1"
       d="m 742.66728,369.29485 0,207.11512"
       id="path4555-5-9"
       inkscape:connector-curvature="0" />
    <path
       style="fill:none;fill-rule:evenodd;stroke:#000000;stroke-width:1.0629921;stroke-linecap:butt;stroke-linejoin:miter;stroke-miterlimit:4;stroke-dasharray:3.18897638, 3.18897638;stroke-dashoffset:0;stroke-opacity:1"
       d="m 881.85835,532.85241 -207.11512,0"
       id="path4555-36-2"
       inkscape:connector-curvature="0" />
    <path
       style="fill:none;fill-rule:evenodd;stroke:#000000;stroke-width:1.0629921;stroke-linecap:butt;stroke-linejoin:miter;stroke-miterlimit:4;stroke-dasharray:3.18897638, 3.18897638;stroke-dashoffset:0;stroke-opacity:1"
       d="m 881.85835,572.85241 -207.11512,0"
       id="path4555-3-0-0"
       inkscape:connector-curvature="0" />
    <path
       style="fill:none;fill-rule:evenodd;stroke:#000000;stroke-width:1.0629921;stroke-linecap:butt;stroke-linejoin:miter;stroke-miterlimit:4;stroke-dasharray:3.18897638, 3.18897638;stroke-dashoffset:0;stroke-opacity:1"
       d="m 881.85835,492.85241 -207.11512,0"
       id="path4555-6-6-2"
       inkscape:connector-curvature="0" />
    <path
       style="fill:none;fill-rule:evenodd;stroke:#000000;stroke-width:1.0629921;stroke-linecap:butt;stroke-linejoin:miter;stroke-miterlimit:4;stroke-dasharray:3.18897638, 3.18897638;stroke-dashoffset:0;stroke-opacity:1"
       d="m 881.85835,372.85241 -207.11512,0"
       id="path4555-7-2-3"
       inkscape:connector-curvature="0" />
    <path
       style="fill:none;fill-rule:evenodd;stroke:#000000;stroke-width:1.0629921;stroke-linecap:butt;stroke-linejoin:miter;stroke-miterlimit:4;stroke-dasharray:3.18897638, 3.18897638;stroke-dashoffset:0;stroke-opacity:1"
       d="m 881.85835,452.85241 -207.11512,0"
       id="path4555-5-6-7"
       inkscape:connector-curvature="0" />
    <path
       style="fill:none;fill-rule:evenodd;stroke:#000000;stroke-width:1.0629921;stroke-linecap:butt;stroke-linejoin:miter;stroke-miterlimit:4;stroke-dasharray:3.18897638, 3.18897638;stroke-dashoffset:0;stroke-opacity:1"
       d="m 881.85835,412.85241 -207.11512,0"
       id="path4555-35-1-5"
       inkscape:connector-curvature="0" />
    <text
       xml:space="preserve"
       style="font-style:normal;font-weight:normal;font-size:6.45091248px;line-height:125%;font-family:sans-serif;letter-spacing:0px;word-spacing:0px;fill:#000000;fill-opacity:1;stroke:none;stroke-width:1px;stroke-linecap:butt;stroke-linejoin:miter;stroke-opacity:1"
       x="644.42786"
       y="419.8154"
       id="text4262-62-0-6-2-3-8-9"
       sodipodi:linespacing="125%"><tspan
         sodipodi:role="line"
         id="tspan4264-6-2-7-7-6-7-2"
         x="644.42786"
         y="419.8154"
         style="font-style:normal;font-variant:normal;font-weight:normal;font-stretch:normal;font-size:19.84896278px;font-family:Alfa-beta;-inkscape-font-specification:Alfa-beta">20</tspan></text>
    <text
       xml:space="preserve"
       style="font-style:normal;font-weight:normal;font-size:6.45091248px;line-height:125%;font-family:sans-serif;letter-spacing:0px;word-spacing:0px;fill:#000000;fill-opacity:1;stroke:none;stroke-width:1px;stroke-linecap:butt;stroke-linejoin:miter;stroke-opacity:1"
       x="644.0014"
       y="379.53574"
       id="text4262-62-0-6-2-3-9-2"
       sodipodi:linespacing="125%"><tspan
         sodipodi:role="line"
         id="tspan4264-6-2-7-7-6-2-8"
         x="644.0014"
         y="379.53574"
         style="font-style:normal;font-variant:normal;font-weight:normal;font-stretch:normal;font-size:19.84896278px;font-family:Alfa-beta;-inkscape-font-specification:Alfa-beta">40</tspan></text>
    <text
       xml:space="preserve"
       style="font-style:normal;font-weight:normal;font-size:6.45091248px;line-height:125%;font-family:sans-serif;letter-spacing:0px;word-spacing:0px;fill:#000000;fill-opacity:1;stroke:none;stroke-width:1px;stroke-linecap:butt;stroke-linejoin:miter;stroke-opacity:1"
       x="634.15442"
       y="499.47958"
       id="text4262-62-0-6-2-3-0-9"
       sodipodi:linespacing="125%"><tspan
         sodipodi:role="line"
         id="tspan4264-6-2-7-7-6-23-7"
         x="634.15442"
         y="499.47958"
         style="font-style:normal;font-variant:normal;font-weight:normal;font-stretch:normal;font-size:19.84896278px;font-family:Alfa-beta;-inkscape-font-specification:Alfa-beta">-20</tspan></text>
    <text
       xml:space="preserve"
       style="font-style:normal;font-weight:normal;font-size:6.45091248px;line-height:125%;font-family:sans-serif;letter-spacing:0px;word-spacing:0px;fill:#000000;fill-opacity:1;stroke:none;stroke-width:1px;stroke-linecap:butt;stroke-linejoin:miter;stroke-opacity:1"
       x="633.72803"
       y="539.31171"
       id="text4262-62-0-6-2-3-7-3"
       sodipodi:linespacing="125%"><tspan
         sodipodi:role="line"
         id="tspan4264-6-2-7-7-6-5-6"
         x="633.72803"
         y="539.31171"
         style="font-style:normal;font-variant:normal;font-weight:normal;font-stretch:normal;font-size:19.84896278px;font-family:Alfa-beta;-inkscape-font-specification:Alfa-beta">-40</tspan></text>
    <text
       xml:space="preserve"
       style="font-style:normal;font-weight:normal;font-size:6.45091248px;line-height:125%;font-family:sans-serif;letter-spacing:0px;word-spacing:0px;fill:#000000;fill-opacity:1;stroke:none;stroke-width:1px;stroke-linecap:butt;stroke-linejoin:miter;stroke-opacity:1"
       x="634.03815"
       y="579.1438"
       id="text4262-62-0-6-2-3-92-1"
       sodipodi:linespacing="125%"><tspan
         sodipodi:role="line"
         id="tspan4264-6-2-7-7-6-28-2"
         x="634.03815"
         y="579.1438"
         style="font-style:normal;font-variant:normal;font-weight:normal;font-stretch:normal;font-size:19.84896278px;font-family:Alfa-beta;-inkscape-font-specification:Alfa-beta">-60</tspan></text>
    <text
       xml:space="preserve"
       style="font-style:normal;font-weight:normal;font-size:6.45091248px;line-height:125%;font-family:sans-serif;letter-spacing:0px;word-spacing:0px;fill:#000000;fill-opacity:1;stroke:none;stroke-width:1px;stroke-linecap:butt;stroke-linejoin:miter;stroke-opacity:1"
       x="808.39697"
       y="450.90628"
       id="text4262-62-0-6-2-3-97-6-9"
       sodipodi:linespacing="125%"><tspan
         sodipodi:role="line"
         id="tspan4264-6-2-7-7-6-3-1-3"
         x="808.39697"
         y="450.90628"
         style="font-style:normal;font-variant:normal;font-weight:normal;font-stretch:normal;font-size:12.49999809px;font-family:Alfa-beta;-inkscape-font-specification:Alfa-beta">10</tspan></text>
    <text
       xml:space="preserve"
       style="font-style:normal;font-weight:normal;font-size:6.45091248px;line-height:125%;font-family:sans-serif;letter-spacing:0px;word-spacing:0px;fill:#000000;fill-opacity:1;stroke:none;stroke-width:1px;stroke-linecap:butt;stroke-linejoin:miter;stroke-opacity:1"
       x="745.1803"
       y="451.07935"
       id="text4262-62-0-6-2-3-97-2-1"
       sodipodi:linespacing="125%"><tspan
         sodipodi:role="line"
         id="tspan4264-6-2-7-7-6-3-9-9"
         x="745.1803"
         y="451.07935"
         style="font-style:normal;font-variant:normal;font-weight:normal;font-stretch:normal;font-size:12.49999809px;font-family:Alfa-beta;-inkscape-font-specification:Alfa-beta">1</tspan></text>
    <path
       style="fill:none;fill-rule:evenodd;stroke:#000000;stroke-width:1.0629921;stroke-linecap:butt;stroke-linejoin:miter;stroke-miterlimit:4;stroke-dasharray:3.18897638, 3.18897638;stroke-dashoffset:0;stroke-opacity:1"
       d="m 871.40022,369.29486 0,207.1151"
       id="path4555-3-4"
       inkscape:connector-curvature="0" />
    <text
       xml:space="preserve"
       style="font-style:normal;font-weight:normal;font-size:6.45091248px;line-height:125%;font-family:sans-serif;letter-spacing:0px;word-spacing:0px;fill:#000000;fill-opacity:1;stroke:none;stroke-width:1px;stroke-linecap:butt;stroke-linejoin:miter;stroke-opacity:1"
       x="759.65161"
       y="451.07935"
       id="text4262-62-0-6-2-3-97-2-3-7"
       sodipodi:linespacing="125%"><tspan
         sodipodi:role="line"
         id="tspan4264-6-2-7-7-6-3-9-6-8"
         x="759.65161"
         y="451.07935"
         style="font-style:normal;font-variant:normal;font-weight:normal;font-stretch:normal;font-size:12.49999809px;font-family:Alfa-beta;-inkscape-font-specification:Alfa-beta">2</tspan></text>
    <path
       style="fill:none;fill-rule:evenodd;stroke:#000000;stroke-width:1.41732287;stroke-linecap:butt;stroke-linejoin:miter;stroke-miterlimit:4;stroke-dasharray:none;stroke-opacity:1;marker-end:url(#marker4683-0)"
       d="m 668.87822,452.85241 235.28867,0"
       id="path4312-2-4"
       inkscape:connector-curvature="0" />
    <text
       xml:space="preserve"
       style="font-style:normal;font-weight:normal;font-size:6.45091248px;line-height:125%;font-family:sans-serif;letter-spacing:0px;word-spacing:0px;fill:#000000;fill-opacity:1;stroke:none;stroke-width:1px;stroke-linecap:butt;stroke-linejoin:miter;stroke-opacity:1"
       x="902.65765"
       y="467.11423"
       id="text4262-62-0-7"
       sodipodi:linespacing="125%"><tspan
         sodipodi:role="line"
         id="tspan4264-6-2-65"
         x="902.65765"
         y="467.11423"
         style="font-style:normal;font-variant:normal;font-weight:normal;font-stretch:normal;font-size:19.84896278px;font-family:Alfa-beta;-inkscape-font-specification:Alfa-beta">w</tspan></text>
    <path
       style="fill:none;fill-rule:evenodd;stroke:#000000;stroke-width:1.41732287;stroke-linecap:butt;stroke-linejoin:miter;stroke-miterlimit:4;stroke-dasharray:none;stroke-opacity:1;marker-end:url(#marker4683-3-3)"
       d="m 678.30081,580.35472 0,-223.10623"
       id="path4312-2-7-6"
       inkscape:connector-curvature="0" />
    <text
       xml:space="preserve"
       style="font-style:normal;font-weight:normal;font-size:6.45091248px;line-height:125%;font-family:sans-serif;letter-spacing:0px;word-spacing:0px;fill:#000000;fill-opacity:1;stroke:none;stroke-width:1px;stroke-linecap:butt;stroke-linejoin:miter;stroke-opacity:1"
       x="654.11969"
       y="459.24319"
       id="text4262-62-0-6-2-3-93"
       sodipodi:linespacing="125%"><tspan
         sodipodi:role="line"
         id="tspan4264-6-2-7-7-6-74"
         x="654.11969"
         y="459.24319"
         style="font-style:normal;font-variant:normal;font-weight:normal;font-stretch:normal;font-size:19.84896278px;font-family:Alfa-beta;-inkscape-font-specification:Alfa-beta">0</tspan></text>
    <path
       style="fill:none;fill-rule:evenodd;stroke:#000000;stroke-width:1.0629921;stroke-linecap:butt;stroke-linejoin:miter;stroke-miterlimit:4;stroke-dasharray:3.18897638, 3.18897638;stroke-dashoffset:0;stroke-opacity:1"
       d="m 807.03376,369.29485 0,207.11512"
       id="path4555-52"
       inkscape:connector-curvature="0" />
    <path
       style="fill:none;fill-rule:evenodd;stroke:#000000;stroke-width:1.0629921;stroke-linecap:butt;stroke-linejoin:miter;stroke-miterlimit:4;stroke-dasharray:3.18897638, 3.18897638;stroke-dashoffset:0;stroke-opacity:1"
       d="m 678.30081,369.29485 0,207.11512"
       id="path4555-7-5"
       inkscape:connector-curvature="0" />
    <path
       style="fill:none;fill-rule:evenodd;stroke:#000000;stroke-width:1.0629921;stroke-linecap:butt;stroke-linejoin:miter;stroke-miterlimit:4;stroke-dasharray:3.18897638, 3.18897638;stroke-dashoffset:0;stroke-opacity:1"
       d="m 742.66728,369.29485 0,207.11512"
       id="path4555-5-4"
       inkscape:connector-curvature="0" />
    <path
       style="fill:none;fill-rule:evenodd;stroke:#000000;stroke-width:1.0629921;stroke-linecap:butt;stroke-linejoin:miter;stroke-miterlimit:4;stroke-dasharray:3.18897638, 3.18897638;stroke-dashoffset:0;stroke-opacity:1"
       d="m 881.85835,532.85241 -207.11512,0"
       id="path4555-36-7"
       inkscape:connector-curvature="0" />
    <path
       style="fill:none;fill-rule:evenodd;stroke:#000000;stroke-width:1.0629921;stroke-linecap:butt;stroke-linejoin:miter;stroke-miterlimit:4;stroke-dasharray:3.18897638, 3.18897638;stroke-dashoffset:0;stroke-opacity:1"
       d="m 881.85835,572.85241 -207.11512,0"
       id="path4555-3-0-4"
       inkscape:connector-curvature="0" />
    <path
       style="fill:none;fill-rule:evenodd;stroke:#000000;stroke-width:1.0629921;stroke-linecap:butt;stroke-linejoin:miter;stroke-miterlimit:4;stroke-dasharray:3.18897638, 3.18897638;stroke-dashoffset:0;stroke-opacity:1"
       d="m 881.85835,492.85241 -207.11512,0"
       id="path4555-6-6-4"
       inkscape:connector-curvature="0" />
    <path
       style="fill:none;fill-rule:evenodd;stroke:#000000;stroke-width:1.0629921;stroke-linecap:butt;stroke-linejoin:miter;stroke-miterlimit:4;stroke-dasharray:3.18897638, 3.18897638;stroke-dashoffset:0;stroke-opacity:1"
       d="m 881.85835,372.85241 -207.11512,0"
       id="path4555-7-2-30"
       inkscape:connector-curvature="0" />
    <path
       style="fill:none;fill-rule:evenodd;stroke:#000000;stroke-width:1.0629921;stroke-linecap:butt;stroke-linejoin:miter;stroke-miterlimit:4;stroke-dasharray:3.18897638, 3.18897638;stroke-dashoffset:0;stroke-opacity:1"
       d="m 881.85835,452.85241 -207.11512,0"
       id="path4555-5-6-78"
       inkscape:connector-curvature="0" />
    <path
       style="fill:none;fill-rule:evenodd;stroke:#000000;stroke-width:1.0629921;stroke-linecap:butt;stroke-linejoin:miter;stroke-miterlimit:4;stroke-dasharray:3.18897638, 3.18897638;stroke-dashoffset:0;stroke-opacity:1"
       d="m 881.85835,412.85241 -207.11512,0"
       id="path4555-35-1-6"
       inkscape:connector-curvature="0" />
    <text
       xml:space="preserve"
       style="font-style:normal;font-weight:normal;font-size:6.45091248px;line-height:125%;font-family:sans-serif;letter-spacing:0px;word-spacing:0px;fill:#000000;fill-opacity:1;stroke:none;stroke-width:1px;stroke-linecap:butt;stroke-linejoin:miter;stroke-opacity:1"
       x="644.42786"
       y="419.8154"
       id="text4262-62-0-6-2-3-8-8"
       sodipodi:linespacing="125%"><tspan
         sodipodi:role="line"
         id="tspan4264-6-2-7-7-6-7-8"
         x="644.42786"
         y="419.8154"
         style="font-style:normal;font-variant:normal;font-weight:normal;font-stretch:normal;font-size:19.84896278px;font-family:Alfa-beta;-inkscape-font-specification:Alfa-beta">20</tspan></text>
    <text
       xml:space="preserve"
       style="font-style:normal;font-weight:normal;font-size:6.45091248px;line-height:125%;font-family:sans-serif;letter-spacing:0px;word-spacing:0px;fill:#000000;fill-opacity:1;stroke:none;stroke-width:1px;stroke-linecap:butt;stroke-linejoin:miter;stroke-opacity:1"
       x="644.0014"
       y="379.53574"
       id="text4262-62-0-6-2-3-9-4"
       sodipodi:linespacing="125%"><tspan
         sodipodi:role="line"
         id="tspan4264-6-2-7-7-6-2-3"
         x="644.0014"
         y="379.53574"
         style="font-style:normal;font-variant:normal;font-weight:normal;font-stretch:normal;font-size:19.84896278px;font-family:Alfa-beta;-inkscape-font-specification:Alfa-beta">40</tspan></text>
    <text
       xml:space="preserve"
       style="font-style:normal;font-weight:normal;font-size:6.45091248px;line-height:125%;font-family:sans-serif;letter-spacing:0px;word-spacing:0px;fill:#000000;fill-opacity:1;stroke:none;stroke-width:1px;stroke-linecap:butt;stroke-linejoin:miter;stroke-opacity:1"
       x="634.15442"
       y="499.47958"
       id="text4262-62-0-6-2-3-0-1"
       sodipodi:linespacing="125%"><tspan
         sodipodi:role="line"
         id="tspan4264-6-2-7-7-6-23-4"
         x="634.15442"
         y="499.47958"
         style="font-style:normal;font-variant:normal;font-weight:normal;font-stretch:normal;font-size:19.84896278px;font-family:Alfa-beta;-inkscape-font-specification:Alfa-beta">-20</tspan></text>
    <text
       xml:space="preserve"
       style="font-style:normal;font-weight:normal;font-size:6.45091248px;line-height:125%;font-family:sans-serif;letter-spacing:0px;word-spacing:0px;fill:#000000;fill-opacity:1;stroke:none;stroke-width:1px;stroke-linecap:butt;stroke-linejoin:miter;stroke-opacity:1"
       x="633.72803"
       y="539.31171"
       id="text4262-62-0-6-2-3-7-9"
       sodipodi:linespacing="125%"><tspan
         sodipodi:role="line"
         id="tspan4264-6-2-7-7-6-5-2"
         x="633.72803"
         y="539.31171"
         style="font-style:normal;font-variant:normal;font-weight:normal;font-stretch:normal;font-size:19.84896278px;font-family:Alfa-beta;-inkscape-font-specification:Alfa-beta">-40</tspan></text>
    <text
       xml:space="preserve"
       style="font-style:normal;font-weight:normal;font-size:6.45091248px;line-height:125%;font-family:sans-serif;letter-spacing:0px;word-spacing:0px;fill:#000000;fill-opacity:1;stroke:none;stroke-width:1px;stroke-linecap:butt;stroke-linejoin:miter;stroke-opacity:1"
       x="634.03815"
       y="579.1438"
       id="text4262-62-0-6-2-3-92-0"
       sodipodi:linespacing="125%"><tspan
         sodipodi:role="line"
         id="tspan4264-6-2-7-7-6-28-6"
         x="634.03815"
         y="579.1438"
         style="font-style:normal;font-variant:normal;font-weight:normal;font-stretch:normal;font-size:19.84896278px;font-family:Alfa-beta;-inkscape-font-specification:Alfa-beta">-60</tspan></text>
    <text
       xml:space="preserve"
       style="font-style:normal;font-weight:normal;font-size:6.45091248px;line-height:125%;font-family:sans-serif;letter-spacing:0px;word-spacing:0px;fill:#000000;fill-opacity:1;stroke:none;stroke-width:1px;stroke-linecap:butt;stroke-linejoin:miter;stroke-opacity:1"
       x="808.39697"
       y="450.90628"
       id="text4262-62-0-6-2-3-97-6-8"
       sodipodi:linespacing="125%"><tspan
         sodipodi:role="line"
         id="tspan4264-6-2-7-7-6-3-1-9"
         x="808.39697"
         y="450.90628"
         style="font-style:normal;font-variant:normal;font-weight:normal;font-stretch:normal;font-size:12.49999809px;font-family:Alfa-beta;-inkscape-font-specification:Alfa-beta">10</tspan></text>
    <text
       xml:space="preserve"
       style="font-style:normal;font-weight:normal;font-size:6.45091248px;line-height:125%;font-family:sans-serif;letter-spacing:0px;word-spacing:0px;fill:#000000;fill-opacity:1;stroke:none;stroke-width:1px;stroke-linecap:butt;stroke-linejoin:miter;stroke-opacity:1"
       x="745.1803"
       y="451.07935"
       id="text4262-62-0-6-2-3-97-2-2"
       sodipodi:linespacing="125%"><tspan
         sodipodi:role="line"
         id="tspan4264-6-2-7-7-6-3-9-66"
         x="745.1803"
         y="451.07935"
         style="font-style:normal;font-variant:normal;font-weight:normal;font-stretch:normal;font-size:12.49999809px;font-family:Alfa-beta;-inkscape-font-specification:Alfa-beta">1</tspan></text>
    <path
       style="fill:none;fill-rule:evenodd;stroke:#000000;stroke-width:1.0629921;stroke-linecap:butt;stroke-linejoin:miter;stroke-miterlimit:4;stroke-dasharray:3.18897638, 3.18897638;stroke-dashoffset:0;stroke-opacity:1"
       d="m 871.40022,369.29486 0,207.1151"
       id="path4555-3-49"
       inkscape:connector-curvature="0" />
    <path
       style="fill:none;fill-rule:evenodd;stroke:#000000;stroke-width:1.41732287;stroke-linecap:butt;stroke-linejoin:miter;stroke-miterlimit:4;stroke-dasharray:none;stroke-opacity:1;marker-end:url(#marker4683-4)"
       d="m 668.87822,452.85241 235.28867,0"
       id="path4312-2-49"
       inkscape:connector-curvature="0" />
    <text
       xml:space="preserve"
       style="font-style:normal;font-weight:normal;font-size:6.45091248px;line-height:125%;font-family:sans-serif;letter-spacing:0px;word-spacing:0px;fill:#000000;fill-opacity:1;stroke:none;stroke-width:1px;stroke-linecap:butt;stroke-linejoin:miter;stroke-opacity:1"
       x="902.65765"
       y="467.11423"
       id="text4262-62-0-09"
       sodipodi:linespacing="125%"><tspan
         sodipodi:role="line"
         id="tspan4264-6-2-1"
         x="902.65765"
         y="467.11423"
         style="font-style:normal;font-variant:normal;font-weight:normal;font-stretch:normal;font-size:19.84896278px;font-family:Alfa-beta;-inkscape-font-specification:Alfa-beta">w</tspan></text>
    <path
       style="fill:none;fill-rule:evenodd;stroke:#000000;stroke-width:1.41732287;stroke-linecap:butt;stroke-linejoin:miter;stroke-miterlimit:4;stroke-dasharray:none;stroke-opacity:1;marker-end:url(#marker4683-3-2)"
       d="m 678.30081,580.35472 0,-223.10623"
       id="path4312-2-7-7"
       inkscape:connector-curvature="0" />
    <text
       xml:space="preserve"
       style="font-style:normal;font-weight:normal;font-size:6.45091248px;line-height:125%;font-family:sans-serif;letter-spacing:0px;word-spacing:0px;fill:#000000;fill-opacity:1;stroke:none;stroke-width:1px;stroke-linecap:butt;stroke-linejoin:miter;stroke-opacity:1"
       x="654.11969"
       y="459.24319"
       id="text4262-62-0-6-2-3-71"
       sodipodi:linespacing="125%"><tspan
         sodipodi:role="line"
         id="tspan4264-6-2-7-7-6-15"
         x="654.11969"
         y="459.24319"
         style="font-style:normal;font-variant:normal;font-weight:normal;font-stretch:normal;font-size:19.84896278px;font-family:Alfa-beta;-inkscape-font-specification:Alfa-beta">0</tspan></text>
    <path
       style="fill:none;fill-rule:evenodd;stroke:#000000;stroke-width:1.0629921;stroke-linecap:butt;stroke-linejoin:miter;stroke-miterlimit:4;stroke-dasharray:3.18897638, 3.18897638;stroke-dashoffset:0;stroke-opacity:1"
       d="m 807.03376,369.29485 0,207.11512"
       id="path4555-9"
       inkscape:connector-curvature="0" />
    <path
       style="fill:none;fill-rule:evenodd;stroke:#000000;stroke-width:1.0629921;stroke-linecap:butt;stroke-linejoin:miter;stroke-miterlimit:4;stroke-dasharray:3.18897638, 3.18897638;stroke-dashoffset:0;stroke-opacity:1"
       d="m 678.30081,369.29485 0,207.11512"
       id="path4555-7-77"
       inkscape:connector-curvature="0" />
    <path
       style="fill:none;fill-rule:evenodd;stroke:#000000;stroke-width:1.0629921;stroke-linecap:butt;stroke-linejoin:miter;stroke-miterlimit:4;stroke-dasharray:3.18897638, 3.18897638;stroke-dashoffset:0;stroke-opacity:1"
       d="m 742.66728,369.29485 0,207.11512"
       id="path4555-5-67"
       inkscape:connector-curvature="0" />
    <path
       style="fill:none;fill-rule:evenodd;stroke:#000000;stroke-width:1.0629921;stroke-linecap:butt;stroke-linejoin:miter;stroke-miterlimit:4;stroke-dasharray:3.18897638, 3.18897638;stroke-dashoffset:0;stroke-opacity:1"
       d="m 881.85835,532.85241 -207.11512,0"
       id="path4555-36-3"
       inkscape:connector-curvature="0" />
    <path
       style="fill:none;fill-rule:evenodd;stroke:#000000;stroke-width:1.0629921;stroke-linecap:butt;stroke-linejoin:miter;stroke-miterlimit:4;stroke-dasharray:3.18897638, 3.18897638;stroke-dashoffset:0;stroke-opacity:1"
       d="m 881.85835,572.85241 -207.11512,0"
       id="path4555-3-0-6"
       inkscape:connector-curvature="0" />
    <path
       style="fill:none;fill-rule:evenodd;stroke:#000000;stroke-width:1.0629921;stroke-linecap:butt;stroke-linejoin:miter;stroke-miterlimit:4;stroke-dasharray:3.18897638, 3.18897638;stroke-dashoffset:0;stroke-opacity:1"
       d="m 881.85835,492.85241 -207.11512,0"
       id="path4555-6-6-5"
       inkscape:connector-curvature="0" />
    <path
       style="fill:none;fill-rule:evenodd;stroke:#000000;stroke-width:1.0629921;stroke-linecap:butt;stroke-linejoin:miter;stroke-miterlimit:4;stroke-dasharray:3.18897638, 3.18897638;stroke-dashoffset:0;stroke-opacity:1"
       d="m 881.85835,372.85241 -207.11512,0"
       id="path4555-7-2-6"
       inkscape:connector-curvature="0" />
    <path
       style="fill:none;fill-rule:evenodd;stroke:#000000;stroke-width:1.0629921;stroke-linecap:butt;stroke-linejoin:miter;stroke-miterlimit:4;stroke-dasharray:3.18897638, 3.18897638;stroke-dashoffset:0;stroke-opacity:1"
       d="m 881.85835,452.85241 -207.11512,0"
       id="path4555-5-6-3"
       inkscape:connector-curvature="0" />
    <path
       style="fill:none;fill-rule:evenodd;stroke:#000000;stroke-width:1.0629921;stroke-linecap:butt;stroke-linejoin:miter;stroke-miterlimit:4;stroke-dasharray:3.18897638, 3.18897638;stroke-dashoffset:0;stroke-opacity:1"
       d="m 881.85835,412.85241 -207.11512,0"
       id="path4555-35-1-9"
       inkscape:connector-curvature="0" />
    <text
       xml:space="preserve"
       style="font-style:normal;font-weight:normal;font-size:6.45091248px;line-height:125%;font-family:sans-serif;letter-spacing:0px;word-spacing:0px;fill:#000000;fill-opacity:1;stroke:none;stroke-width:1px;stroke-linecap:butt;stroke-linejoin:miter;stroke-opacity:1"
       x="644.42786"
       y="419.8154"
       id="text4262-62-0-6-2-3-8-4"
       sodipodi:linespacing="125%"><tspan
         sodipodi:role="line"
         id="tspan4264-6-2-7-7-6-7-81"
         x="644.42786"
         y="419.8154"
         style="font-style:normal;font-variant:normal;font-weight:normal;font-stretch:normal;font-size:19.84896278px;font-family:Alfa-beta;-inkscape-font-specification:Alfa-beta">20</tspan></text>
    <text
       xml:space="preserve"
       style="font-style:normal;font-weight:normal;font-size:6.45091248px;line-height:125%;font-family:sans-serif;letter-spacing:0px;word-spacing:0px;fill:#000000;fill-opacity:1;stroke:none;stroke-width:1px;stroke-linecap:butt;stroke-linejoin:miter;stroke-opacity:1"
       x="644.0014"
       y="379.53574"
       id="text4262-62-0-6-2-3-9-29"
       sodipodi:linespacing="125%"><tspan
         sodipodi:role="line"
         id="tspan4264-6-2-7-7-6-2-39"
         x="644.0014"
         y="379.53574"
         style="font-style:normal;font-variant:normal;font-weight:normal;font-stretch:normal;font-size:19.84896278px;font-family:Alfa-beta;-inkscape-font-specification:Alfa-beta">40</tspan></text>
    <text
       xml:space="preserve"
       style="font-style:normal;font-weight:normal;font-size:6.45091248px;line-height:125%;font-family:sans-serif;letter-spacing:0px;word-spacing:0px;fill:#000000;fill-opacity:1;stroke:none;stroke-width:1px;stroke-linecap:butt;stroke-linejoin:miter;stroke-opacity:1"
       x="634.15442"
       y="499.47958"
       id="text4262-62-0-6-2-3-0-0"
       sodipodi:linespacing="125%"><tspan
         sodipodi:role="line"
         id="tspan4264-6-2-7-7-6-23-8"
         x="634.15442"
         y="499.47958"
         style="font-style:normal;font-variant:normal;font-weight:normal;font-stretch:normal;font-size:19.84896278px;font-family:Alfa-beta;-inkscape-font-specification:Alfa-beta">-20</tspan></text>
    <text
       xml:space="preserve"
       style="font-style:normal;font-weight:normal;font-size:6.45091248px;line-height:125%;font-family:sans-serif;letter-spacing:0px;word-spacing:0px;fill:#000000;fill-opacity:1;stroke:none;stroke-width:1px;stroke-linecap:butt;stroke-linejoin:miter;stroke-opacity:1"
       x="633.72803"
       y="539.31171"
       id="text4262-62-0-6-2-3-7-8"
       sodipodi:linespacing="125%"><tspan
         sodipodi:role="line"
         id="tspan4264-6-2-7-7-6-5-5"
         x="633.72803"
         y="539.31171"
         style="font-style:normal;font-variant:normal;font-weight:normal;font-stretch:normal;font-size:19.84896278px;font-family:Alfa-beta;-inkscape-font-specification:Alfa-beta">-40</tspan></text>
    <text
       xml:space="preserve"
       style="font-style:normal;font-weight:normal;font-size:6.45091248px;line-height:125%;font-family:sans-serif;letter-spacing:0px;word-spacing:0px;fill:#000000;fill-opacity:1;stroke:none;stroke-width:1px;stroke-linecap:butt;stroke-linejoin:miter;stroke-opacity:1"
       x="634.03815"
       y="579.1438"
       id="text4262-62-0-6-2-3-92-09"
       sodipodi:linespacing="125%"><tspan
         sodipodi:role="line"
         id="tspan4264-6-2-7-7-6-28-63"
         x="634.03815"
         y="579.1438"
         style="font-style:normal;font-variant:normal;font-weight:normal;font-stretch:normal;font-size:19.84896278px;font-family:Alfa-beta;-inkscape-font-specification:Alfa-beta">-60</tspan></text>
    <text
       xml:space="preserve"
       style="font-style:normal;font-weight:normal;font-size:6.45091248px;line-height:125%;font-family:sans-serif;letter-spacing:0px;word-spacing:0px;fill:#000000;fill-opacity:1;stroke:none;stroke-width:1px;stroke-linecap:butt;stroke-linejoin:miter;stroke-opacity:1"
       x="808.39697"
       y="450.90628"
       id="text4262-62-0-6-2-3-97-6-5"
       sodipodi:linespacing="125%"><tspan
         sodipodi:role="line"
         id="tspan4264-6-2-7-7-6-3-1-6"
         x="808.39697"
         y="450.90628"
         style="font-style:normal;font-variant:normal;font-weight:normal;font-stretch:normal;font-size:12.49999809px;font-family:Alfa-beta;-inkscape-font-specification:Alfa-beta">10</tspan></text>
    <text
       xml:space="preserve"
       style="font-style:normal;font-weight:normal;font-size:6.45091248px;line-height:125%;font-family:sans-serif;letter-spacing:0px;word-spacing:0px;fill:#000000;fill-opacity:1;stroke:none;stroke-width:1px;stroke-linecap:butt;stroke-linejoin:miter;stroke-opacity:1"
       x="745.1803"
       y="451.07935"
       id="text4262-62-0-6-2-3-97-2-11"
       sodipodi:linespacing="125%"><tspan
         sodipodi:role="line"
         id="tspan4264-6-2-7-7-6-3-9-5"
         x="745.1803"
         y="451.07935"
         style="font-style:normal;font-variant:normal;font-weight:normal;font-stretch:normal;font-size:12.49999809px;font-family:Alfa-beta;-inkscape-font-specification:Alfa-beta">1</tspan></text>
    <path
       style="fill:none;fill-rule:evenodd;stroke:#000000;stroke-width:1.0629921;stroke-linecap:butt;stroke-linejoin:miter;stroke-miterlimit:4;stroke-dasharray:3.18897638, 3.18897638;stroke-dashoffset:0;stroke-opacity:1"
       d="m 871.40022,369.29486 0,207.1151"
       id="path4555-3-9"
       inkscape:connector-curvature="0" />
    <path
       style="fill:none;fill-rule:evenodd;stroke:#000000;stroke-width:1.41732287;stroke-linecap:butt;stroke-linejoin:miter;stroke-miterlimit:4;stroke-dasharray:none;stroke-opacity:1;marker-end:url(#marker4683-8)"
       d="m 668.87822,452.85241 235.28867,0"
       id="path4312-2-2"
       inkscape:connector-curvature="0" />
    <text
       xml:space="preserve"
       style="font-style:normal;font-weight:normal;font-size:6.45091248px;line-height:125%;font-family:sans-serif;letter-spacing:0px;word-spacing:0px;fill:#000000;fill-opacity:1;stroke:none;stroke-width:1px;stroke-linecap:butt;stroke-linejoin:miter;stroke-opacity:1"
       x="902.65765"
       y="467.11423"
       id="text4262-62-0-1"
       sodipodi:linespacing="125%"><tspan
         sodipodi:role="line"
         id="tspan4264-6-2-7"
         x="902.65765"
         y="467.11423"
         style="font-style:normal;font-variant:normal;font-weight:normal;font-stretch:normal;font-size:19.84896278px;font-family:Alfa-beta;-inkscape-font-specification:Alfa-beta">w</tspan></text>
    <path
       style="fill:none;fill-rule:evenodd;stroke:#000000;stroke-width:1.41732287;stroke-linecap:butt;stroke-linejoin:miter;stroke-miterlimit:4;stroke-dasharray:none;stroke-opacity:1;marker-end:url(#marker4683-3-4)"
       d="m 678.30081,580.35472 0,-223.10623"
       id="path4312-2-7-8"
       inkscape:connector-curvature="0" />
    <text
       xml:space="preserve"
       style="font-style:normal;font-weight:normal;font-size:6.45091248px;line-height:125%;font-family:sans-serif;letter-spacing:0px;word-spacing:0px;fill:#000000;fill-opacity:1;stroke:none;stroke-width:1px;stroke-linecap:butt;stroke-linejoin:miter;stroke-opacity:1"
       x="654.11969"
       y="459.24319"
       id="text4262-62-0-6-2-3-5"
       sodipodi:linespacing="125%"><tspan
         sodipodi:role="line"
         id="tspan4264-6-2-7-7-6-741"
         x="654.11969"
         y="459.24319"
         style="font-style:normal;font-variant:normal;font-weight:normal;font-stretch:normal;font-size:19.84896278px;font-family:Alfa-beta;-inkscape-font-specification:Alfa-beta">0</tspan></text>
    <path
       style="fill:none;fill-rule:evenodd;stroke:#000000;stroke-width:1.0629921;stroke-linecap:butt;stroke-linejoin:miter;stroke-miterlimit:4;stroke-dasharray:3.18897638, 3.18897638;stroke-dashoffset:0;stroke-opacity:1"
       d="m 807.03376,369.29485 0,207.11512"
       id="path4555-85"
       inkscape:connector-curvature="0" />
    <path
       style="fill:none;fill-rule:evenodd;stroke:#000000;stroke-width:1.0629921;stroke-linecap:butt;stroke-linejoin:miter;stroke-miterlimit:4;stroke-dasharray:3.18897638, 3.18897638;stroke-dashoffset:0;stroke-opacity:1"
       d="m 678.30081,369.29485 0,207.11512"
       id="path4555-7-9"
       inkscape:connector-curvature="0" />
    <path
       style="fill:none;fill-rule:evenodd;stroke:#000000;stroke-width:1.0629921;stroke-linecap:butt;stroke-linejoin:miter;stroke-miterlimit:4;stroke-dasharray:3.18897638, 3.18897638;stroke-dashoffset:0;stroke-opacity:1"
       d="m 742.66728,369.29485 0,207.11512"
       id="path4555-5-7"
       inkscape:connector-curvature="0" />
    <path
       style="fill:none;fill-rule:evenodd;stroke:#000000;stroke-width:1.0629921;stroke-linecap:butt;stroke-linejoin:miter;stroke-miterlimit:4;stroke-dasharray:3.18897638, 3.18897638;stroke-dashoffset:0;stroke-opacity:1"
       d="m 881.85835,532.85241 -207.11512,0"
       id="path4555-36-5"
       inkscape:connector-curvature="0" />
    <path
       style="fill:none;fill-rule:evenodd;stroke:#000000;stroke-width:1.0629921;stroke-linecap:butt;stroke-linejoin:miter;stroke-miterlimit:4;stroke-dasharray:3.18897638, 3.18897638;stroke-dashoffset:0;stroke-opacity:1"
       d="m 881.85835,572.85241 -207.11512,0"
       id="path4555-3-0-3"
       inkscape:connector-curvature="0" />
    <path
       style="fill:none;fill-rule:evenodd;stroke:#000000;stroke-width:1.0629921;stroke-linecap:butt;stroke-linejoin:miter;stroke-miterlimit:4;stroke-dasharray:3.18897638, 3.18897638;stroke-dashoffset:0;stroke-opacity:1"
       d="m 881.85835,492.85241 -207.11512,0"
       id="path4555-6-6-8"
       inkscape:connector-curvature="0" />
    <path
       style="fill:none;fill-rule:evenodd;stroke:#000000;stroke-width:1.0629921;stroke-linecap:butt;stroke-linejoin:miter;stroke-miterlimit:4;stroke-dasharray:3.18897638, 3.18897638;stroke-dashoffset:0;stroke-opacity:1"
       d="m 881.85835,372.85241 -207.11512,0"
       id="path4555-7-2-8"
       inkscape:connector-curvature="0" />
    <path
       style="fill:none;fill-rule:evenodd;stroke:#000000;stroke-width:1.0629921;stroke-linecap:butt;stroke-linejoin:miter;stroke-miterlimit:4;stroke-dasharray:3.18897638, 3.18897638;stroke-dashoffset:0;stroke-opacity:1"
       d="m 881.85835,452.85241 -207.11512,0"
       id="path4555-5-6-31"
       inkscape:connector-curvature="0" />
    <path
       style="fill:none;fill-rule:evenodd;stroke:#000000;stroke-width:1.0629921;stroke-linecap:butt;stroke-linejoin:miter;stroke-miterlimit:4;stroke-dasharray:3.18897638, 3.18897638;stroke-dashoffset:0;stroke-opacity:1"
       d="m 881.85835,412.85241 -207.11512,0"
       id="path4555-35-1-8"
       inkscape:connector-curvature="0" />
    <text
       xml:space="preserve"
       style="font-style:normal;font-weight:normal;font-size:6.45091248px;line-height:125%;font-family:sans-serif;letter-spacing:0px;word-spacing:0px;fill:#000000;fill-opacity:1;stroke:none;stroke-width:1px;stroke-linecap:butt;stroke-linejoin:miter;stroke-opacity:1"
       x="644.42786"
       y="419.8154"
       id="text4262-62-0-6-2-3-8-96"
       sodipodi:linespacing="125%"><tspan
         sodipodi:role="line"
         id="tspan4264-6-2-7-7-6-7-4"
         x="644.42786"
         y="419.8154"
         style="font-style:normal;font-variant:normal;font-weight:normal;font-stretch:normal;font-size:19.84896278px;font-family:Alfa-beta;-inkscape-font-specification:Alfa-beta">20</tspan></text>
    <text
       xml:space="preserve"
       style="font-style:normal;font-weight:normal;font-size:6.45091248px;line-height:125%;font-family:sans-serif;letter-spacing:0px;word-spacing:0px;fill:#000000;fill-opacity:1;stroke:none;stroke-width:1px;stroke-linecap:butt;stroke-linejoin:miter;stroke-opacity:1"
       x="644.0014"
       y="379.53574"
       id="text4262-62-0-6-2-3-9-3"
       sodipodi:linespacing="125%"><tspan
         sodipodi:role="line"
         id="tspan4264-6-2-7-7-6-2-33"
         x="644.0014"
         y="379.53574"
         style="font-style:normal;font-variant:normal;font-weight:normal;font-stretch:normal;font-size:19.84896278px;font-family:Alfa-beta;-inkscape-font-specification:Alfa-beta">40</tspan></text>
    <text
       xml:space="preserve"
       style="font-style:normal;font-weight:normal;font-size:6.45091248px;line-height:125%;font-family:sans-serif;letter-spacing:0px;word-spacing:0px;fill:#000000;fill-opacity:1;stroke:none;stroke-width:1px;stroke-linecap:butt;stroke-linejoin:miter;stroke-opacity:1"
       x="634.15442"
       y="499.47958"
       id="text4262-62-0-6-2-3-0-8"
       sodipodi:linespacing="125%"><tspan
         sodipodi:role="line"
         id="tspan4264-6-2-7-7-6-23-6"
         x="634.15442"
         y="499.47958"
         style="font-style:normal;font-variant:normal;font-weight:normal;font-stretch:normal;font-size:19.84896278px;font-family:Alfa-beta;-inkscape-font-specification:Alfa-beta">-20</tspan></text>
    <text
       xml:space="preserve"
       style="font-style:normal;font-weight:normal;font-size:6.45091248px;line-height:125%;font-family:sans-serif;letter-spacing:0px;word-spacing:0px;fill:#000000;fill-opacity:1;stroke:none;stroke-width:1px;stroke-linecap:butt;stroke-linejoin:miter;stroke-opacity:1"
       x="633.72803"
       y="539.31171"
       id="text4262-62-0-6-2-3-7-0"
       sodipodi:linespacing="125%"><tspan
         sodipodi:role="line"
         id="tspan4264-6-2-7-7-6-5-4"
         x="633.72803"
         y="539.31171"
         style="font-style:normal;font-variant:normal;font-weight:normal;font-stretch:normal;font-size:19.84896278px;font-family:Alfa-beta;-inkscape-font-specification:Alfa-beta">-40</tspan></text>
    <text
       xml:space="preserve"
       style="font-style:normal;font-weight:normal;font-size:6.45091248px;line-height:125%;font-family:sans-serif;letter-spacing:0px;word-spacing:0px;fill:#000000;fill-opacity:1;stroke:none;stroke-width:1px;stroke-linecap:butt;stroke-linejoin:miter;stroke-opacity:1"
       x="634.03815"
       y="579.1438"
       id="text4262-62-0-6-2-3-92-8"
       sodipodi:linespacing="125%"><tspan
         sodipodi:role="line"
         id="tspan4264-6-2-7-7-6-28-8"
         x="634.03815"
         y="579.1438"
         style="font-style:normal;font-variant:normal;font-weight:normal;font-stretch:normal;font-size:19.84896278px;font-family:Alfa-beta;-inkscape-font-specification:Alfa-beta">-60</tspan></text>
    <text
       xml:space="preserve"
       style="font-style:normal;font-weight:normal;font-size:6.45091248px;line-height:125%;font-family:sans-serif;letter-spacing:0px;word-spacing:0px;fill:#000000;fill-opacity:1;stroke:none;stroke-width:1px;stroke-linecap:butt;stroke-linejoin:miter;stroke-opacity:1"
       x="808.39697"
       y="450.90628"
       id="text4262-62-0-6-2-3-97-6-89"
       sodipodi:linespacing="125%"><tspan
         sodipodi:role="line"
         id="tspan4264-6-2-7-7-6-3-1-7"
         x="808.39697"
         y="450.90628"
         style="font-style:normal;font-variant:normal;font-weight:normal;font-stretch:normal;font-size:12.49999809px;font-family:Alfa-beta;-inkscape-font-specification:Alfa-beta">10</tspan></text>
    <text
       xml:space="preserve"
       style="font-style:normal;font-weight:normal;font-size:6.45091248px;line-height:125%;font-family:sans-serif;letter-spacing:0px;word-spacing:0px;fill:#000000;fill-opacity:1;stroke:none;stroke-width:1px;stroke-linecap:butt;stroke-linejoin:miter;stroke-opacity:1"
       x="745.1803"
       y="451.07935"
       id="text4262-62-0-6-2-3-97-2-7"
       sodipodi:linespacing="125%"><tspan
         sodipodi:role="line"
         id="tspan4264-6-2-7-7-6-3-9-64"
         x="745.1803"
         y="451.07935"
         style="font-style:normal;font-variant:normal;font-weight:normal;font-stretch:normal;font-size:12.49999809px;font-family:Alfa-beta;-inkscape-font-specification:Alfa-beta">1</tspan></text>
    <path
       style="fill:none;fill-rule:evenodd;stroke:#000000;stroke-width:1.0629921;stroke-linecap:butt;stroke-linejoin:miter;stroke-miterlimit:4;stroke-dasharray:3.18897638, 3.18897638;stroke-dashoffset:0;stroke-opacity:1"
       d="m 871.40022,369.29486 0,207.1151"
       id="path4555-3-3"
       inkscape:connector-curvature="0" />
    <path
       style="fill:none;fill-rule:evenodd;stroke:#0000ff;stroke-width:1.77165333;stroke-linecap:butt;stroke-linejoin:miter;stroke-opacity:1;stroke-miterlimit:4;stroke-dasharray:none"
       d="m 677.91459,372.46019 64.46729,39.97972 20.53584,12.9199 18.39226,21.62681 25.62759,48.37862 67.20705,82.63591"
       id="path4507" />
  </g>
</svg>
