<?xml version="1.0" encoding="UTF-8" standalone="no"?>
<svg
   xmlns:dc="http://purl.org/dc/elements/1.1/"
   xmlns:cc="http://creativecommons.org/ns#"
   xmlns:rdf="http://www.w3.org/1999/02/22-rdf-syntax-ns#"
   xmlns:svg="http://www.w3.org/2000/svg"
   xmlns="http://www.w3.org/2000/svg"
   xmlns:sodipodi="http://sodipodi.sourceforge.net/DTD/sodipodi-0.dtd"
   xmlns:inkscape="http://www.inkscape.org/namespaces/inkscape"
   width="279.16397mm"
   height="39.822205mm"
   version="1.2"
   id="svg638"
   sodipodi:docname="model_fig57.svg"
   inkscape:version="0.92.3 (2405546, 2018-03-11)">
  <metadata
     id="metadata642">
    <rdf:RDF>
      <cc:Work
         rdf:about="">
        <dc:format>image/svg+xml</dc:format>
        <dc:type
           rdf:resource="http://purl.org/dc/dcmitype/StillImage" />
        <dc:title>Qt SVG Document</dc:title>
      </cc:Work>
    </rdf:RDF>
  </metadata>
  <sodipodi:namedview
     pagecolor="#ffffff"
     bordercolor="#666666"
     borderopacity="1"
     objecttolerance="10"
     gridtolerance="10"
     guidetolerance="10"
     inkscape:pageopacity="0"
     inkscape:pageshadow="2"
     inkscape:window-width="1920"
     inkscape:window-height="1012"
     id="namedview640"
     showgrid="false"
     fit-margin-top="0"
     fit-margin-left="0"
     fit-margin-right="0"
     fit-margin-bottom="0"
     inkscape:zoom="1.1522285"
     inkscape:cx="524.0226"
     inkscape:cy="48.451095"
     inkscape:window-x="0"
     inkscape:window-y="40"
     inkscape:window-maximized="1"
     inkscape:current-layer="svg638" />
  <title
     id="title2">Qt SVG Document</title>
  <desc
     id="desc4">Generated with Qt</desc>
  <defs
     id="defs6" />
  <g
     id="g2281"
     transform="translate(4.0732324e-7,-1.7289236)">
    <path
       style="font-style:normal;font-weight:400;font-size:medium;font-family:'Noto Sans';vector-effect:none;fill:none;fill-rule:evenodd;stroke:#0000ff;stroke-width:0.99570215;stroke-linecap:square;stroke-linejoin:bevel;stroke-opacity:1"
       inkscape:connector-curvature="0"
       id="path102"
       d="m 111.12498,72.016489 c 0,10.97189 -8.93722,19.86636 -19.961839,19.86636 -11.02462,0 -19.96184,-8.89447 -19.96184,-19.86636 0,-10.971892 8.93722,-19.866362 19.96184,-19.866362 11.024619,0 19.961839,8.89447 19.961839,19.866362 m -19.961839,19.86636 v 9.933181 m 0,-49.665903 v -9.93318 m -24.9523,4.96659 h 9.98092 m -4.99046,4.96659 v -9.93318 m -4.99046,54.632492 h 9.98092" />
    <polyline
       transform="matrix(0.998092,0,0,0.993318,91.163141,2.484484)"
       style="font-style:normal;font-weight:400;font-size:medium;font-family:'Noto Sans';vector-effect:none;fill:none;fill-rule:evenodd;stroke:#0000ff;stroke-width:1;stroke-linecap:square;stroke-linejoin:bevel;stroke-opacity:1"
       id="polyline150"
       points="0,0 0,40 " />
    <polyline
       transform="matrix(0.998092,0,0,0.993318,91.163141,101.81649)"
       style="font-style:normal;font-weight:400;font-size:medium;font-family:'Noto Sans';vector-effect:none;fill:none;fill-rule:evenodd;stroke:#0000ff;stroke-width:1;stroke-linecap:square;stroke-linejoin:bevel;stroke-opacity:1"
       id="polyline166"
       points="0,0 0,50 " />
    <polyline
       transform="matrix(0.998092,0,0,0.61635398,454.22814,151.67097)"
       style="font-style:normal;font-weight:400;font-size:medium;font-family:'Noto Sans';vector-effect:none;fill:none;fill-rule:evenodd;stroke:#0000ff;stroke-width:1.50956321;stroke-linecap:square;stroke-linejoin:bevel;stroke-miterlimit:4;stroke-dasharray:none;stroke-opacity:1"
       id="polyline182"
       points="0,0 0,-30 " />
    <polyline
       transform="matrix(0.998092,0,0,0.78682094,454.22814,18.683199)"
       style="font-style:normal;font-weight:400;font-size:medium;font-family:'Noto Sans';vector-effect:none;fill:none;fill-rule:evenodd;stroke:#0000ff;stroke-width:1.27738905;stroke-linecap:square;stroke-linejoin:bevel;stroke-miterlimit:4;stroke-dasharray:none;stroke-opacity:1"
       id="polyline214"
       points="0,0 0,-20 " />
    <polyline
       transform="matrix(1.5291279,0,0,0.9943832,453.68096,2.404594)"
       style="font-style:normal;font-weight:400;font-size:medium;font-family:'Noto Sans';vector-effect:none;fill:none;fill-rule:evenodd;stroke:#0000ff;stroke-width:1.35897386;stroke-linecap:square;stroke-linejoin:bevel;stroke-miterlimit:4;stroke-dasharray:none;stroke-opacity:1"
       id="polyline250"
       points="0,0 -170,0 " />
    <polyline
       transform="matrix(1.5291279,0,0,0.9943832,193.72868,151.56238)"
       style="font-style:normal;font-weight:400;font-size:medium;font-family:'Noto Sans';vector-effect:none;fill:none;fill-rule:evenodd;stroke:#0000ff;stroke-width:1.35897386;stroke-linecap:square;stroke-linejoin:bevel;stroke-miterlimit:4;stroke-dasharray:none;stroke-opacity:1"
       id="polyline310"
       points="0,0 170,0 " />
    <polyline
       transform="matrix(0.998092,0,0,0.993318,190.97214,2.484484)"
       style="font-style:normal;font-weight:400;font-size:medium;font-family:'Noto Sans';vector-effect:none;fill:none;fill-rule:evenodd;stroke:#0000ff;stroke-width:1;stroke-linecap:square;stroke-linejoin:bevel;stroke-opacity:1"
       id="polyline370"
       points="0,0 -100,0 " />
    <polyline
       transform="matrix(0.998092,0,0,0.993318,91.163141,151.48249)"
       style="font-style:normal;font-weight:400;font-size:medium;font-family:'Noto Sans';vector-effect:none;fill:none;fill-rule:evenodd;stroke:#0000ff;stroke-width:1;stroke-linecap:square;stroke-linejoin:bevel;stroke-opacity:1"
       id="polyline410"
       points="0,0 100,0 " />
    <text
       id="text1823"
       y="79.531403"
       x="31.4655"
       style="font-style:normal;font-variant:normal;font-weight:normal;font-stretch:normal;font-size:29.33333397px;line-height:1.25;font-family:Caladea;-inkscape-font-specification:Caladea;text-align:center;letter-spacing:0px;word-spacing:0px;text-anchor:middle;fill:#000000;fill-opacity:1;stroke:none"
       xml:space="preserve"><tspan
         y="79.531403"
         x="31.4655"
         id="tspan1821"
         sodipodi:role="line">V<tspan
   id="tspan962"
   style="font-size:64.99999762%;baseline-shift:sub">1</tspan>(s)</tspan></text>
    <rect
       y="21.322485"
       x="128.84019"
       height="111.12453"
       width="924.88275"
       id="rect1192"
       style="opacity:1;fill:none;fill-opacity:1;stroke:#000000;stroke-width:2.76999998;stroke-linecap:round;stroke-linejoin:round;stroke-miterlimit:4;stroke-dasharray:none;stroke-dashoffset:0;stroke-opacity:1" />
    <g
       transform="translate(241.58087,-134.76915)"
       id="g2218">
      <path
         style="fill:none;stroke:#000000;stroke-width:2.76999998;stroke-linecap:butt;stroke-linejoin:miter;stroke-miterlimit:4;stroke-dasharray:none;stroke-opacity:1"
         d="M -101.37204,210.73932 H 801.96975"
         id="path964-3"
         inkscape:connector-curvature="0" />
      <text
         xml:space="preserve"
         style="font-style:normal;font-variant:normal;font-weight:normal;font-stretch:normal;font-size:29.33333397px;line-height:1.25;font-family:Caladea;-inkscape-font-specification:Caladea;text-align:center;letter-spacing:0px;word-spacing:0px;text-anchor:middle;fill:#000000;fill-opacity:1;stroke:none"
         x="337.75516"
         y="196.73672"
         id="text2081"><tspan
           sodipodi:role="line"
           id="tspan2079"
           x="337.75516"
           y="196.73672">s<tspan
   style="font-size:64.99999762%;baseline-shift:super"
   id="tspan2083">3</tspan>L<tspan
   style="font-size:64.99999762%;baseline-shift:sub"
   id="tspan2085">1</tspan>R<tspan
   style="font-size:64.99999762%;baseline-shift:sub"
   id="tspan2087">L</tspan>C<tspan
   style="font-size:64.99999762%;baseline-shift:sub"
   id="tspan2089">L</tspan>C<tspan
   style="font-size:64.99999762%;baseline-shift:sub"
   id="tspan2091">1</tspan>+s<tspan
   style="font-size:64.99999762%;baseline-shift:super"
   id="tspan2093">2</tspan>[R<tspan
   style="font-size:64.99999762%;baseline-shift:sub"
   id="tspan2095">L</tspan>R<tspan
   style="font-size:64.99999762%;baseline-shift:sub"
   id="tspan2097">1</tspan>C<tspan
   style="font-size:64.99999762%;baseline-shift:sub"
   id="tspan2099">L</tspan>C<tspan
   style="font-size:64.99999762%;baseline-shift:sub"
   id="tspan2101">1</tspan>+L<tspan
   style="font-size:64.99999762%;baseline-shift:sub"
   id="tspan2103">1</tspan>(C<tspan
   style="font-size:64.99999762%;baseline-shift:sub"
   id="tspan2105">1</tspan>+C<tspan
   style="font-size:64.99999762%;baseline-shift:sub"
   id="tspan2107">L</tspan>)]+s[R<tspan
   style="font-size:64.99999762%;baseline-shift:sub"
   id="tspan2109">1</tspan>(C<tspan
   style="font-size:64.99999762%;baseline-shift:sub"
   id="tspan2111">1</tspan>+C<tspan
   style="font-size:64.99999762%;baseline-shift:sub"
   id="tspan2113">L</tspan>)+R<tspan
   style="font-size:64.99999762%;baseline-shift:sub"
   id="tspan2115">L</tspan>C<tspan
   style="font-size:64.99999762%;baseline-shift:sub"
   id="tspan2117">L</tspan>]+1</tspan></text>
      <text
         xml:space="preserve"
         style="font-style:normal;font-variant:normal;font-weight:normal;font-stretch:normal;font-size:29.33333397px;line-height:1.25;font-family:Caladea;-inkscape-font-specification:Caladea;text-align:center;letter-spacing:0px;word-spacing:0px;text-anchor:middle;fill:#000000;fill-opacity:1;stroke:none"
         x="347.8895"
         y="244.31467"
         id="text2121"><tspan
           sodipodi:role="line"
           id="tspan2119"
           x="347.8895"
           y="244.31467">s<tspan
   style="font-size:64.99999762%;baseline-shift:super"
   id="tspan2123">4</tspan>L<tspan
   style="font-size:64.99999762%;baseline-shift:sub"
   id="tspan2125">1</tspan>R<tspan
   style="font-size:64.99999762%;baseline-shift:sub"
   id="tspan2127">L</tspan>C<tspan
   style="font-size:64.99999762%;baseline-shift:sub"
   id="tspan2129">L</tspan>C<tspan
   style="font-size:64.99999762%;baseline-shift:sub"
   id="tspan2131">1</tspan><tspan
   style="font-size:64.99999762%;baseline-shift:super"
   id="tspan2133">2</tspan>+s<tspan
   style="font-size:64.99999762%;baseline-shift:super"
   id="tspan2135">3</tspan>C<tspan
   style="font-size:64.99999762%;baseline-shift:sub"
   id="tspan2137">1</tspan>[R<tspan
   style="font-size:64.99999762%;baseline-shift:sub"
   id="tspan2139">L</tspan>R<tspan
   style="font-size:64.99999762%;baseline-shift:sub"
   id="tspan2141">1</tspan>C<tspan
   style="font-size:64.99999762%;baseline-shift:sub"
   id="tspan2143">L</tspan>C<tspan
   style="font-size:64.99999762%;baseline-shift:sub"
   id="tspan2145">1</tspan>+L<tspan
   style="font-size:64.99999762%;baseline-shift:sub"
   id="tspan2147">1</tspan>(C<tspan
   style="font-size:64.99999762%;baseline-shift:sub"
   id="tspan2149">1</tspan>+C<tspan
   style="font-size:64.99999762%;baseline-shift:sub"
   id="tspan2151">L</tspan>)]+s<tspan
   style="font-size:64.99999762%;baseline-shift:super"
   id="tspan2153">2</tspan>C<tspan
   style="font-size:64.99999762%;baseline-shift:sub"
   id="tspan2155">1</tspan>[R<tspan
   style="font-size:64.99999762%;baseline-shift:sub"
   id="tspan2157">1</tspan>(C<tspan
   style="font-size:64.99999762%;baseline-shift:sub"
   id="tspan2159">1</tspan>+C<tspan
   style="font-size:64.99999762%;baseline-shift:sub"
   id="tspan2161">L</tspan>)+2R<tspan
   style="font-size:64.99999762%;baseline-shift:sub"
   id="tspan2163">L</tspan>C<tspan
   style="font-size:64.99999762%;baseline-shift:sub"
   id="tspan2165">L</tspan>]+s[2C<tspan
   style="font-size:64.99999762%;baseline-shift:sub"
   id="tspan2167">1</tspan>+C<tspan
   style="font-size:64.99999762%;baseline-shift:sub"
   id="tspan2169">L</tspan>]</tspan></text>
    </g>
  </g>
</svg>
