<?xml version="1.0" encoding="UTF-8" standalone="no"?>
<!-- Created with Inkscape (http://www.inkscape.org/) -->

<svg
   xmlns:dc="http://purl.org/dc/elements/1.1/"
   xmlns:cc="http://creativecommons.org/ns#"
   xmlns:rdf="http://www.w3.org/1999/02/22-rdf-syntax-ns#"
   xmlns:svg="http://www.w3.org/2000/svg"
   xmlns="http://www.w3.org/2000/svg"
   xmlns:sodipodi="http://sodipodi.sourceforge.net/DTD/sodipodi-0.dtd"
   xmlns:inkscape="http://www.inkscape.org/namespaces/inkscape"
   width="76.391518mm"
   height="68.859711mm"
   viewBox="0 0 270.6786 243.99108"
   id="svg2"
   version="1.1"
   inkscape:version="0.92.2 (5c3e80d, 2017-08-06)"
   sodipodi:docname="model_fig10.svg">
  <defs
     id="defs4">
    <marker
       inkscape:stockid="Arrow1Mend"
       orient="auto"
       refY="0"
       refX="0"
       id="marker6265"
       style="overflow:visible"
       inkscape:isstock="true">
      <path
         id="path4772"
         d="M 0,0 5,-5 -12.5,0 5,5 Z"
         style="fill:#000000;fill-opacity:1;fill-rule:evenodd;stroke:#000000;stroke-width:1.00000003pt;stroke-opacity:1"
         transform="matrix(-0.4,0,0,-0.4,-4,0)"
         inkscape:connector-curvature="0" />
    </marker>
    <marker
       inkscape:stockid="Arrow1Send"
       orient="auto"
       refY="0"
       refX="0"
       id="Arrow1Send"
       style="overflow:visible"
       inkscape:isstock="true">
      <path
         id="path4778"
         d="M 0,0 5,-5 -12.5,0 5,5 Z"
         style="fill:#000000;fill-opacity:1;fill-rule:evenodd;stroke:#000000;stroke-width:1.00000003pt;stroke-opacity:1"
         transform="matrix(-0.2,0,0,-0.2,-1.2,0)"
         inkscape:connector-curvature="0" />
    </marker>
    <marker
       inkscape:stockid="DotM"
       orient="auto"
       refY="0"
       refX="0"
       id="DotM"
       style="overflow:visible"
       inkscape:isstock="true">
      <path
         id="path4827"
         d="m -2.5,-1 c 0,2.76 -2.24,5 -5,5 -2.76,0 -5,-2.24 -5,-5 0,-2.76 2.24,-5 5,-5 2.76,0 5,2.24 5,5 z"
         style="fill:#000000;fill-opacity:1;fill-rule:evenodd;stroke:#000000;stroke-width:1.00000003pt;stroke-opacity:1"
         transform="matrix(0.4,0,0,0.4,2.96,0.4)"
         inkscape:connector-curvature="0" />
    </marker>
    <marker
       inkscape:isstock="true"
       style="overflow:visible"
       id="marker4683"
       refX="0"
       refY="0"
       orient="auto"
       inkscape:stockid="Arrow1Mend">
      <path
         inkscape:connector-curvature="0"
         transform="matrix(-0.4,0,0,-0.4,-4,0)"
         style="fill:#000000;fill-opacity:1;fill-rule:evenodd;stroke:#000000;stroke-width:1.00000003pt;stroke-opacity:1"
         d="M 0,0 5,-5 -12.5,0 5,5 Z"
         id="path4685" />
    </marker>
    <marker
       inkscape:stockid="Arrow1Mend"
       orient="auto"
       refY="0"
       refX="0"
       id="Arrow1Mend"
       style="overflow:visible"
       inkscape:isstock="true">
      <path
         id="path4285"
         d="M 0,0 5,-5 -12.5,0 5,5 Z"
         style="fill:#000000;fill-opacity:1;fill-rule:evenodd;stroke:#000000;stroke-width:1.00000003pt;stroke-opacity:1"
         transform="matrix(-0.4,0,0,-0.4,-4,0)"
         inkscape:connector-curvature="0" />
    </marker>
    <marker
       inkscape:stockid="Arrow1Mend"
       orient="auto"
       refY="0"
       refX="0"
       id="marker4692-1"
       style="overflow:visible"
       inkscape:isstock="true">
      <path
         id="path4694-8"
         d="M 0,0 5,-5 -12.5,0 5,5 Z"
         style="fill:#000000;fill-opacity:1;fill-rule:evenodd;stroke:#000000;stroke-width:1.00000003pt;stroke-opacity:1"
         transform="matrix(-0.4,0,0,-0.4,-4,0)"
         inkscape:connector-curvature="0" />
    </marker>
    <marker
       inkscape:stockid="DotM"
       orient="auto"
       refY="0"
       refX="0"
       id="DotM-3"
       style="overflow:visible"
       inkscape:isstock="true">
      <path
         inkscape:connector-curvature="0"
         id="path4827-6"
         d="m -2.5,-1 c 0,2.76 -2.24,5 -5,5 -2.76,0 -5,-2.24 -5,-5 0,-2.76 2.24,-5 5,-5 2.76,0 5,2.24 5,5 z"
         style="fill:#000000;fill-opacity:1;fill-rule:evenodd;stroke:#000000;stroke-width:1.00000003pt;stroke-opacity:1"
         transform="matrix(0.4,0,0,0.4,2.96,0.4)" />
    </marker>
  </defs>
  <sodipodi:namedview
     id="base"
     pagecolor="#ffffff"
     bordercolor="#666666"
     borderopacity="1.0"
     inkscape:pageopacity="0.0"
     inkscape:pageshadow="2"
     inkscape:zoom="2.0200934"
     inkscape:cx="184.26243"
     inkscape:cy="114.94471"
     inkscape:document-units="px"
     inkscape:current-layer="layer1"
     showgrid="false"
     inkscape:window-width="1920"
     inkscape:window-height="942"
     inkscape:window-x="0"
     inkscape:window-y="34"
     inkscape:window-maximized="1"
     fit-margin-top="0"
     fit-margin-left="0"
     fit-margin-right="0"
     fit-margin-bottom="0" />
  <metadata
     id="metadata7">
    <rdf:RDF>
      <cc:Work
         rdf:about="">
        <dc:format>image/svg+xml</dc:format>
        <dc:type
           rdf:resource="http://purl.org/dc/dcmitype/StillImage" />
        <dc:title></dc:title>
      </cc:Work>
    </rdf:RDF>
  </metadata>
  <g
     inkscape:label="Layer 1"
     inkscape:groupmode="layer"
     id="layer1"
     transform="translate(-439.00561,-340.51971)">
    <g
       id="g3497">
      <path
         style="stroke-width:0.09459963"
         inkscape:connector-curvature="0"
         id="XMLID_904_"
         d="m 674.27074,475.79059 c 0,0.56514 -0.33639,1.07947 -0.86,1.30387 l -11.12965,4.7699 11.03619,3.83176 c 0.56655,0.19676 0.94817,0.72832 0.95356,1.32799 0,0.004 0,0.008 0,0.0126 0,0.59465 -0.37093,1.12677 -0.93001,1.33205 l -10.81822,3.9712 10.80649,3.85948 c 0.55502,0.19818 0.92973,0.71886 0.94146,1.30803 0.012,0.59049 -0.34198,1.12441 -0.88867,1.34454 l -7.39505,2.97819 v 7.09601 h -2.83798 v -8.05431 c 0,-0.57904 0.35181,-1.09991 0.88885,-1.31626 l 4.81796,-1.94033 -10.97809,-3.92078 c -0.56259,-0.20093 -0.9391,-0.73267 -0.94174,-1.33007 0,-0.002 0,-0.004 0,-0.006 0,-0.59494 0.37111,-1.12687 0.93,-1.33206 l 10.76677,-3.95228 -10.74321,-3.73015 c -0.5535,-0.19223 -0.932,-0.70487 -0.95271,-1.29034 -0.0205,-0.5868 0.3206,-1.12356 0.85915,-1.35439 l 10.96665,-4.69999 -4.61788,-1.44302 c -0.59238,-0.18513 -0.99575,-0.73372 -0.99575,-1.35438 v -8.05431 h 2.83798 v 7.01106 l 7.28824,2.27758 c 0.56703,0.17719 0.9636,0.68878 0.99387,1.28211 10e-4,0.0241 0.002,0.0484 0.002,0.0726 z" />
      <text
         id="text6086"
         y="494.30618"
         x="690.33289"
         style="font-style:normal;font-weight:normal;font-size:24.90982819px;line-height:1.25;font-family:sans-serif;letter-spacing:0px;word-spacing:0px;fill:#000000;fill-opacity:1;stroke:none;stroke-width:0.62274569"
         xml:space="preserve"><tspan
           style="font-style:normal;font-variant:normal;font-weight:normal;font-stretch:normal;font-family:'DejaVu Serif';-inkscape-font-specification:'DejaVu Serif';stroke-width:0.62274569"
           y="494.30618"
           x="690.33289"
           id="tspan6084"
           sodipodi:role="line">R</tspan></text>
      <text
         id="text6098"
         y="493.642"
         x="438.06906"
         style="font-style:normal;font-weight:normal;font-size:24.90982819px;line-height:1.25;font-family:sans-serif;letter-spacing:0px;word-spacing:0px;fill:#000000;fill-opacity:1;stroke:none;stroke-width:0.62274569"
         xml:space="preserve"><tspan
           style="font-style:normal;font-variant:normal;font-weight:normal;font-stretch:normal;font-family:'DejaVu Serif';-inkscape-font-specification:'DejaVu Serif';stroke-width:0.62274569"
           y="493.642"
           x="438.06906"
           id="tspan6096"
           sodipodi:role="line"><tspan
   id="tspan6100"
   style="font-style:italic;font-variant:normal;font-weight:normal;font-stretch:normal;font-family:'DejaVu Serif';-inkscape-font-specification:'DejaVu Serif Italic';stroke-width:0.62274569">v</tspan>(<tspan
   id="tspan6102"
   style="font-style:italic;font-variant:normal;font-weight:normal;font-stretch:normal;font-family:'DejaVu Serif';-inkscape-font-specification:'DejaVu Serif Italic';stroke-width:0.62274569">t</tspan>)</tspan></text>
      <path
         inkscape:connector-curvature="0"
         id="path6140"
         d="m 651.82405,369.07751 h 26.72985 v 17.9529"
         style="fill:none;stroke:#000000;stroke-width:2.03593707;stroke-linecap:butt;stroke-linejoin:miter;stroke-miterlimit:4;stroke-dasharray:none;stroke-opacity:1;marker-end:url(#marker6265)" />
      <text
         id="text6098-5"
         y="359.44534"
         x="648.12921"
         style="font-style:normal;font-weight:normal;font-size:24.90982819px;line-height:1.25;font-family:sans-serif;letter-spacing:0px;word-spacing:0px;fill:#000000;fill-opacity:1;stroke:none;stroke-width:0.62274569"
         xml:space="preserve"><tspan
           style="font-style:normal;font-variant:normal;font-weight:normal;font-stretch:normal;font-family:'DejaVu Serif';-inkscape-font-specification:'DejaVu Serif';stroke-width:0.62274569"
           y="359.44534"
           x="648.12921"
           id="tspan6096-2"
           sodipodi:role="line"><tspan
   id="tspan6100-0"
   style="font-style:italic;font-variant:normal;font-weight:normal;font-stretch:normal;font-family:'DejaVu Serif';-inkscape-font-specification:'DejaVu Serif Italic';stroke-width:0.62274569">i</tspan>(<tspan
   id="tspan6102-2"
   style="font-style:italic;font-variant:normal;font-weight:normal;font-stretch:normal;font-family:'DejaVu Serif';-inkscape-font-specification:'DejaVu Serif Italic';stroke-width:0.62274569">t</tspan>)</tspan></text>
      <g
         transform="matrix(0.09696239,0,0,0.09696239,643.98331,406.50256)"
         id="g1233">
        <g
           id="XMLID_503_">
          <path
             inkscape:connector-curvature="0"
             id="XMLID_309_"
             d="m 224.556,460 h -30 v -51.4 c 0,-7.646 5.751,-14.068 13.351,-14.909 15.699,-1.736 27.538,-14.979 27.538,-30.802 0,-13.852 -9.31,-26.126 -22.639,-29.849 -6.482,-1.811 -10.965,-7.717 -10.965,-14.447 0,-6.73 4.483,-12.637 10.965,-14.447 13.33,-3.723 22.639,-15.997 22.639,-29.85 0,-13.852 -9.31,-26.126 -22.639,-29.849 -6.482,-1.811 -10.965,-7.717 -10.965,-14.447 0,-6.73 4.483,-12.637 10.965,-14.447 13.33,-3.723 22.639,-15.997 22.639,-29.849 0,-13.853 -9.31,-26.127 -22.639,-29.85 -6.482,-1.811 -10.965,-7.717 -10.965,-14.447 0,-6.73 4.483,-12.637 10.965,-14.447 13.33,-3.723 22.639,-15.997 22.639,-29.849 0,-15.823 -11.839,-29.065 -27.538,-30.802 -7.6,-0.841 -13.351,-7.263 -13.351,-14.909 V 0 h 30 v 39.5 c 24.043,8.346 40.889,31.145 40.889,57.611 0,17.124 -7.232,33.023 -19.117,44.296 11.885,11.272 19.117,27.172 19.117,44.297 0,17.124 -7.232,33.023 -19.117,44.296 11.885,11.272 19.117,27.172 19.117,44.296 0,17.125 -7.232,33.024 -19.117,44.297 11.885,11.272 19.117,27.172 19.117,44.296 0,26.467 -16.846,49.266 -40.889,57.611 z" />
        </g>
        <g
           id="g1179" />
        <g
           id="g1181" />
        <g
           id="g1183" />
        <g
           id="g1185" />
        <g
           id="g1187" />
        <g
           id="g1189" />
        <g
           id="g1191" />
        <g
           id="g1193" />
        <g
           id="g1195" />
        <g
           id="g1197" />
        <g
           id="g1199" />
        <g
           id="g1201" />
        <g
           id="g1203" />
        <g
           id="g1205" />
        <g
           id="g1207" />
      </g>
      <g
         transform="matrix(0,-0.09263467,0.09263467,0,643.19463,563.70976)"
         id="g1371">
        <g
           id="XMLID_1382_">
          <polygon
             id="XMLID_1383_"
             points="284,410 314,410 314,245 460,245 460,215 314,215 314,50 284,50 " />
          <polygon
             id="XMLID_1384_"
             points="146,410 176,410 176,50 146,50 146,215 0,215 0,245 146,245 " />
        </g>
        <g
           id="g1316" />
        <g
           id="g1318" />
        <g
           id="g1320" />
        <g
           id="g1322" />
        <g
           id="g1324" />
        <g
           id="g1326" />
        <g
           id="g1328" />
        <g
           id="g1330" />
        <g
           id="g1332" />
        <g
           id="g1334" />
        <g
           id="g1336" />
        <g
           id="g1338" />
        <g
           id="g1340" />
        <g
           id="g1342" />
        <g
           id="g1344" />
      </g>
      <g
         transform="matrix(0.09408209,0,0,0.09408209,485.27222,462.39162)"
         id="g1512">
        <g
           id="XMLID_1026_">
          <polygon
             id="XMLID_1042_"
             points="215,185 215,220 245,220 245,185 280,185 280,155 245,155 245,120 215,120 215,155 180,155 180,185 " />
          <path
             inkscape:connector-curvature="0"
             id="XMLID_1220_"
             d="M 407.258,230 C 407.258,137.312 335.746,61.024 245,53.383 V 0 H 215 V 53.383 C 124.254,61.024 52.742,137.313 52.742,230 c 0,92.944 71.907,169.403 163.01,176.684 V 460 h 30 V 406.55 C 336.14,398.551 407.258,322.431 407.258,230 Z M 230,377.258 C 148.802,377.258 82.743,311.198 82.743,230 82.743,148.802 148.802,82.742 230,82.742 c 81.198,0 147.258,66.06 147.258,147.258 0,81.198 -66.06,147.258 -147.258,147.258 z" />
          <rect
             id="XMLID_1440_"
             x="180"
             y="275"
             width="100"
             height="30" />
        </g>
        <g
           id="g1456" />
        <g
           id="g1458" />
        <g
           id="g1460" />
        <g
           id="g1462" />
        <g
           id="g1464" />
        <g
           id="g1466" />
        <g
           id="g1468" />
        <g
           id="g1470" />
        <g
           id="g1472" />
        <g
           id="g1474" />
        <g
           id="g1476" />
        <g
           id="g1478" />
        <g
           id="g1480" />
        <g
           id="g1482" />
        <g
           id="g1484" />
      </g>
      <path
         sodipodi:nodetypes="cc"
         inkscape:connector-curvature="0"
         id="path3368"
         d="m 664.33073,450.43658 0.1216,15.03683"
         style="fill:none;stroke:#000000;stroke-width:2.8125;stroke-linecap:butt;stroke-linejoin:miter;stroke-miterlimit:4;stroke-dasharray:none;stroke-opacity:1" />
      <path
         style="fill:none;stroke:#000000;stroke-width:2.8125;stroke-linecap:butt;stroke-linejoin:miter;stroke-miterlimit:4;stroke-dasharray:none;stroke-opacity:1"
         d="m 664.52625,508.49641 0.1216,15.03683"
         id="path3370"
         inkscape:connector-curvature="0"
         sodipodi:nodetypes="cc" />
      <path
         sodipodi:nodetypes="cccc"
         inkscape:connector-curvature="0"
         id="path3372"
         d="m 664.30838,406.86467 -0.0252,-24.23781 -157.32941,0.11673 -0.18655,79.88894"
         style="fill:none;stroke:#000000;stroke-width:2.8125;stroke-linecap:butt;stroke-linejoin:miter;stroke-miterlimit:4;stroke-dasharray:none;stroke-opacity:1" />
      <path
         style="fill:none;stroke:#000000;stroke-width:2.8125;stroke-linecap:butt;stroke-linejoin:miter;stroke-miterlimit:4;stroke-dasharray:none;stroke-opacity:1"
         d="m 664.30838,558.86571 -0.0252,24.23781 -157.32941,-0.11673 -0.18655,-79.88894"
         id="path3374"
         inkscape:connector-curvature="0"
         sodipodi:nodetypes="cccc" />
      <text
         xml:space="preserve"
         style="font-style:normal;font-weight:normal;font-size:24.90982819px;line-height:1.25;font-family:sans-serif;letter-spacing:0px;word-spacing:0px;fill:#000000;fill-opacity:1;stroke:none;stroke-width:0.62274569"
         x="690.33289"
         y="438.05618"
         id="text3378"><tspan
           sodipodi:role="line"
           id="tspan3376"
           x="690.33289"
           y="438.05618"
           style="font-style:normal;font-variant:normal;font-weight:normal;font-stretch:normal;font-family:'DejaVu Serif';-inkscape-font-specification:'DejaVu Serif';stroke-width:0.62274569">L</tspan></text>
      <text
         xml:space="preserve"
         style="font-style:normal;font-weight:normal;font-size:24.90982819px;line-height:1.25;font-family:sans-serif;letter-spacing:0px;word-spacing:0px;fill:#000000;fill-opacity:1;stroke:none;stroke-width:0.62274569"
         x="690.33289"
         y="550.55615"
         id="text3382"><tspan
           sodipodi:role="line"
           id="tspan3380"
           x="690.33289"
           y="550.55615"
           style="font-style:normal;font-variant:normal;font-weight:normal;font-stretch:normal;font-family:'DejaVu Serif';-inkscape-font-specification:'DejaVu Serif';stroke-width:0.62274569">C</tspan></text>
      <text
         id="text3386"
         y="417.89429"
         x="632.49786"
         style="font-style:normal;font-variant:normal;font-weight:normal;font-stretch:normal;font-size:37.5px;line-height:1.25;font-family:Alfa-beta;-inkscape-font-specification:Alfa-beta;letter-spacing:0px;word-spacing:0px;fill:#000000;fill-opacity:1;stroke:none;stroke-width:0.93749994"
         xml:space="preserve"><tspan
           style="stroke-width:0.93749994"
           y="417.89429"
           x="632.49786"
           id="tspan3384"
           sodipodi:role="line">+</tspan></text>
      <text
         xml:space="preserve"
         style="font-style:normal;font-variant:normal;font-weight:normal;font-stretch:normal;font-size:37.5px;line-height:1.25;font-family:Alfa-beta;-inkscape-font-specification:Alfa-beta;letter-spacing:0px;word-spacing:0px;fill:#000000;fill-opacity:1;stroke:none;stroke-width:0.93749994"
         x="632.49786"
         y="477.89429"
         id="text3390"><tspan
           sodipodi:role="line"
           id="tspan3388"
           x="632.49786"
           y="477.89429"
           style="stroke-width:0.93749994">+</tspan></text>
      <text
         id="text3394"
         y="530.39429"
         x="632.49786"
         style="font-style:normal;font-variant:normal;font-weight:normal;font-stretch:normal;font-size:37.5px;line-height:1.25;font-family:Alfa-beta;-inkscape-font-specification:Alfa-beta;letter-spacing:0px;word-spacing:0px;fill:#000000;fill-opacity:1;stroke:none;stroke-width:0.93749994"
         xml:space="preserve"><tspan
           style="stroke-width:0.93749994"
           y="530.39429"
           x="632.49786"
           id="tspan3392"
           sodipodi:role="line">+</tspan></text>
      <text
         id="text3398"
         y="438.32785"
         x="631.86322"
         style="font-style:normal;font-variant:normal;font-weight:normal;font-stretch:normal;font-size:37.5px;line-height:1.25;font-family:Alfa-beta;-inkscape-font-specification:Alfa-beta;letter-spacing:0px;word-spacing:0px;fill:#000000;fill-opacity:1;stroke:none;stroke-width:0.93749994"
         xml:space="preserve"><tspan
           style="stroke-width:0.93749994"
           y="438.32785"
           x="631.86322"
           id="tspan3396"
           sodipodi:role="line">_</tspan></text>
      <text
         xml:space="preserve"
         style="font-style:normal;font-variant:normal;font-weight:normal;font-stretch:normal;font-size:37.5px;line-height:1.25;font-family:Alfa-beta;-inkscape-font-specification:Alfa-beta;letter-spacing:0px;word-spacing:0px;fill:#000000;fill-opacity:1;stroke:none;stroke-width:0.93749994"
         x="631.86322"
         y="492.70285"
         id="text3402"><tspan
           sodipodi:role="line"
           id="tspan3400"
           x="631.86322"
           y="492.70285"
           style="stroke-width:0.93749994">_</tspan></text>
      <text
         id="text3406"
         y="550.82782"
         x="631.86322"
         style="font-style:normal;font-variant:normal;font-weight:normal;font-stretch:normal;font-size:37.5px;line-height:1.25;font-family:Alfa-beta;-inkscape-font-specification:Alfa-beta;letter-spacing:0px;word-spacing:0px;fill:#000000;fill-opacity:1;stroke:none;stroke-width:0.93749994"
         xml:space="preserve"><tspan
           style="stroke-width:0.93749994"
           y="550.82782"
           x="631.86322"
           id="tspan3404"
           sodipodi:role="line">_</tspan></text>
    </g>
  </g>
</svg>
