<?xml version="1.0" encoding="UTF-8" standalone="no"?>
<!-- Created with Inkscape (http://www.inkscape.org/) -->

<svg
   xmlns:dc="http://purl.org/dc/elements/1.1/"
   xmlns:cc="http://creativecommons.org/ns#"
   xmlns:rdf="http://www.w3.org/1999/02/22-rdf-syntax-ns#"
   xmlns:svg="http://www.w3.org/2000/svg"
   xmlns="http://www.w3.org/2000/svg"
   xmlns:sodipodi="http://sodipodi.sourceforge.net/DTD/sodipodi-0.dtd"
   xmlns:inkscape="http://www.inkscape.org/namespaces/inkscape"
   version="1.1"
   id="svg2"
   xml:space="preserve"
   width="463.40033"
   height="164.467"
   viewBox="0 0 463.40033 164.467"
   sodipodi:docname="pid12.svg"
   inkscape:version="0.92.3 (2405546, 2018-03-11)"><metadata
     id="metadata8"><rdf:RDF><cc:Work
         rdf:about=""><dc:format>image/svg+xml</dc:format><dc:type
           rdf:resource="http://purl.org/dc/dcmitype/StillImage" /><dc:title></dc:title></cc:Work></rdf:RDF></metadata><defs
     id="defs6"><clipPath
       clipPathUnits="userSpaceOnUse"
       id="clipPath18"><path
         d="M 0,0 H 612 V 792 H 0 Z"
         id="path16"
         inkscape:connector-curvature="0"
         style="clip-rule:evenodd" /></clipPath></defs><sodipodi:namedview
     pagecolor="#ffffff"
     bordercolor="#666666"
     borderopacity="1"
     objecttolerance="10"
     gridtolerance="10"
     guidetolerance="10"
     inkscape:pageopacity="0"
     inkscape:pageshadow="2"
     inkscape:window-width="1920"
     inkscape:window-height="1012"
     id="namedview4"
     showgrid="false"
     fit-margin-top="0"
     fit-margin-left="0"
     fit-margin-right="0"
     fit-margin-bottom="0"
     inkscape:zoom="1.2052961"
     inkscape:cx="383.66113"
     inkscape:cy="49.49971"
     inkscape:window-x="0"
     inkscape:window-y="40"
     inkscape:window-maximized="1"
     inkscape:current-layer="g10" /><g
     id="g10"
     inkscape:groupmode="layer"
     inkscape:label="pid12"
     transform="matrix(1.3333333,0,0,-1.3333333,-74.966498,980.76681)"><g
       id="g1829"><path
         inkscape:connector-curvature="0"
         id="path20"
         style="fill:#666666;fill-opacity:1;fill-rule:evenodd;stroke:none"
         d="m 232,681.5 h 99 v 34.3 h -99 z" /><path
         inkscape:connector-curvature="0"
         id="path22"
         style="fill:#666666;fill-opacity:1;fill-rule:evenodd;stroke:none"
         d="m 331,681.5 h 72.3 v 34.3 H 331 Z" /><path
         inkscape:connector-curvature="0"
         id="path24"
         style="fill:#666666;fill-opacity:1;fill-rule:evenodd;stroke:none"
         d="m 331,647.1 h 72.3 v 34.4 H 331 Z" /><path
         d="M 56.7,735.1 H 403.4"
         style="fill:none;stroke:#000000;stroke-width:0.95025003;stroke-linecap:butt;stroke-linejoin:round;stroke-miterlimit:10;stroke-dasharray:none;stroke-opacity:1"
         id="path28"
         inkscape:connector-curvature="0" /><path
         d="M 56.7,715.7 H 403.4"
         style="fill:none;stroke:#000000;stroke-width:0.95025003;stroke-linecap:butt;stroke-linejoin:round;stroke-miterlimit:10;stroke-dasharray:none;stroke-opacity:1"
         id="path32"
         inkscape:connector-curvature="0" /><path
         d="M 56.7,681.4 H 403.4"
         style="fill:none;stroke:#000000;stroke-width:0.95025003;stroke-linecap:butt;stroke-linejoin:round;stroke-miterlimit:10;stroke-dasharray:none;stroke-opacity:1"
         id="path36"
         inkscape:connector-curvature="0" /><path
         d="M 56.7,647 H 403.4"
         style="fill:none;stroke:#000000;stroke-width:0.95025003;stroke-linecap:butt;stroke-linejoin:round;stroke-miterlimit:10;stroke-dasharray:none;stroke-opacity:1"
         id="path40"
         inkscape:connector-curvature="0" /><path
         d="M 56.7,612.7 H 403.4"
         style="fill:none;stroke:#000000;stroke-width:0.95025003;stroke-linecap:butt;stroke-linejoin:round;stroke-miterlimit:10;stroke-dasharray:none;stroke-opacity:1"
         id="path44"
         inkscape:connector-curvature="0" /><path
         d="M 56.7,735.2 V 612.7"
         style="fill:none;stroke:#000000;stroke-width:0.95025003;stroke-linecap:butt;stroke-linejoin:round;stroke-miterlimit:10;stroke-dasharray:none;stroke-opacity:1"
         id="path48"
         inkscape:connector-curvature="0" /><path
         d="M 119.5,735.2 V 612.7"
         style="fill:none;stroke:#000000;stroke-width:0.95025003;stroke-linecap:butt;stroke-linejoin:round;stroke-miterlimit:10;stroke-dasharray:none;stroke-opacity:1"
         id="path52"
         inkscape:connector-curvature="0" /><path
         d="M 232,735.2 V 612.7"
         style="fill:none;stroke:#000000;stroke-width:0.95025003;stroke-linecap:butt;stroke-linejoin:round;stroke-miterlimit:10;stroke-dasharray:none;stroke-opacity:1"
         id="path56"
         inkscape:connector-curvature="0" /><path
         d="M 331,735.2 V 612.7"
         style="fill:none;stroke:#000000;stroke-width:0.95025003;stroke-linecap:butt;stroke-linejoin:round;stroke-miterlimit:10;stroke-dasharray:none;stroke-opacity:1"
         id="path60"
         inkscape:connector-curvature="0" /><path
         d="M 403.3,735.2 V 612.7"
         style="fill:none;stroke:#000000;stroke-width:0.95025003;stroke-linecap:butt;stroke-linejoin:round;stroke-miterlimit:10;stroke-dasharray:none;stroke-opacity:1"
         id="path64"
         inkscape:connector-curvature="0" /><text
         y="-721.20001"
         x="63.599998"
         transform="scale(1,-1)"
         style="font-variant:normal;font-weight:normal;font-size:12px;font-family:'Liberation Serif';-inkscape-font-specification:LiberationSerif;writing-mode:lr-tb;fill:#000000;fill-opacity:1;fill-rule:nonzero;stroke:none"
         id="text70"><tspan
           x="63.599998 71.592003 77.592003 83.592003 86.891998 90.888 96.888 100.188 103.572 108.876"
           y="-721.20001"
           sodipodi:role="line"
           id="tspan68">Controller</tspan></text>
<text
         y="-721.20001"
         x="169.2"
         transform="scale(1,-1)"
         style="font-style:italic;font-variant:normal;font-size:12px;font-family:'Liberation Serif';-inkscape-font-specification:LiberationSerif-Italic;writing-mode:lr-tb;fill:#000000;fill-opacity:1;fill-rule:nonzero;stroke:none"
         id="text76"><tspan
           x="169.2"
           y="-721.20001"
           id="tspan74">K</tspan></text>
<text
         y="-720.09998"
         x="177.2"
         transform="scale(1,-1)"
         style="font-style:italic;font-variant:normal;font-size:7px;font-family:'Liberation Serif';-inkscape-font-specification:LiberationSerif-Italic;writing-mode:lr-tb;fill:#000000;fill-opacity:1;fill-rule:nonzero;stroke:none"
         id="text82"><tspan
           x="177.2"
           y="-720.09998"
           id="tspan80">P</tspan></text>
<text
         y="-721.20001"
         x="256.70001"
         transform="scale(1,-1)"
         style="font-style:italic;font-variant:normal;font-size:12px;font-family:'Liberation Serif';-inkscape-font-specification:LiberationSerif-Italic;writing-mode:lr-tb;fill:#000000;fill-opacity:1;fill-rule:nonzero;stroke:none"
         id="text88"><tspan
           x="256.70001"
           y="-721.20001"
           id="tspan86">T</tspan></text>
<text
         y="-720.09998"
         x="263.39999"
         transform="scale(1,-1)"
         style="font-style:italic;font-variant:normal;font-size:7px;font-family:'Liberation Serif';-inkscape-font-specification:LiberationSerif-Italic;writing-mode:lr-tb;fill:#000000;fill-opacity:1;fill-rule:nonzero;stroke:none"
         id="text94"><tspan
           x="263.39999"
           y="-720.09998"
           id="tspan92">i</tspan></text>
<text
         y="-721.20001"
         x="268.39999"
         transform="scale(1,-1)"
         style="font-style:italic;font-variant:normal;font-size:12px;font-family:'Liberation Serif';-inkscape-font-specification:LiberationSerif-Italic;writing-mode:lr-tb;fill:#000000;fill-opacity:1;fill-rule:nonzero;stroke:none"
         id="text100"><tspan
           x="268.39999 276.48801 279.48801"
           y="-721.20001"
           sodipodi:role="line"
           id="tspan98">= K</tspan></text>
<text
         y="-720.09998"
         x="287.5"
         transform="scale(1,-1)"
         style="font-style:italic;font-variant:normal;font-size:7px;font-family:'Liberation Serif';-inkscape-font-specification:LiberationSerif-Italic;writing-mode:lr-tb;fill:#000000;fill-opacity:1;fill-rule:nonzero;stroke:none"
         id="text106"><tspan
           x="287.5"
           y="-720.09998"
           id="tspan104">P</tspan></text>
<text
         y="-721.20001"
         x="291.70001"
         transform="scale(1,-1)"
         style="font-style:italic;font-variant:normal;font-size:12px;font-family:'Liberation Serif';-inkscape-font-specification:LiberationSerif-Italic;writing-mode:lr-tb;fill:#000000;fill-opacity:1;fill-rule:nonzero;stroke:none"
         id="text112"><tspan
           x="291.70001 295"
           y="-721.20001"
           sodipodi:role="line"
           id="tspan110">/K</tspan></text>
<text
         y="-720.09998"
         x="303.10001"
         transform="scale(1,-1)"
         style="font-style:italic;font-variant:normal;font-size:7px;font-family:'Liberation Serif';-inkscape-font-specification:LiberationSerif-Italic;writing-mode:lr-tb;fill:#000000;fill-opacity:1;fill-rule:nonzero;stroke:none"
         id="text118"><tspan
           x="303.10001"
           y="-720.09998"
           id="tspan116">I</tspan></text>
<text
         y="-721.20001"
         x="340.20001"
         transform="scale(1,-1)"
         style="font-style:italic;font-variant:normal;font-size:12px;font-family:'Liberation Serif';-inkscape-font-specification:LiberationSerif-Italic;writing-mode:lr-tb;fill:#000000;fill-opacity:1;fill-rule:nonzero;stroke:none"
         id="text124"><tspan
           x="340.20001"
           y="-721.20001"
           id="tspan122">T</tspan></text>
<text
         y="-720.09998"
         x="346.89999"
         transform="scale(1,-1)"
         style="font-style:italic;font-variant:normal;font-size:7px;font-family:'Liberation Serif';-inkscape-font-specification:LiberationSerif-Italic;writing-mode:lr-tb;fill:#000000;fill-opacity:1;fill-rule:nonzero;stroke:none"
         id="text130"><tspan
           x="346.89999"
           y="-720.09998"
           id="tspan128">d</tspan></text>
<text
         y="-721.20001"
         x="353.39999"
         transform="scale(1,-1)"
         style="font-style:italic;font-variant:normal;font-size:12px;font-family:'Liberation Serif';-inkscape-font-specification:LiberationSerif-Italic;writing-mode:lr-tb;fill:#000000;fill-opacity:1;fill-rule:nonzero;stroke:none"
         id="text136"><tspan
           x="353.39999 361.48801 364.48801"
           y="-721.20001"
           sodipodi:role="line"
           id="tspan134">= K</tspan></text>
<text
         y="-720.09998"
         x="372.5"
         transform="scale(1,-1)"
         style="font-style:italic;font-variant:normal;font-size:7px;font-family:'Liberation Serif';-inkscape-font-specification:LiberationSerif-Italic;writing-mode:lr-tb;fill:#000000;fill-opacity:1;fill-rule:nonzero;stroke:none"
         id="text142"><tspan
           x="372.5"
           y="-720.09998"
           id="tspan140">D</tspan></text>
<text
         y="-721.20001"
         x="377.5"
         transform="scale(1,-1)"
         style="font-style:italic;font-variant:normal;font-size:12px;font-family:'Liberation Serif';-inkscape-font-specification:LiberationSerif-Italic;writing-mode:lr-tb;fill:#000000;fill-opacity:1;fill-rule:nonzero;stroke:none"
         id="text148"><tspan
           x="377.5 380.79999"
           y="-721.20001"
           sodipodi:role="line"
           id="tspan146">/K</tspan></text>
<text
         y="-720.09998"
         x="388.89999"
         transform="scale(1,-1)"
         style="font-style:italic;font-variant:normal;font-size:7px;font-family:'Liberation Serif';-inkscape-font-specification:LiberationSerif-Italic;writing-mode:lr-tb;fill:#000000;fill-opacity:1;fill-rule:nonzero;stroke:none"
         id="text154"><tspan
           x="388.89999"
           y="-720.09998"
           id="tspan152">P</tspan></text>
<text
         y="-694.29999"
         x="84.900002"
         transform="scale(1,-1)"
         style="font-variant:normal;font-weight:normal;font-size:12px;font-family:'Liberation Serif';-inkscape-font-specification:LiberationSerif;writing-mode:lr-tb;fill:#000000;fill-opacity:1;fill-rule:nonzero;stroke:none"
         id="text160"><tspan
           x="84.900002"
           y="-694.29999"
           id="tspan158">P</tspan></text>
<text
         y="-660"
         x="82.900002"
         transform="scale(1,-1)"
         style="font-variant:normal;font-weight:normal;font-size:12px;font-family:'Liberation Serif';-inkscape-font-specification:LiberationSerif;writing-mode:lr-tb;fill:#000000;fill-opacity:1;fill-rule:nonzero;stroke:none"
         id="text166"><tspan
           x="82.900002 89.584"
           y="-660"
           sodipodi:role="line"
           id="tspan164">PI</tspan></text>
<text
         y="-625.59998"
         x="78.599998"
         transform="scale(1,-1)"
         style="font-variant:normal;font-weight:normal;font-size:12px;font-family:'Liberation Serif';-inkscape-font-specification:LiberationSerif;writing-mode:lr-tb;fill:#000000;fill-opacity:1;fill-rule:nonzero;stroke:none"
         id="text172"><tspan
           x="78.599998 85.283997 89.183998"
           y="-625.59998"
           sodipodi:role="line"
           id="tspan170">PID</tspan></text>
<path
         inkscape:connector-curvature="0"
         id="path174"
         style="fill:#ffffff;fill-opacity:1;fill-rule:evenodd;stroke:none"
         d="m 148,686.1 h -12.5 v 22.4 h 25 v -22.4 z" /><path
         inkscape:connector-curvature="0"
         id="path176"
         style="fill:#000000;fill-opacity:1;fill-rule:evenodd;stroke:none"
         d="m 142.7,706.9 c 0.5,1.3 1.7,1.3 1.9,1.3 1.8,0 2,-2 2,-3 0,-0.7 -0.1,-0.9 -0.2,-1.2 -0.2,-0.8 -0.6,-2.2 -0.6,-2.6 0,-0.1 0,-0.2 0.1,-0.2 0.2,0 0.3,0.3 0.4,0.8 0.3,1 0.4,1.7 0.5,2 0,0.2 0,0.3 0,0.5 0.4,1.2 1.2,3 1.7,3.9 0.1,0.1 0.2,0.4 0.2,0.5 0,0.1 -0.1,0.1 -0.1,0.1 -0.1,0 -0.1,0 -0.2,-0.1 -0.6,-1.1 -1.1,-2.3 -1.6,-3.5 0,0.3 0,1.2 -0.4,2.4 -0.4,0.7 -0.8,1.3 -1.6,1.3 -1.5,0 -2.4,-1.8 -2.4,-2.2 0,-0.1 0.1,-0.1 0.2,-0.1 z" /><path
         inkscape:connector-curvature="0"
         id="path178"
         style="fill:#000000;fill-opacity:1;fill-rule:evenodd;stroke:none"
         d="m 152.7,704.7 c 0,0.9 -0.1,1.6 -0.5,2.1 -0.2,0.5 -0.7,0.8 -1.4,0.8 -2,0 -2,-2.3 -2,-2.9 0,-0.6 0,-2.8 2,-2.8 1.9,0 1.9,2.2 1.9,2.8 z m -1.9,-2.6 c -0.4,0 -0.9,0.2 -1.1,0.9 -0.1,0.5 -0.1,1.2 -0.1,1.8 0,0.6 0,1.2 0.1,1.7 0.2,0.7 0.7,0.9 1.1,0.9 0.5,0 0.9,-0.3 1,-0.8 0.2,-0.4 0.2,-1.1 0.2,-1.8 0,-0.6 0,-1.2 -0.1,-1.8 -0.2,-0.7 -0.8,-0.9 -1.1,-0.9 z" /><path
         inkscape:connector-curvature="0"
         id="path180"
         style="fill:#000000;fill-opacity:1;fill-rule:evenodd;stroke:none"
         d="M 148,698.5 H 134.9 V 699 H 161 v -0.5 z" /><path
         inkscape:connector-curvature="0"
         id="path182"
         style="fill:#000000;fill-opacity:1;fill-rule:evenodd;stroke:none"
         d="m 141,692.4 v 0.1 c 0,0.1 0.2,0.2 0.3,0.3 l 2.1,1.6 c 1.2,0.9 1.6,0.9 2,1 0.1,0 0.2,0 0.2,0.2 0,0.1 0,0.1 -0.1,0.1 -0.3,0 -0.6,0 -0.9,0 -0.4,0 -0.9,0 -1.3,0 -0.1,0 -0.2,0 -0.2,-0.2 0,-0.1 0,-0.1 0.1,-0.1 0.3,-0.1 0.4,-0.1 0.4,-0.3 0,-0.2 -0.4,-0.5 -0.4,-0.5 l -4.7,-3.6 0.9,3.8 c 0.2,0.5 0.2,0.6 1,0.6 0.3,0 0.4,0 0.4,0.2 0,0.1 -0.1,0.1 -0.1,0.1 -0.4,0 -1.2,0 -1.6,0 -0.3,0 -1.2,0 -1.5,0 -0.1,0 -0.2,0 -0.2,-0.2 0,-0.1 0.1,-0.1 0.3,-0.1 0.2,0 0.4,0 0.5,-0.1 0.2,0 0.3,0 0.3,-0.2 0,0 0,0 -0.1,-0.2 l -1.6,-6.4 c -0.1,-0.5 -0.1,-0.6 -1.1,-0.6 -0.2,0 -0.3,0 -0.3,-0.2 0,-0.2 0.1,-0.2 0.2,-0.2 0.3,0 1.2,0.1 1.5,0.1 0.3,0 0.5,0 0.8,0 0.2,0 0.5,-0.1 0.7,-0.1 0.1,0 0.3,0 0.3,0.3 0,0.1 -0.1,0.1 -0.3,0.1 -0.5,0 -0.8,0 -0.8,0.3 0,0 0.1,0.3 0.1,0.5 0.2,0.6 0.3,1.2 0.5,1.8 l 1.7,1.4 1.5,-3.2 c 0.1,-0.3 0.1,-0.3 0.1,-0.4 0,-0.4 -0.5,-0.4 -0.7,-0.4 -0.1,0 -0.2,0 -0.2,-0.2 0,-0.2 0.1,-0.2 0.1,-0.2 0.6,0 1.1,0.1 1.5,0.1 0.3,0 1,-0.1 1.2,-0.1 0.1,0 0.2,0 0.2,0.3 0,0.1 -0.1,0.1 -0.2,0.1 -0.5,0 -0.6,0.2 -0.9,0.6 z" /><path
         inkscape:connector-curvature="0"
         id="path184"
         style="fill:#000000;fill-opacity:1;fill-rule:evenodd;stroke:none"
         d="m 149.4,688.4 c 0,1 -0.1,1.7 -0.5,2.2 -0.2,0.4 -0.7,0.7 -1.4,0.7 -2,0 -2,-2.2 -2,-2.9 0,-0.6 0,-2.8 2,-2.8 1.9,0 1.9,2.2 1.9,2.8 z m -1.9,-2.6 c -0.4,0 -0.9,0.3 -1.1,1 -0.1,0.4 -0.1,1.2 -0.1,1.8 0,0.6 0,1.2 0.1,1.7 0.2,0.6 0.7,0.8 1.1,0.8 0.4,0 0.9,-0.3 1,-0.8 0.1,-0.4 0.2,-1 0.2,-1.7 0,-0.6 0,-1.3 -0.2,-1.8 -0.1,-0.8 -0.7,-1 -1,-1 z" /><path
         inkscape:connector-curvature="0"
         id="path186"
         style="fill:#000000;fill-opacity:1;fill-rule:evenodd;stroke:none"
         d="m 154,692 h 2 c 0.2,0 0.6,0 0.6,0.4 0,0.3 -0.3,0.3 -0.5,0.3 h -3.4 c -0.2,0 -0.7,0 -1.2,-0.5 -0.4,-0.5 -0.7,-1 -0.7,-1.1 0,0 0,-0.1 0.1,-0.1 0.1,0 0.1,0 0.2,0.1 0.6,0.9 1.3,0.9 1.5,0.9 h 1 l -1.1,-3.8 c -0.1,-0.1 -0.2,-0.4 -0.2,-0.5 0,-0.1 0.1,-0.3 0.4,-0.3 0.4,0 0.5,0.4 0.5,0.5 z" /><path
         inkscape:connector-curvature="0"
         id="path188"
         style="fill:#000000;fill-opacity:1;fill-rule:evenodd;stroke:none"
         d="m 160,688.4 c 0,1 -0.1,1.7 -0.5,2.2 -0.3,0.4 -0.8,0.7 -1.4,0.7 -2,0 -2,-2.2 -2,-2.9 0,-0.6 0,-2.8 2,-2.8 1.9,0 1.9,2.2 1.9,2.8 z m -1.9,-2.6 c -0.5,0 -1,0.3 -1.1,1 -0.2,0.4 -0.2,1.2 -0.2,1.8 0,0.6 0,1.2 0.2,1.7 0.1,0.6 0.7,0.8 1.1,0.8 0.4,0 0.8,-0.3 1,-0.8 0.1,-0.4 0.1,-1 0.1,-1.7 0,-0.6 0,-1.3 -0.1,-1.8 -0.2,-0.8 -0.7,-1 -1,-1 z" /><path
         inkscape:connector-curvature="0"
         id="path190"
         style="fill:#ffffff;fill-opacity:1;fill-rule:evenodd;stroke:none"
         d="m 188.5,684.9 h -27.4 v 27.5 H 216 v -27.5 z" /><path
         inkscape:connector-curvature="0"
         id="path192"
         style="fill:#000000;fill-opacity:1;fill-rule:evenodd;stroke:none"
         d="m 168.9,684.4 c 0,0.1 -0.1,0.1 -0.1,0.1 -0.4,0.5 -1.3,1.3 -2,2.6 -2,3.1 -2.8,6.9 -2.8,11.6 0,3.2 0.4,7.3 2.3,10.9 1,1.7 2,2.7 2.5,3.2 0.1,0 0.1,0.1 0.1,0.1 0,0.1 -0.1,0.1 -0.3,0.1 -0.1,0 -0.2,0 -0.4,-0.2 -4,-3.6 -5.3,-9.1 -5.3,-14.1 0,-4.7 1.1,-9.5 4.2,-13.1 0.2,-0.2 0.7,-0.7 1.2,-1.2 0.1,-0.1 0.2,-0.1 0.3,-0.1 0.2,0 0.3,0 0.3,0.1 z" /><path
         inkscape:connector-curvature="0"
         id="path194"
         style="fill:#000000;fill-opacity:1;fill-rule:evenodd;stroke:none"
         d="m 172.8,703.4 c 0,0.2 0,0.3 -0.3,0.3 -0.7,-0.8 -1.8,-0.8 -2.2,-0.8 v -0.4 c 0.3,0 1,0 1.6,0.3 v -6.2 c 0,-0.4 0,-0.6 -1.1,-0.6 h -0.4 v -0.3 c 0.4,0 1.5,0 1.9,0 0.5,0 1.6,0 2,0 v 0.3 h -0.4 c -1.1,0 -1.1,0.2 -1.1,0.6 z" /><path
         inkscape:connector-curvature="0"
         id="path196"
         style="fill:#000000;fill-opacity:1;fill-rule:evenodd;stroke:none"
         d="m 182.8,698.4 h 3.3 c 0.2,0 0.4,0 0.4,0.2 0,0.3 -0.2,0.3 -0.4,0.3 h -3.3 v 3.3 c 0,0.2 0,0.4 -0.2,0.4 -0.3,0 -0.3,-0.2 -0.3,-0.4 v -3.3 H 179 c -0.2,0 -0.4,0 -0.4,-0.3 0,-0.2 0.2,-0.2 0.4,-0.2 h 3.3 v -3.3 c 0,-0.2 0,-0.5 0.3,-0.5 0.2,0 0.2,0.3 0.2,0.5 z" /><path
         inkscape:connector-curvature="0"
         id="path198"
         style="fill:#000000;fill-opacity:1;fill-rule:evenodd;stroke:none"
         d="m 198.3,708.2 h 2 c 0.2,0 0.6,0 0.6,0.4 0,0.3 -0.3,0.3 -0.5,0.3 h -3.3 c -0.3,0 -0.8,0 -1.3,-0.5 -0.4,-0.5 -0.7,-1 -0.7,-1.1 0,0 0,-0.1 0.1,-0.1 0.1,0 0.2,0 0.2,0.1 0.6,0.9 1.3,0.9 1.5,0.9 h 1 l -1.1,-3.8 c -0.1,-0.2 -0.1,-0.4 -0.1,-0.5 0,-0.1 0,-0.3 0.3,-0.3 0.4,0 0.5,0.4 0.5,0.5 z" /><path
         inkscape:connector-curvature="0"
         id="path200"
         style="fill:#000000;fill-opacity:1;fill-rule:evenodd;stroke:none"
         d="m 204.3,704.6 c 0,0.9 -0.1,1.6 -0.5,2.2 -0.2,0.4 -0.7,0.7 -1.4,0.7 -2,0 -2,-2.3 -2,-2.9 0,-0.6 0,-2.8 2,-2.8 1.9,0 1.9,2.2 1.9,2.8 z m -1.9,-2.6 c -0.4,0 -0.9,0.2 -1.1,0.9 -0.1,0.5 -0.1,1.2 -0.1,1.8 0,0.6 0,1.2 0.1,1.7 0.2,0.7 0.7,0.9 1.1,0.9 0.4,0 0.9,-0.3 1,-0.8 0.2,-0.4 0.2,-1.1 0.2,-1.8 0,-0.6 0,-1.2 -0.1,-1.8 -0.2,-0.7 -0.8,-0.9 -1.1,-0.9 z" /><path
         inkscape:connector-curvature="0"
         id="path202"
         style="fill:#000000;fill-opacity:1;fill-rule:evenodd;stroke:none"
         d="m 200.1,698.4 h -8.8 v 0.5 h 17.6 v -0.5 z" /><path
         inkscape:connector-curvature="0"
         id="path204"
         style="fill:#000000;fill-opacity:1;fill-rule:evenodd;stroke:none"
         d="m 194.8,691.7 c 1,0.3 1.7,1.1 1.7,2.1 0,0.9 -1.1,1.6 -2.3,1.6 -1.2,0 -2.1,-0.7 -2.1,-1.6 0,-0.4 0.3,-0.6 0.6,-0.6 0.4,0 0.7,0.3 0.7,0.6 0,0.6 -0.6,0.6 -0.8,0.6 0.3,0.6 1.2,0.7 1.6,0.7 0.5,0 1.2,-0.3 1.2,-1.3 0,-0.2 -0.1,-0.9 -0.4,-1.4 -0.4,-0.6 -0.8,-0.6 -1.1,-0.6 0,0 -0.3,0 -0.4,0 -0.1,0 -0.2,-0.1 -0.2,-0.2 0,-0.1 0.1,-0.1 0.3,-0.1 h 0.5 c 1,0 1.4,-0.8 1.4,-2 0,-1.6 -0.8,-2 -1.3,-2 -0.5,0 -1.4,0.2 -1.9,0.9 0.5,-0.1 0.8,0.2 0.8,0.7 0,0.4 -0.3,0.7 -0.6,0.7 -0.3,0 -0.7,-0.2 -0.7,-0.7 0,-1.1 1.1,-1.9 2.4,-1.9 1.5,0 2.6,1.1 2.6,2.3 0,1 -0.8,1.9 -2,2.2 z" /><path
         inkscape:connector-curvature="0"
         id="path206"
         style="fill:#000000;fill-opacity:1;fill-rule:evenodd;stroke:none"
         d="m 197.7,690.5 c 0.5,1.4 1.8,1.4 1.9,1.4 1.9,0 2,-2.1 2,-3 0,-0.8 0,-1 -0.1,-1.2 -0.3,-0.9 -0.7,-2.3 -0.7,-2.6 0,-0.2 0.1,-0.2 0.2,-0.2 0.1,0 0.2,0.2 0.3,0.7 0.4,1 0.5,1.7 0.5,2.1 0.1,0.1 0.1,0.3 0.1,0.4 0.4,1.2 1.2,3 1.6,4 0.1,0.1 0.3,0.4 0.3,0.4 0,0.1 -0.1,0.1 -0.2,0.1 0,0 -0.1,0 -0.1,0 -0.7,-1.2 -1.1,-2.4 -1.6,-3.6 0,0.4 0,1.3 -0.5,2.5 -0.3,0.7 -0.8,1.3 -1.6,1.3 -1.5,0 -2.3,-1.9 -2.3,-2.2 0,-0.1 0.1,-0.1 0.2,-0.1 z" /><path
         inkscape:connector-curvature="0"
         id="path208"
         style="fill:#000000;fill-opacity:1;fill-rule:evenodd;stroke:none"
         d="m 207.8,688.3 c 0,1 -0.1,1.6 -0.5,2.2 -0.2,0.4 -0.7,0.7 -1.4,0.7 -2,0 -2,-2.2 -2,-2.9 0,-0.6 0,-2.8 2,-2.8 1.9,0 1.9,2.2 1.9,2.8 z m -1.9,-2.6 c -0.4,0 -0.9,0.3 -1.1,0.9 -0.2,0.5 -0.2,1.2 -0.2,1.8 0,0.7 0,1.3 0.2,1.8 0.2,0.6 0.7,0.8 1.1,0.8 0.4,0 0.9,-0.3 1,-0.8 0.1,-0.4 0.1,-1 0.1,-1.8 0,-0.6 0,-1.2 0,-1.7 -0.2,-0.8 -0.8,-1 -1.1,-1 z" /><path
         inkscape:connector-curvature="0"
         id="path210"
         style="fill:#000000;fill-opacity:1;fill-rule:evenodd;stroke:none"
         d="m 216.6,698.7 c 0,4.7 -1.1,9.4 -4.2,13 -0.2,0.3 -0.6,0.7 -1.1,1.2 -0.2,0.1 -0.2,0.1 -0.4,0.1 -0.1,0 -0.2,0 -0.2,-0.1 0,0 0,-0.1 0,-0.1 0.4,-0.5 1.3,-1.2 2.1,-2.6 1.9,-3 2.8,-6.9 2.8,-11.5 0,-3.3 -0.4,-7.4 -2.4,-11 -1,-1.7 -2,-2.7 -2.5,-3.2 0,0 0,0 0,-0.1 0,-0.1 0.1,-0.1 0.2,-0.1 0.2,0 0.2,0 0.4,0.2 4,3.6 5.3,9.1 5.3,14.2 z" /><path
         inkscape:connector-curvature="0"
         id="path212"
         style="fill:#ffffff;fill-opacity:1;fill-rule:evenodd;stroke:none"
         d="m 175.8,650.5 h -49.9 v 27.6 h 99.8 v -27.6 z" /><path
         inkscape:connector-curvature="0"
         id="path214"
         style="fill:#000000;fill-opacity:1;fill-rule:evenodd;stroke:none"
         d="m 133.1,672.4 c 0.5,1.4 1.7,1.4 1.9,1.4 1.8,0 2,-2.1 2,-3 0,-0.8 -0.1,-0.9 -0.2,-1.2 -0.3,-0.9 -0.6,-2.3 -0.6,-2.6 0,-0.1 0,-0.2 0.1,-0.2 0.2,0 0.3,0.3 0.4,0.7 0.3,1 0.4,1.7 0.5,2.1 0,0.1 0,0.3 0,0.5 0.4,1.1 1.2,2.9 1.7,3.9 0.1,0.1 0.2,0.4 0.2,0.5 0,0.1 -0.1,0.1 -0.1,0.1 -0.1,0 -0.1,0 -0.2,-0.1 -0.6,-1.2 -1.1,-2.4 -1.6,-3.6 0,0.4 0,1.3 -0.4,2.5 -0.4,0.7 -0.8,1.3 -1.6,1.3 -1.5,0 -2.4,-1.8 -2.4,-2.2 0,-0.1 0.1,-0.1 0.2,-0.1 z" /><path
         inkscape:connector-curvature="0"
         id="path216"
         style="fill:#000000;fill-opacity:1;fill-rule:evenodd;stroke:none"
         d="m 143.1,670.2 c 0,1 -0.1,1.7 -0.5,2.2 -0.2,0.4 -0.7,0.8 -1.4,0.8 -2,0 -2,-2.3 -2,-3 0,-0.5 0,-2.8 2,-2.8 1.9,0 1.9,2.3 1.9,2.8 z m -1.9,-2.6 c -0.4,0 -0.9,0.3 -1.1,1 -0.1,0.4 -0.1,1.2 -0.1,1.8 0,0.6 0,1.2 0.1,1.7 0.2,0.7 0.7,0.8 1.1,0.8 0.4,0 0.9,-0.2 1,-0.8 0.2,-0.4 0.2,-1 0.2,-1.7 0,-0.6 0,-1.3 -0.1,-1.8 -0.2,-0.8 -0.8,-1 -1.1,-1 z" /><path
         inkscape:connector-curvature="0"
         id="path218"
         style="fill:#000000;fill-opacity:1;fill-rule:evenodd;stroke:none"
         d="m 138.4,664.1 h -13.1 v 0.5 h 26.1 v -0.5 z" /><path
         inkscape:connector-curvature="0"
         id="path220"
         style="fill:#000000;fill-opacity:1;fill-rule:evenodd;stroke:none"
         d="m 131.4,658 v 0.1 c 0,0 0.2,0.2 0.3,0.3 l 2.1,1.6 c 1.2,0.8 1.6,0.9 2,0.9 0.1,0.1 0.2,0.1 0.2,0.3 0,0 0,0.1 -0.1,0.1 -0.3,0 -0.6,0 -0.9,0 -0.4,0 -0.9,0 -1.3,0 -0.1,0 -0.2,0 -0.2,-0.2 0,-0.1 0,-0.1 0.1,-0.2 0.3,0 0.4,-0.1 0.4,-0.2 0,-0.2 -0.4,-0.5 -0.4,-0.5 l -4.7,-3.7 0.9,3.9 c 0.2,0.4 0.2,0.5 1,0.5 0.3,0 0.4,0 0.4,0.3 0,0.1 -0.1,0.1 -0.1,0.1 -0.4,0 -1.2,0 -1.6,0 -0.3,0 -1.2,0 -1.5,0 -0.1,0 -0.2,0 -0.2,-0.2 0,-0.2 0.1,-0.2 0.3,-0.2 0.1,0 0.4,0 0.5,0 0.2,0 0.3,-0.1 0.3,-0.2 0,0 0,-0.1 -0.1,-0.2 l -1.6,-6.5 c -0.1,-0.4 -0.1,-0.5 -1.1,-0.5 -0.2,0 -0.3,0 -0.3,-0.3 0,-0.1 0.1,-0.1 0.2,-0.1 0.3,0 1.2,0 1.5,0 0.3,0 0.5,0 0.8,0 0.2,0 0.5,0 0.7,0 0.1,0 0.3,0 0.3,0.2 0,0.2 -0.1,0.2 -0.3,0.2 -0.5,0 -0.8,0 -0.8,0.2 0,0.1 0,0.3 0.1,0.5 0.2,0.6 0.3,1.3 0.5,1.9 l 1.7,1.4 1.5,-3.2 c 0.1,-0.3 0.1,-0.4 0.1,-0.4 0,-0.4 -0.5,-0.4 -0.7,-0.4 -0.1,0 -0.2,0 -0.2,-0.3 0,-0.1 0.1,-0.1 0.1,-0.1 0.6,0 1.1,0 1.5,0 0.3,0 1,0 1.2,0 0.1,0 0.2,0 0.2,0.2 0,0.2 -0.1,0.2 -0.2,0.2 -0.5,0 -0.6,0.1 -0.9,0.5 z" /><path
         inkscape:connector-curvature="0"
         id="path222"
         style="fill:#000000;fill-opacity:1;fill-rule:evenodd;stroke:none"
         d="m 139.8,654 c 0,0.9 -0.1,1.6 -0.5,2.1 -0.2,0.4 -0.7,0.8 -1.4,0.8 -2,0 -2,-2.3 -2,-2.9 0,-0.6 0,-2.9 2,-2.9 1.9,0 1.9,2.3 1.9,2.9 z m -1.9,-2.6 c -0.4,0 -0.9,0.2 -1.1,0.9 -0.2,0.5 -0.2,1.2 -0.2,1.8 0,0.6 0,1.2 0.2,1.7 0.2,0.7 0.7,0.9 1.1,0.9 0.4,0 0.9,-0.3 1,-0.8 0.1,-0.4 0.2,-1.1 0.2,-1.8 0,-0.6 0,-1.2 -0.2,-1.8 -0.1,-0.8 -0.7,-0.9 -1,-0.9 z" /><path
         inkscape:connector-curvature="0"
         id="path224"
         style="fill:#000000;fill-opacity:1;fill-rule:evenodd;stroke:none"
         d="m 144.4,657.6 h 2 c 0.1,0 0.6,0 0.6,0.4 0,0.3 -0.3,0.3 -0.5,0.3 h -3.4 c -0.2,0 -0.7,0 -1.2,-0.6 -0.4,-0.4 -0.7,-1 -0.7,-1 0,-0.1 0,-0.2 0.1,-0.2 0.1,0 0.1,0.1 0.2,0.2 0.6,0.9 1.3,0.9 1.5,0.9 h 1 l -1.1,-3.9 c -0.1,-0.1 -0.2,-0.4 -0.2,-0.4 0,-0.2 0.1,-0.4 0.4,-0.4 0.4,0 0.5,0.4 0.5,0.6 z" /><path
         inkscape:connector-curvature="0"
         id="path226"
         style="fill:#000000;fill-opacity:1;fill-rule:evenodd;stroke:none"
         d="m 150.4,654 c 0,0.9 -0.1,1.6 -0.5,2.1 -0.3,0.4 -0.8,0.8 -1.4,0.8 -2,0 -2,-2.3 -2,-2.9 0,-0.6 0,-2.9 2,-2.9 1.9,0 1.9,2.3 1.9,2.9 z m -1.9,-2.6 c -0.5,0 -1,0.2 -1.1,0.9 -0.2,0.5 -0.2,1.2 -0.2,1.8 0,0.6 0,1.2 0.2,1.7 0.1,0.7 0.7,0.9 1.1,0.9 0.4,0 0.8,-0.3 1,-0.8 0.1,-0.4 0.1,-1.1 0.1,-1.8 0,-0.6 0,-1.2 -0.1,-1.8 -0.2,-0.8 -0.7,-0.9 -1,-0.9 z" /><path
         inkscape:connector-curvature="0"
         id="path228"
         style="fill:#000000;fill-opacity:1;fill-rule:evenodd;stroke:none"
         d="m 163.3,650 c 0,0.1 -0.1,0.1 -0.1,0.1 -0.4,0.5 -1.2,1.3 -2,2.6 -2,3.1 -2.8,7 -2.8,11.6 0,3.2 0.4,7.4 2.4,10.9 0.9,1.8 1.9,2.7 2.4,3.3 0.1,0 0.1,0 0.1,0.1 0,0.1 -0.1,0.1 -0.3,0.1 -0.1,0 -0.2,0 -0.4,-0.2 -4,-3.7 -5.2,-9.2 -5.2,-14.2 0,-4.7 1,-9.4 4.1,-13 0.2,-0.3 0.7,-0.8 1.2,-1.2 0.1,-0.2 0.2,-0.2 0.3,-0.2 0.2,0 0.3,0 0.3,0.1 z" /><path
         inkscape:connector-curvature="0"
         id="path230"
         style="fill:#000000;fill-opacity:1;fill-rule:evenodd;stroke:none"
         d="m 169.2,665.2 c 0,0.9 -0.1,1.9 -0.5,2.8 -0.6,1.1 -1.5,1.3 -2.1,1.3 -0.6,0 -1.6,-0.3 -2,-1.4 -0.4,-0.8 -0.5,-1.8 -0.5,-2.7 0,-1 0.1,-2 0.6,-2.9 0.5,-1 1.4,-1.2 1.9,-1.2 0.7,0 1.6,0.2 2.2,1.3 0.3,0.9 0.4,1.8 0.4,2.8 z m -2.6,-3.9 c -0.4,0 -1.1,0.3 -1.3,1.5 -0.2,0.7 -0.2,1.8 -0.2,2.5 0,0.8 0,1.6 0.1,2.2 0.3,1.4 1.2,1.5 1.4,1.5 0.5,0 1.3,-0.2 1.5,-1.4 0.1,-0.6 0.1,-1.5 0.1,-2.3 0,-0.9 0,-1.7 -0.2,-2.5 -0.1,-1.1 -0.8,-1.5 -1.4,-1.5 z" /><path
         inkscape:connector-curvature="0"
         id="path232"
         style="fill:#000000;fill-opacity:1;fill-rule:evenodd;stroke:none"
         d="m 172,662 c 0,0.3 -0.3,0.6 -0.7,0.6 -0.3,0 -0.6,-0.3 -0.6,-0.6 0,-0.4 0.3,-0.7 0.6,-0.7 0.4,0 0.7,0.3 0.7,0.7 z" /><path
         inkscape:connector-curvature="0"
         id="path234"
         style="fill:#000000;fill-opacity:1;fill-rule:evenodd;stroke:none"
         d="m 177.4,665.2 v -0.4 c 0,-2.9 -1.3,-3.4 -2,-3.4 -0.2,0 -0.8,0 -1.2,0.4 0.5,0 0.7,0.4 0.7,0.6 0,0.3 -0.3,0.5 -0.6,0.5 -0.2,0 -0.5,-0.1 -0.5,-0.6 0,-0.7 0.6,-1.2 1.6,-1.2 1.6,0 3,1.6 3,4.2 0,3.2 -1.3,4 -2.4,4 -0.7,0 -1.3,-0.2 -1.8,-0.7 -0.5,-0.6 -0.8,-1.1 -0.8,-2 0,-1.5 1.1,-2.7 2.4,-2.7 0.8,0 1.3,0.5 1.6,1.3 z m -1.5,-1 c -0.2,0 -0.8,0 -1.2,0.8 -0.2,0.4 -0.2,1 -0.2,1.6 0,0.6 0,1.2 0.3,1.7 0.3,0.5 0.8,0.7 1.2,0.7 0.5,0 0.9,-0.4 1.2,-0.9 0.1,-0.4 0.1,-1.2 0.1,-1.7 0,-1 -0.4,-2.2 -1.4,-2.2 z" /><path
         inkscape:connector-curvature="0"
         id="path236"
         style="fill:#000000;fill-opacity:1;fill-rule:evenodd;stroke:none"
         d="m 186.5,664 h 3.3 c 0.2,0 0.4,0 0.4,0.3 0,0.2 -0.2,0.2 -0.4,0.2 h -3.3 v 3.4 c 0,0.2 0,0.4 -0.3,0.4 -0.2,0 -0.2,-0.2 -0.2,-0.4 v -3.4 h -3.4 c -0.2,0 -0.4,0 -0.4,-0.2 0,-0.3 0.2,-0.3 0.4,-0.3 h 3.4 v -3.3 c 0,-0.2 0,-0.4 0.2,-0.4 0.3,0 0.3,0.2 0.3,0.4 z" /><path
         inkscape:connector-curvature="0"
         id="path238"
         style="fill:#000000;fill-opacity:1;fill-rule:evenodd;stroke:none"
         d="m 204.9,673.9 h 2.1 c 0.1,0 0.6,0 0.6,0.4 0,0.3 -0.3,0.3 -0.5,0.3 h -3.4 c -0.2,0 -0.7,0 -1.2,-0.6 -0.4,-0.4 -0.8,-1 -0.8,-1 0,-0.1 0,-0.2 0.2,-0.2 0.1,0 0.1,0.1 0.2,0.2 0.6,0.9 1.2,0.9 1.5,0.9 h 1 l -1.2,-3.9 c 0,-0.1 -0.1,-0.4 -0.1,-0.4 0,-0.1 0.1,-0.4 0.3,-0.4 0.5,0 0.5,0.4 0.5,0.6 z" /><path
         inkscape:connector-curvature="0"
         id="path240"
         style="fill:#000000;fill-opacity:1;fill-rule:evenodd;stroke:none"
         d="m 211,670.2 c 0,1 -0.1,1.7 -0.5,2.2 -0.3,0.4 -0.8,0.8 -1.4,0.8 -2,0 -2,-2.3 -2,-3 0,-0.5 0,-2.8 2,-2.8 1.9,0 1.9,2.3 1.9,2.8 z m -1.9,-2.6 c -0.5,0 -1,0.3 -1.1,1 -0.2,0.4 -0.2,1.2 -0.2,1.8 0,0.6 0,1.2 0.2,1.7 0.1,0.7 0.7,0.8 1.1,0.8 0.4,0 0.8,-0.2 1,-0.8 0.1,-0.4 0.1,-1 0.1,-1.7 0,-0.6 0,-1.3 -0.1,-1.8 -0.2,-0.8 -0.7,-1 -1,-1 z" /><path
         inkscape:connector-curvature="0"
         id="path242"
         style="fill:#000000;fill-opacity:1;fill-rule:evenodd;stroke:none"
         d="M 206.7,664.1 H 195 v 0.5 h 23.5 v -0.5 z" /><path
         inkscape:connector-curvature="0"
         id="path244"
         style="fill:#000000;fill-opacity:1;fill-rule:evenodd;stroke:none"
         d="m 198.5,660.8 c 0,0.2 0,0.3 -0.3,0.3 -0.7,-0.8 -1.8,-0.8 -2.2,-0.8 v -0.4 c 0.3,0 1,0 1.6,0.4 V 654 c 0,-0.4 0,-0.5 -1.1,-0.5 h -0.4 v -0.4 c 0.4,0 1.5,0 1.9,0 0.5,0 1.6,0 2,0 v 0.4 h -0.4 c -1.1,0 -1.1,0.1 -1.1,0.5 z" /><path
         inkscape:connector-curvature="0"
         id="path246"
         style="fill:#000000;fill-opacity:1;fill-rule:evenodd;stroke:none"
         d="m 202.5,654 1.2,1.3 c 1.9,1.6 2.6,2.2 2.6,3.4 0,1.4 -1,2.4 -2.5,2.4 -1.4,0 -2.3,-1.1 -2.3,-2.2 0,-0.6 0.7,-0.6 0.7,-0.6 0.2,0 0.6,0.1 0.6,0.6 0,0.3 -0.2,0.6 -0.6,0.6 -0.2,0 -0.2,0 -0.2,0 0.3,0.8 0.9,1.2 1.6,1.2 1.1,0 1.6,-1 1.6,-2 0,-0.9 -0.6,-1.9 -1.2,-2.6 l -2.3,-2.6 c -0.2,-0.1 -0.2,-0.1 -0.2,-0.4 h 4.5 l 0.3,2.1 H 206 c 0,-0.4 -0.1,-0.9 -0.2,-1.1 -0.1,-0.1 -0.9,-0.1 -1.2,-0.1 z" /><path
         inkscape:connector-curvature="0"
         id="path248"
         style="fill:#000000;fill-opacity:1;fill-rule:evenodd;stroke:none"
         d="m 207.4,656.2 c 0.5,1.3 1.8,1.3 1.9,1.3 1.8,0 2,-2 2,-3 0,-0.7 -0.1,-0.9 -0.2,-1.2 -0.2,-0.8 -0.6,-2.2 -0.6,-2.6 0,-0.1 0.1,-0.2 0.1,-0.2 0.2,0 0.3,0.3 0.4,0.8 0.3,1 0.4,1.6 0.5,2 0,0.2 0,0.3 0,0.5 0.4,1.1 1.2,3 1.7,3.9 0.1,0.1 0.2,0.4 0.2,0.5 0,0.1 -0.1,0.1 -0.1,0.1 -0.1,0 -0.1,0 -0.2,-0.1 -0.6,-1.1 -1.1,-2.3 -1.6,-3.5 0,0.3 0,1.2 -0.4,2.4 -0.3,0.7 -0.8,1.3 -1.6,1.3 -1.5,0 -2.4,-1.8 -2.4,-2.2 0,-0.1 0.1,-0.1 0.2,-0.1 z" /><path
         inkscape:connector-curvature="0"
         id="path250"
         style="fill:#000000;fill-opacity:1;fill-rule:evenodd;stroke:none"
         d="m 217.4,654 c 0,0.9 -0.1,1.6 -0.5,2.1 -0.2,0.4 -0.7,0.8 -1.4,0.8 -2,0 -2,-2.3 -2,-2.9 0,-0.6 0,-2.9 2,-2.9 1.9,0 1.9,2.3 1.9,2.9 z m -1.9,-2.6 c -0.4,0 -0.9,0.2 -1.1,0.9 -0.1,0.5 -0.1,1.2 -0.1,1.8 0,0.6 0,1.2 0.1,1.7 0.2,0.7 0.7,0.9 1.1,0.9 0.4,0 0.9,-0.3 1,-0.8 0.1,-0.4 0.1,-1.1 0.1,-1.8 0,-0.6 0,-1.2 0,-1.8 -0.2,-0.8 -0.8,-0.9 -1.1,-0.9 z" /><path
         inkscape:connector-curvature="0"
         id="path252"
         style="fill:#000000;fill-opacity:1;fill-rule:evenodd;stroke:none"
         d="m 226.2,664.3 c 0,4.7 -1.1,9.4 -4.1,13 -0.3,0.3 -0.7,0.8 -1.2,1.2 -0.1,0.2 -0.2,0.2 -0.3,0.2 -0.2,0 -0.3,0 -0.3,-0.1 0,-0.1 0.1,-0.1 0.1,-0.2 0.4,-0.4 1.2,-1.2 2,-2.5 1.9,-3.1 2.8,-7 2.8,-11.6 0,-3.2 -0.4,-7.3 -2.4,-10.9 -0.9,-1.8 -1.9,-2.7 -2.4,-3.3 -0.1,0 -0.1,0 -0.1,-0.1 0,-0.1 0.1,-0.1 0.3,-0.1 0.1,0 0.2,0 0.3,0.2 4.1,3.7 5.3,9.2 5.3,14.2 z" /><path
         inkscape:connector-curvature="0"
         id="path254"
         style="fill:#ffffff;fill-opacity:1;fill-rule:evenodd;stroke:none"
         d="m 281.5,651 h -37.7 v 26.6 h 75.4 V 651 Z" /><path
         inkscape:connector-curvature="0"
         id="path256"
         style="fill:#000000;fill-opacity:1;fill-rule:evenodd;stroke:none"
         d="m 246.7,673.7 h 2.1 c 0.1,0 0.5,0 0.5,0.4 0,0.3 -0.2,0.3 -0.4,0.3 h -3.4 c -0.3,0 -0.7,0 -1.2,-0.6 -0.4,-0.4 -0.8,-1 -0.8,-1 0,-0.1 0,-0.2 0.2,-0.2 0.1,0 0.1,0.1 0.2,0.2 0.5,0.9 1.2,0.9 1.5,0.9 h 1 l -1.2,-3.8 c -0.1,-0.2 -0.1,-0.5 -0.1,-0.5 0,-0.1 0,-0.3 0.3,-0.3 0.4,0 0.5,0.3 0.5,0.5 z" /><path
         inkscape:connector-curvature="0"
         id="path258"
         style="fill:#000000;fill-opacity:1;fill-rule:evenodd;stroke:none"
         d="m 252.7,670.1 c 0,0.9 -0.1,1.6 -0.5,2.2 -0.2,0.4 -0.7,0.7 -1.4,0.7 -2,0 -2,-2.3 -2,-2.9 0,-0.6 0,-2.8 2,-2.8 1.9,0 1.9,2.2 1.9,2.8 z m -1.9,-2.6 c -0.4,0 -0.9,0.2 -1.1,0.9 -0.1,0.5 -0.1,1.2 -0.1,1.8 0,0.6 0,1.3 0.1,1.7 0.2,0.7 0.7,0.9 1.1,0.9 0.4,0 0.9,-0.3 1,-0.8 0.1,-0.4 0.2,-1.1 0.2,-1.8 0,-0.6 0,-1.2 -0.2,-1.7 -0.1,-0.8 -0.7,-1 -1,-1 z" /><path
         inkscape:connector-curvature="0"
         id="path260"
         style="fill:#000000;fill-opacity:1;fill-rule:evenodd;stroke:none"
         d="m 259.7,666.3 c 0,0.1 0,0.1 -0.2,0.3 -1.5,1.5 -1.8,3.8 -1.8,5.6 0,2.1 0.4,4.2 1.9,5.7 0.1,0.1 0.1,0.2 0.1,0.2 0,0.1 0,0.1 -0.1,0.1 -0.1,0 -1.2,-0.8 -1.9,-2.3 -0.6,-1.3 -0.8,-2.6 -0.8,-3.7 0,-0.9 0.2,-2.3 0.8,-3.7 0.8,-1.5 1.8,-2.3 1.9,-2.3 0.1,0 0.1,0.1 0.1,0.1 z" /><path
         inkscape:connector-curvature="0"
         id="path262"
         style="fill:#000000;fill-opacity:1;fill-rule:evenodd;stroke:none"
         d="m 263.9,673.5 c 1,0.2 1.7,1.1 1.7,2 0,1 -1.1,1.7 -2.2,1.7 -1.2,0 -2.1,-0.7 -2.1,-1.6 0,-0.4 0.2,-0.6 0.5,-0.6 0.4,0 0.7,0.2 0.7,0.6 0,0.6 -0.6,0.6 -0.8,0.6 0.4,0.5 1.2,0.7 1.6,0.7 0.5,0 1.2,-0.3 1.2,-1.3 0,-0.2 0,-0.9 -0.4,-1.4 -0.3,-0.6 -0.7,-0.6 -1,-0.6 -0.1,0 -0.4,-0.1 -0.5,-0.1 -0.1,0 -0.2,0 -0.2,-0.1 0,-0.1 0.1,-0.1 0.3,-0.1 h 0.5 c 1,0 1.5,-0.9 1.5,-2 0,-1.7 -0.8,-2 -1.4,-2 -0.5,0 -1.4,0.2 -1.8,0.9 0.4,-0.1 0.8,0.2 0.8,0.7 0,0.4 -0.4,0.7 -0.7,0.7 -0.3,0 -0.7,-0.2 -0.7,-0.8 0,-1 1.1,-1.8 2.4,-1.8 1.5,0 2.6,1.1 2.6,2.3 0,0.9 -0.8,1.9 -2,2.2 z" /><path
         inkscape:connector-curvature="0"
         id="path264"
         style="fill:#000000;fill-opacity:1;fill-rule:evenodd;stroke:none"
         d="m 271.9,673.1 c 0,0.9 -0.1,1.9 -0.5,2.8 -0.5,1.1 -1.5,1.3 -2,1.3 -0.7,0 -1.6,-0.3 -2.1,-1.4 -0.4,-0.8 -0.5,-1.8 -0.5,-2.7 0,-1 0.1,-2 0.6,-2.9 0.5,-1 1.4,-1.2 2,-1.2 0.6,0 1.5,0.2 2.1,1.3 0.3,0.8 0.4,1.8 0.4,2.8 z m -2.5,-3.9 c -0.5,0 -1.2,0.3 -1.4,1.5 -0.1,0.7 -0.1,1.8 -0.1,2.5 0,0.8 0,1.6 0,2.2 0.3,1.4 1.2,1.5 1.5,1.5 0.4,0 1.2,-0.2 1.4,-1.4 0.1,-0.6 0.1,-1.5 0.1,-2.3 0,-0.9 0,-1.7 -0.1,-2.5 -0.2,-1.1 -0.9,-1.5 -1.4,-1.5 z" /><path
         inkscape:connector-curvature="0"
         id="path266"
         style="fill:#000000;fill-opacity:1;fill-rule:evenodd;stroke:none"
         d="m 272.8,672.3 c 0.5,1.4 1.8,1.4 1.9,1.4 1.9,0 2,-2.1 2,-3.1 0,-0.7 -0.1,-0.9 -0.1,-1.2 -0.3,-0.8 -0.7,-2.2 -0.7,-2.5 0,-0.2 0.1,-0.2 0.2,-0.2 0.1,0 0.2,0.2 0.3,0.7 0.3,1 0.4,1.7 0.5,2 0,0.2 0.1,0.4 0.1,0.5 0.4,1.2 1.2,3 1.6,3.9 0.1,0.2 0.3,0.4 0.3,0.5 0,0.1 -0.2,0.1 -0.2,0.1 0,0 -0.1,0 -0.1,-0.1 -0.7,-1.1 -1.1,-2.3 -1.6,-3.5 0,0.3 0,1.3 -0.5,2.5 -0.3,0.6 -0.8,1.2 -1.6,1.2 -1.5,0 -2.3,-1.8 -2.3,-2.2 0,-0.1 0.1,-0.1 0.2,-0.1 z" /><path
         inkscape:connector-curvature="0"
         id="path268"
         style="fill:#000000;fill-opacity:1;fill-rule:evenodd;stroke:none"
         d="m 282.9,670.1 c 0,0.9 -0.1,1.6 -0.5,2.2 -0.3,0.4 -0.8,0.7 -1.4,0.7 -2,0 -2,-2.3 -2,-2.9 0,-0.6 0,-2.8 2,-2.8 1.9,0 1.9,2.2 1.9,2.8 z m -1.9,-2.6 c -0.5,0 -1,0.2 -1.1,0.9 -0.2,0.5 -0.2,1.2 -0.2,1.8 0,0.6 0,1.3 0.2,1.7 0.1,0.7 0.7,0.9 1.1,0.9 0.4,0 0.8,-0.3 1,-0.8 0.1,-0.4 0.1,-1.1 0.1,-1.8 0,-0.6 0,-1.2 -0.1,-1.7 -0.2,-0.8 -0.7,-1 -1,-1 z" /><path
         inkscape:connector-curvature="0"
         id="path270"
         style="fill:#000000;fill-opacity:1;fill-rule:evenodd;stroke:none"
         d="m 291.5,672 h 3.3 c 0.2,0 0.4,0 0.4,0.2 0,0.3 -0.2,0.3 -0.4,0.3 h -3.3 v 3.3 c 0,0.2 0,0.5 -0.3,0.5 -0.2,0 -0.2,-0.3 -0.2,-0.5 v -3.3 h -3.4 c -0.2,0 -0.4,0 -0.4,-0.3 0,-0.2 0.2,-0.2 0.4,-0.2 h 3.4 v -3.3 c 0,-0.2 0,-0.4 0.2,-0.4 0.3,0 0.3,0.2 0.3,0.4 z" /><path
         inkscape:connector-curvature="0"
         id="path272"
         style="fill:#000000;fill-opacity:1;fill-rule:evenodd;stroke:none"
         d="m 302,673.5 c 1,0.2 1.7,1.1 1.7,2 0,1 -1.1,1.7 -2.2,1.7 -1.3,0 -2.1,-0.7 -2.1,-1.6 0,-0.4 0.2,-0.6 0.5,-0.6 0.4,0 0.7,0.2 0.7,0.6 0,0.6 -0.6,0.6 -0.8,0.6 0.4,0.5 1.2,0.7 1.6,0.7 0.5,0 1.2,-0.3 1.2,-1.3 0,-0.2 0,-0.9 -0.4,-1.4 -0.3,-0.6 -0.7,-0.6 -1,-0.6 -0.1,0 -0.4,-0.1 -0.5,-0.1 -0.1,0 -0.2,0 -0.2,-0.1 0,-0.1 0.1,-0.1 0.3,-0.1 h 0.5 c 1,0 1.5,-0.9 1.5,-2 0,-1.7 -0.9,-2 -1.4,-2 -0.5,0 -1.4,0.2 -1.8,0.9 0.4,-0.1 0.7,0.2 0.7,0.7 0,0.4 -0.3,0.7 -0.6,0.7 -0.3,0 -0.7,-0.2 -0.7,-0.8 0,-1 1.1,-1.8 2.4,-1.8 1.5,0 2.6,1.1 2.6,2.3 0,0.9 -0.8,1.9 -2,2.2 z" /><path
         inkscape:connector-curvature="0"
         id="path274"
         style="fill:#000000;fill-opacity:1;fill-rule:evenodd;stroke:none"
         d="m 308,673.7 h 2.1 c 0.1,0 0.5,0 0.5,0.4 0,0.3 -0.2,0.3 -0.4,0.3 h -3.4 c -0.2,0 -0.7,0 -1.2,-0.6 -0.4,-0.4 -0.8,-1 -0.8,-1 0,-0.1 0,-0.2 0.2,-0.2 0.1,0 0.1,0.1 0.2,0.2 0.5,0.9 1.2,0.9 1.5,0.9 h 1 l -1.2,-3.8 c 0,-0.2 -0.1,-0.5 -0.1,-0.5 0,-0.1 0.1,-0.3 0.3,-0.3 0.4,0 0.5,0.3 0.5,0.5 z" /><path
         inkscape:connector-curvature="0"
         id="path276"
         style="fill:#000000;fill-opacity:1;fill-rule:evenodd;stroke:none"
         d="m 314.1,670.1 c 0,0.9 -0.1,1.6 -0.5,2.2 -0.3,0.4 -0.8,0.7 -1.5,0.7 -1.9,0 -1.9,-2.3 -1.9,-2.9 0,-0.6 0,-2.8 1.9,-2.8 2,0 2,2.2 2,2.8 z m -2,-2.6 c -0.4,0 -0.9,0.2 -1,0.9 -0.2,0.5 -0.2,1.2 -0.2,1.8 0,0.6 0,1.3 0.2,1.7 0.1,0.7 0.7,0.9 1,0.9 0.5,0 0.9,-0.3 1.1,-0.8 0.1,-0.4 0.1,-1.1 0.1,-1.8 0,-0.6 0,-1.2 -0.1,-1.7 -0.2,-0.8 -0.8,-1 -1.1,-1 z" /><path
         inkscape:connector-curvature="0"
         id="path278"
         style="fill:#000000;fill-opacity:1;fill-rule:evenodd;stroke:none"
         d="m 318.5,672.2 c 0,1 -0.1,2.4 -0.7,3.8 -0.8,1.4 -1.8,2.2 -2,2.2 0,0 -0.1,0 -0.1,-0.1 0,0 0,-0.1 0.2,-0.3 1.3,-1.1 2,-3 2,-5.6 0,-2 -0.5,-4.1 -2,-5.6 -0.2,-0.2 -0.2,-0.2 -0.2,-0.3 0,0 0.1,-0.1 0.1,-0.1 0.2,0 1.3,0.9 2,2.4 0.6,1.3 0.7,2.6 0.7,3.6 z" /><path
         inkscape:connector-curvature="0"
         id="path280"
         style="fill:#000000;fill-opacity:1;fill-rule:evenodd;stroke:none"
         d="m 281.5,663.9 h -38.3 v 0.5 h 76.6 v -0.5 z" /><path
         inkscape:connector-curvature="0"
         id="path282"
         style="fill:#000000;fill-opacity:1;fill-rule:evenodd;stroke:none"
         d="m 258.5,656.8 v -0.4 c 0,-2.8 -1.2,-3.4 -1.9,-3.4 -0.3,0 -0.9,0 -1.2,0.5 0.5,0 0.6,0.3 0.6,0.5 0,0.4 -0.3,0.6 -0.5,0.6 -0.3,0 -0.6,-0.1 -0.6,-0.6 0,-0.8 0.7,-1.3 1.7,-1.3 1.5,0 3,1.6 3,4.2 0,3.2 -1.4,4 -2.5,4 -0.6,0 -1.2,-0.2 -1.8,-0.7 -0.4,-0.6 -0.7,-1.1 -0.7,-1.9 0,-1.5 1.1,-2.7 2.4,-2.7 0.7,0 1.2,0.5 1.5,1.2 z m -1.5,-1 c -0.2,0 -0.7,0 -1.1,0.8 -0.2,0.5 -0.2,1 -0.2,1.6 0,0.7 0,1.2 0.2,1.7 0.4,0.6 0.8,0.7 1.2,0.7 0.6,0 1,-0.4 1.2,-0.9 0.1,-0.4 0.2,-1.1 0.2,-1.7 0,-1 -0.4,-2.2 -1.5,-2.2 z" /><path
         inkscape:connector-curvature="0"
         id="path284"
         style="fill:#000000;fill-opacity:1;fill-rule:evenodd;stroke:none"
         d="m 260.6,656 c 0.5,1.4 1.8,1.4 1.9,1.4 1.8,0 2,-2.1 2,-3.1 0,-0.7 -0.1,-0.9 -0.2,-1.2 -0.2,-0.8 -0.6,-2.2 -0.6,-2.5 0,-0.2 0,-0.2 0.1,-0.2 0.2,0 0.3,0.2 0.4,0.7 0.3,1 0.4,1.7 0.5,2 0,0.2 0,0.4 0,0.5 0.4,1.2 1.2,3 1.7,3.9 0.1,0.2 0.2,0.4 0.2,0.5 0,0.1 -0.1,0.1 -0.1,0.1 -0.1,0 -0.1,0 -0.2,-0.1 -0.6,-1.1 -1.1,-2.3 -1.6,-3.5 0,0.3 0,1.3 -0.4,2.5 -0.3,0.6 -0.8,1.3 -1.6,1.3 -1.5,0 -2.4,-1.9 -2.4,-2.3 0,-0.1 0.1,-0.1 0.2,-0.1 z" /><path
         inkscape:connector-curvature="0"
         id="path286"
         style="fill:#000000;fill-opacity:1;fill-rule:evenodd;stroke:none"
         d="m 270.6,653.8 c 0,0.9 -0.1,1.6 -0.5,2.2 -0.2,0.4 -0.7,0.7 -1.4,0.7 -2,0 -2,-2.3 -2,-2.9 0,-0.6 0,-2.8 2,-2.8 1.9,0 1.9,2.2 1.9,2.8 z m -1.9,-2.6 c -0.4,0 -0.9,0.2 -1.1,0.9 -0.1,0.5 -0.1,1.2 -0.1,1.8 0,0.6 0,1.3 0.1,1.7 0.2,0.7 0.7,0.9 1.1,0.9 0.4,0 0.9,-0.3 1,-0.8 0.1,-0.4 0.2,-1.1 0.2,-1.8 0,-0.6 0,-1.2 -0.2,-1.7 -0.1,-0.8 -0.7,-1 -1,-1 z" /><path
         inkscape:connector-curvature="0"
         id="path288"
         style="fill:#000000;fill-opacity:1;fill-rule:evenodd;stroke:none"
         d="m 279.2,655.7 h 3.3 c 0.2,0 0.4,0 0.4,0.2 0,0.3 -0.2,0.3 -0.4,0.3 h -3.3 v 3.3 c 0,0.2 0,0.5 -0.2,0.5 -0.3,0 -0.3,-0.3 -0.3,-0.5 v -3.3 h -3.4 c -0.2,0 -0.4,0 -0.4,-0.3 0,-0.2 0.2,-0.2 0.4,-0.2 h 3.4 v -3.3 c 0,-0.2 0,-0.4 0.3,-0.4 0.2,0 0.2,0.2 0.2,0.4 z" /><path
         inkscape:connector-curvature="0"
         id="path290"
         style="fill:#000000;fill-opacity:1;fill-rule:evenodd;stroke:none"
         d="m 287.8,653.9 1.3,1.2 c 1.8,1.7 2.5,2.3 2.5,3.5 0,1.4 -1,2.3 -2.5,2.3 -1.4,0 -2.3,-1.1 -2.3,-2.1 0,-0.7 0.7,-0.7 0.7,-0.7 0.2,0 0.6,0.2 0.6,0.6 0,0.3 -0.2,0.7 -0.6,0.7 -0.2,0 -0.2,0 -0.2,-0.1 0.3,0.8 0.9,1.3 1.6,1.3 1.1,0 1.6,-1 1.6,-2 0,-1 -0.6,-1.9 -1.2,-2.6 l -2.3,-2.6 c -0.2,-0.2 -0.2,-0.2 -0.2,-0.5 h 4.5 l 0.3,2.1 h -0.3 c 0,-0.3 -0.1,-0.9 -0.2,-1 -0.1,-0.1 -0.9,-0.1 -1.2,-0.1 z" /><path
         inkscape:connector-curvature="0"
         id="path292"
         style="fill:#000000;fill-opacity:1;fill-rule:evenodd;stroke:none"
         d="m 297.8,656.8 c 0,0.9 -0.1,1.9 -0.6,2.8 -0.5,1.1 -1.5,1.3 -2,1.3 -0.7,0 -1.6,-0.3 -2.1,-1.4 -0.3,-0.8 -0.4,-1.8 -0.4,-2.7 0,-0.9 0.1,-2 0.5,-2.9 0.5,-1 1.4,-1.2 2,-1.2 0.7,0 1.6,0.2 2.1,1.4 0.4,0.8 0.5,1.7 0.5,2.7 z m -2.6,-3.9 c -0.4,0 -1.2,0.3 -1.4,1.5 -0.1,0.7 -0.1,1.8 -0.1,2.5 0,0.8 0,1.6 0.1,2.2 0.2,1.5 1.1,1.6 1.4,1.6 0.4,0 1.2,-0.2 1.4,-1.4 0.1,-0.7 0.1,-1.6 0.1,-2.4 0,-0.9 0,-1.7 -0.1,-2.4 -0.2,-1.2 -0.9,-1.6 -1.4,-1.6 z" /><path
         inkscape:connector-curvature="0"
         id="path294"
         style="fill:#000000;fill-opacity:1;fill-rule:evenodd;stroke:none"
         d="m 301.7,657.4 h 2 c 0.2,0 0.6,0 0.6,0.4 0,0.3 -0.3,0.3 -0.5,0.3 h -3.3 c -0.3,0 -0.7,0 -1.2,-0.6 -0.5,-0.4 -0.8,-1 -0.8,-1 0,-0.1 0,-0.2 0.1,-0.2 0.1,0 0.2,0.1 0.2,0.2 0.6,0.9 1.3,0.9 1.5,0.9 h 1.1 l -1.2,-3.8 c -0.1,-0.2 -0.1,-0.5 -0.1,-0.5 0,-0.1 0,-0.3 0.3,-0.3 0.4,0 0.5,0.3 0.5,0.5 z" /><path
         inkscape:connector-curvature="0"
         id="path296"
         style="fill:#000000;fill-opacity:1;fill-rule:evenodd;stroke:none"
         d="m 307.8,653.8 c 0,0.9 -0.1,1.6 -0.5,2.2 -0.3,0.4 -0.8,0.7 -1.5,0.7 -1.9,0 -1.9,-2.3 -1.9,-2.9 0,-0.6 0,-2.8 1.9,-2.8 2,0 2,2.2 2,2.8 z m -2,-2.6 c -0.4,0 -0.9,0.2 -1,0.9 -0.2,0.5 -0.2,1.2 -0.2,1.8 0,0.6 0,1.3 0.2,1.7 0.1,0.7 0.7,0.9 1,0.9 0.5,0 0.9,-0.3 1.1,-0.8 0.1,-0.4 0.1,-1.1 0.1,-1.8 0,-0.6 0,-1.2 -0.1,-1.7 -0.2,-0.8 -0.7,-1 -1.1,-1 z" /><path
         inkscape:connector-curvature="0"
         id="path298"
         style="fill:#ffffff;fill-opacity:1;fill-rule:evenodd;stroke:none"
         d="m 146.5,617.4 h -12.4 v 22.4 H 159 v -22.4 z" /><path
         inkscape:connector-curvature="0"
         id="path300"
         style="fill:#000000;fill-opacity:1;fill-rule:evenodd;stroke:none"
         d="m 141.2,638.2 c 0.5,1.3 1.8,1.3 1.9,1.3 1.9,0 2,-2 2,-3 0,-0.7 -0.1,-0.9 -0.2,-1.2 -0.2,-0.8 -0.6,-2.2 -0.6,-2.6 0,-0.1 0.1,-0.2 0.2,-0.2 0.1,0 0.2,0.3 0.3,0.8 0.3,1 0.4,1.7 0.5,2 0,0.2 0,0.3 0.1,0.5 0.4,1.2 1.2,3 1.6,3.9 0.1,0.1 0.3,0.4 0.3,0.5 0,0.1 -0.2,0.1 -0.2,0.1 0,0 -0.1,0 -0.1,-0.1 -0.7,-1.1 -1.1,-2.3 -1.6,-3.5 0,0.3 0,1.2 -0.5,2.4 -0.3,0.7 -0.8,1.3 -1.6,1.3 -1.5,0 -2.3,-1.8 -2.3,-2.2 0,-0.1 0.1,-0.1 0.2,-0.1 z" /><path
         inkscape:connector-curvature="0"
         id="path302"
         style="fill:#000000;fill-opacity:1;fill-rule:evenodd;stroke:none"
         d="m 151.3,636 c 0,0.9 -0.1,1.6 -0.5,2.1 -0.2,0.5 -0.8,0.8 -1.4,0.8 -2,0 -2,-2.3 -2,-2.9 0,-0.6 0,-2.8 2,-2.8 1.9,0 1.9,2.2 1.9,2.8 z m -1.9,-2.6 c -0.4,0 -1,0.2 -1.1,0.9 -0.2,0.5 -0.2,1.2 -0.2,1.8 0,0.6 0,1.2 0.2,1.7 0.1,0.7 0.7,0.9 1.1,0.9 0.4,0 0.8,-0.3 1,-0.8 0.1,-0.4 0.2,-1.1 0.2,-1.8 0,-0.6 0,-1.2 -0.2,-1.8 -0.2,-0.7 -0.7,-0.9 -1,-0.9 z" /><path
         inkscape:connector-curvature="0"
         id="path304"
         style="fill:#000000;fill-opacity:1;fill-rule:evenodd;stroke:none"
         d="m 146.5,629.8 h -13 v 0.5 h 26.1 v -0.5 z" /><path
         inkscape:connector-curvature="0"
         id="path306"
         style="fill:#000000;fill-opacity:1;fill-rule:evenodd;stroke:none"
         d="m 139.6,623.7 -0.1,0.1 c 0,0.1 0.2,0.2 0.4,0.3 l 2.1,1.6 c 1.1,0.9 1.6,0.9 2,1 0,0 0.2,0 0.2,0.2 0,0.1 -0.1,0.1 -0.2,0.1 -0.3,0 -0.6,0 -0.8,0 -0.5,0 -0.9,0 -1.4,0 0,0 -0.2,0 -0.2,-0.2 0,-0.1 0.1,-0.1 0.2,-0.1 0.2,-0.1 0.3,-0.1 0.3,-0.3 0,-0.2 -0.3,-0.5 -0.4,-0.5 l -4.7,-3.6 1,3.8 c 0.1,0.5 0.1,0.6 1,0.6 0.3,0 0.4,0 0.4,0.2 0,0.1 -0.1,0.1 -0.2,0.1 -0.3,0 -1.2,0 -1.5,0 -0.3,0 -1.2,0 -1.5,0 -0.1,0 -0.3,0 -0.3,-0.2 0,-0.1 0.1,-0.1 0.4,-0.1 0.1,0 0.3,0 0.5,-0.1 0.2,0 0.2,0 0.2,-0.2 0,0 0,0 0,-0.2 l -1.6,-6.4 c -0.2,-0.5 -0.2,-0.6 -1.1,-0.6 -0.2,0 -0.3,0 -0.3,-0.2 0,-0.2 0.1,-0.2 0.2,-0.2 0.3,0 1.1,0.1 1.5,0.1 0.2,0 0.5,0 0.7,0 0.3,0 0.5,-0.1 0.8,-0.1 0.1,0 0.2,0 0.2,0.3 0,0.1 -0.1,0.1 -0.3,0.1 -0.4,0 -0.8,0 -0.8,0.3 0,0 0.1,0.3 0.1,0.5 0.2,0.6 0.3,1.2 0.5,1.8 l 1.8,1.4 1.4,-3.2 c 0.1,-0.3 0.1,-0.3 0.1,-0.4 0,-0.4 -0.5,-0.4 -0.6,-0.4 -0.1,0 -0.3,0 -0.3,-0.2 0,-0.2 0.2,-0.2 0.2,-0.2 0.5,0 1,0.1 1.5,0.1 0.2,0 0.9,-0.1 1.1,-0.1 0.1,0 0.3,0 0.3,0.3 0,0.1 -0.2,0.1 -0.3,0.1 -0.5,0 -0.6,0.2 -0.8,0.6 z" /><path
         inkscape:connector-curvature="0"
         id="path308"
         style="fill:#000000;fill-opacity:1;fill-rule:evenodd;stroke:none"
         d="m 148,619.7 c 0,1 -0.1,1.7 -0.5,2.2 -0.3,0.4 -0.8,0.7 -1.5,0.7 -1.9,0 -1.9,-2.2 -1.9,-2.9 0,-0.6 0,-2.8 1.9,-2.8 2,0 2,2.2 2,2.8 z m -2,-2.6 c -0.4,0 -0.9,0.3 -1.1,1 -0.1,0.4 -0.1,1.2 -0.1,1.8 0,0.6 0,1.2 0.1,1.7 0.2,0.6 0.8,0.8 1.1,0.8 0.5,0 0.9,-0.3 1,-0.8 0.2,-0.4 0.2,-1 0.2,-1.7 0,-0.6 0,-1.3 -0.1,-1.8 -0.2,-0.8 -0.8,-1 -1.1,-1 z" /><path
         inkscape:connector-curvature="0"
         id="path310"
         style="fill:#000000;fill-opacity:1;fill-rule:evenodd;stroke:none"
         d="m 152.5,623.3 h 2.1 c 0.1,0 0.5,0 0.5,0.4 0,0.3 -0.2,0.3 -0.4,0.3 h -3.4 c -0.2,0 -0.7,0 -1.2,-0.5 -0.4,-0.5 -0.8,-1 -0.8,-1.1 0,0 0,-0.1 0.2,-0.1 0.1,0 0.1,0 0.2,0.1 0.5,0.9 1.2,0.9 1.5,0.9 h 1 l -1.2,-3.8 c 0,-0.1 -0.1,-0.4 -0.1,-0.5 0,-0.1 0.1,-0.3 0.3,-0.3 0.4,0 0.5,0.4 0.5,0.5 z" /><path
         inkscape:connector-curvature="0"
         id="path312"
         style="fill:#000000;fill-opacity:1;fill-rule:evenodd;stroke:none"
         d="m 158.5,619.7 c 0,1 -0.1,1.7 -0.5,2.2 -0.2,0.4 -0.7,0.7 -1.4,0.7 -2,0 -2,-2.2 -2,-2.9 0,-0.6 0,-2.8 2,-2.8 1.9,0 1.9,2.2 1.9,2.8 z m -1.9,-2.6 c -0.4,0 -0.9,0.3 -1.1,1 -0.1,0.4 -0.1,1.2 -0.1,1.8 0,0.6 0,1.2 0.1,1.7 0.2,0.6 0.7,0.8 1.1,0.8 0.4,0 0.9,-0.3 1,-0.8 0.2,-0.4 0.2,-1 0.2,-1.7 0,-0.6 0,-1.3 -0.1,-1.8 -0.2,-0.8 -0.8,-1 -1.1,-1 z" /><path
         inkscape:connector-curvature="0"
         id="path314"
         style="fill:#ffffff;fill-opacity:1;fill-rule:evenodd;stroke:none"
         d="m 188.6,616.2 h -29 v 27.5 h 57.9 v -27.5 z" /><path
         inkscape:connector-curvature="0"
         id="path316"
         style="fill:#000000;fill-opacity:1;fill-rule:evenodd;stroke:none"
         d="m 167.4,615.7 c 0,0.1 0,0.1 0,0.1 -0.5,0.5 -1.3,1.3 -2.1,2.6 -1.9,3.1 -2.8,6.9 -2.8,11.6 0,3.2 0.5,7.3 2.4,10.9 1,1.7 2,2.7 2.5,3.2 0,0 0,0.1 0,0.1 0,0.1 -0.1,0.1 -0.2,0.1 -0.2,0 -0.2,0 -0.4,-0.2 -4,-3.6 -5.3,-9.1 -5.3,-14.1 0,-4.7 1.1,-9.5 4.2,-13.1 0.2,-0.2 0.7,-0.7 1.2,-1.2 0.1,-0.1 0.1,-0.1 0.3,-0.1 0.1,0 0.2,0 0.2,0.1 z" /><path
         inkscape:connector-curvature="0"
         id="path318"
         style="fill:#000000;fill-opacity:1;fill-rule:evenodd;stroke:none"
         d="m 172.8,637 v -1 c 0,-0.5 0,-0.6 -0.9,-0.6 h -0.2 v -0.3 c 0.4,0 1.1,0 1.6,0 0.5,0 1.1,0 1.6,0 v 0.3 h -0.2 c -0.9,0 -1,0.1 -1,0.6 v 1 h 1.3 v 0.4 h -1.3 v 5.5 c 0,0.2 0,0.3 -0.2,0.3 -0.1,0 -0.1,0 -0.2,-0.2 l -3.7,-5.6 V 637 Z m 0.1,0.4 H 170 l 2.9,4.5 z" /><path
         inkscape:connector-curvature="0"
         id="path320"
         style="fill:#000000;fill-opacity:1;fill-rule:evenodd;stroke:none"
         d="m 172.3,629.7 h -3 v 0.5 h 6 v -0.5 z" /><path
         inkscape:connector-curvature="0"
         id="path322"
         style="fill:#000000;fill-opacity:1;fill-rule:evenodd;stroke:none"
         d="m 172.8,623 c 1,0.3 1.7,1.1 1.7,2.1 0,0.9 -1.1,1.6 -2.3,1.6 -1.1,0 -2.1,-0.7 -2.1,-1.6 0,-0.4 0.3,-0.6 0.6,-0.6 0.4,0 0.7,0.3 0.7,0.6 0,0.6 -0.6,0.6 -0.8,0.6 0.3,0.6 1.2,0.7 1.6,0.7 0.5,0 1.2,-0.3 1.2,-1.3 0,-0.2 -0.1,-0.9 -0.4,-1.4 -0.4,-0.6 -0.8,-0.6 -1.1,-0.6 0,0 -0.3,0 -0.4,0 -0.1,0 -0.2,-0.1 -0.2,-0.2 0,-0.1 0.1,-0.1 0.3,-0.1 h 0.5 c 1,0 1.4,-0.8 1.4,-2 0,-1.6 -0.8,-2 -1.3,-2 -0.5,0 -1.4,0.2 -1.9,0.9 0.5,-0.1 0.8,0.2 0.8,0.7 0,0.4 -0.3,0.7 -0.6,0.7 -0.3,0 -0.7,-0.2 -0.7,-0.7 0,-1.1 1.1,-1.9 2.4,-1.9 1.5,0 2.6,1.1 2.6,2.3 0,1 -0.8,1.9 -2,2.2 z" /><path
         inkscape:connector-curvature="0"
         id="path324"
         style="fill:#000000;fill-opacity:1;fill-rule:evenodd;stroke:none"
         d="m 184.3,629.7 h 3.3 c 0.2,0 0.4,0 0.4,0.2 0,0.3 -0.2,0.3 -0.4,0.3 h -3.3 v 3.3 c 0,0.2 0,0.4 -0.2,0.4 -0.3,0 -0.3,-0.2 -0.3,-0.4 v -3.3 h -3.4 c -0.2,0 -0.4,0 -0.4,-0.3 0,-0.2 0.2,-0.2 0.4,-0.2 h 3.4 v -3.3 c 0,-0.2 0,-0.5 0.3,-0.5 0.2,0 0.2,0.3 0.2,0.5 z" /><path
         inkscape:connector-curvature="0"
         id="path326"
         style="fill:#000000;fill-opacity:1;fill-rule:evenodd;stroke:none"
         d="m 199.8,639.5 h 2 c 0.2,0 0.6,0 0.6,0.4 0,0.3 -0.3,0.3 -0.5,0.3 h -3.4 c -0.2,0 -0.7,0 -1.2,-0.5 -0.4,-0.5 -0.7,-1 -0.7,-1.1 0,0 0,-0.1 0.1,-0.1 0.1,0 0.1,0 0.2,0.1 0.6,0.9 1.3,0.9 1.5,0.9 h 1 l -1.1,-3.8 c -0.1,-0.2 -0.2,-0.4 -0.2,-0.5 0,-0.1 0.1,-0.3 0.4,-0.3 0.4,0 0.5,0.4 0.5,0.5 z" /><path
         inkscape:connector-curvature="0"
         id="path328"
         style="fill:#000000;fill-opacity:1;fill-rule:evenodd;stroke:none"
         d="m 205.8,635.9 c 0,0.9 -0.1,1.6 -0.5,2.2 -0.2,0.4 -0.7,0.7 -1.4,0.7 -2,0 -2,-2.3 -2,-2.9 0,-0.6 0,-2.8 2,-2.8 1.9,0 1.9,2.2 1.9,2.8 z m -1.9,-2.6 c -0.4,0 -0.9,0.2 -1.1,0.9 -0.1,0.5 -0.1,1.2 -0.1,1.8 0,0.6 0,1.2 0.1,1.7 0.2,0.7 0.7,0.9 1.1,0.9 0.4,0 0.9,-0.3 1,-0.8 0.1,-0.4 0.1,-1.1 0.1,-1.8 0,-0.6 0,-1.2 0,-1.8 -0.2,-0.7 -0.8,-0.9 -1.1,-0.9 z" /><path
         inkscape:connector-curvature="0"
         id="path330"
         style="fill:#000000;fill-opacity:1;fill-rule:evenodd;stroke:none"
         d="m 201.5,629.7 h -8.7 v 0.5 h 17.5 v -0.5 z" /><path
         inkscape:connector-curvature="0"
         id="path332"
         style="fill:#000000;fill-opacity:1;fill-rule:evenodd;stroke:none"
         d="m 196.3,620.7 v -1 c 0,-0.5 0,-0.6 -1,-0.6 h -0.2 v -0.3 c 0.5,0 1.1,0 1.6,0 0.5,0 1.2,0 1.6,0 v 0.3 h -0.2 c -0.9,0 -0.9,0.1 -0.9,0.6 v 1 h 1.2 v 0.4 h -1.2 v 5.5 c 0,0.2 0,0.3 -0.2,0.3 -0.1,0 -0.2,0 -0.2,-0.2 l -3.7,-5.6 v -0.4 z m 0,0.4 h -2.9 l 2.9,4.5 z" /><path
         inkscape:connector-curvature="0"
         id="path334"
         style="fill:#000000;fill-opacity:1;fill-rule:evenodd;stroke:none"
         d="m 199.2,621.8 c 0.5,1.4 1.8,1.4 1.9,1.4 1.9,0 2,-2.1 2,-3 0,-0.8 -0.1,-1 -0.1,-1.2 -0.3,-0.9 -0.7,-2.3 -0.7,-2.6 0,-0.2 0.1,-0.2 0.2,-0.2 0.1,0 0.2,0.2 0.3,0.7 0.3,1 0.4,1.7 0.5,2.1 0,0.1 0,0.3 0.1,0.4 0.4,1.2 1.2,3 1.6,4 0.1,0.1 0.3,0.4 0.3,0.4 0,0.1 -0.1,0.1 -0.2,0.1 0,0 -0.1,0 -0.1,0 -0.7,-1.2 -1.1,-2.4 -1.6,-3.6 0,0.4 0,1.3 -0.5,2.5 -0.3,0.7 -0.8,1.3 -1.6,1.3 -1.5,0 -2.3,-1.9 -2.3,-2.2 0,-0.1 0.1,-0.1 0.2,-0.1 z" /><path
         inkscape:connector-curvature="0"
         id="path336"
         style="fill:#000000;fill-opacity:1;fill-rule:evenodd;stroke:none"
         d="m 209.3,619.6 c 0,1 -0.1,1.6 -0.5,2.2 -0.3,0.4 -0.8,0.7 -1.5,0.7 -1.9,0 -1.9,-2.2 -1.9,-2.9 0,-0.6 0,-2.8 1.9,-2.8 2,0 2,2.2 2,2.8 z m -2,-2.6 c -0.4,0 -0.9,0.3 -1.1,0.9 -0.1,0.5 -0.1,1.2 -0.1,1.8 0,0.7 0,1.3 0.1,1.8 0.2,0.6 0.8,0.8 1.1,0.8 0.5,0 0.9,-0.3 1.1,-0.8 0.1,-0.4 0.1,-1 0.1,-1.8 0,-0.6 0,-1.2 -0.1,-1.7 -0.2,-0.8 -0.8,-1 -1.1,-1 z" /><path
         inkscape:connector-curvature="0"
         id="path338"
         style="fill:#000000;fill-opacity:1;fill-rule:evenodd;stroke:none"
         d="m 218.1,630 c 0,4.7 -1.1,9.4 -4.2,13 -0.2,0.3 -0.7,0.7 -1.2,1.2 -0.1,0.1 -0.2,0.1 -0.3,0.1 -0.2,0 -0.3,0 -0.3,-0.1 0,0 0.1,-0.1 0.1,-0.1 0.4,-0.5 1.2,-1.2 2,-2.6 1.9,-3 2.9,-6.9 2.9,-11.5 0,-3.3 -0.5,-7.4 -2.5,-11 -0.9,-1.7 -1.9,-2.7 -2.4,-3.2 0,0 -0.1,0 -0.1,-0.1 0,-0.1 0.1,-0.1 0.3,-0.1 0.1,0 0.2,0 0.3,0.2 4.1,3.6 5.4,9.1 5.4,14.2 z" /><path
         inkscape:connector-curvature="0"
         id="path340"
         style="fill:#ffffff;fill-opacity:1;fill-rule:evenodd;stroke:none"
         d="m 281.5,616.6 h -37.7 v 26.7 h 75.4 v -26.7 z" /><path
         inkscape:connector-curvature="0"
         id="path342"
         style="fill:#000000;fill-opacity:1;fill-rule:evenodd;stroke:none"
         d="m 246.7,639.3 h 2.1 c 0.1,0 0.5,0 0.5,0.5 0,0.3 -0.2,0.3 -0.4,0.3 h -3.4 c -0.3,0 -0.7,0 -1.2,-0.6 -0.4,-0.5 -0.8,-1 -0.8,-1.1 0,0 0,-0.1 0.2,-0.1 0.1,0 0.1,0.1 0.2,0.1 0.5,0.9 1.2,0.9 1.5,0.9 h 1 l -1.2,-3.8 c -0.1,-0.1 -0.1,-0.4 -0.1,-0.4 0,-0.2 0,-0.4 0.3,-0.4 0.4,0 0.5,0.4 0.5,0.5 z" /><path
         inkscape:connector-curvature="0"
         id="path344"
         style="fill:#000000;fill-opacity:1;fill-rule:evenodd;stroke:none"
         d="m 252.7,635.7 c 0,1 -0.1,1.7 -0.5,2.2 -0.2,0.4 -0.7,0.8 -1.4,0.8 -2,0 -2,-2.3 -2,-3 0,-0.5 0,-2.8 2,-2.8 1.9,0 1.9,2.3 1.9,2.8 z m -1.9,-2.5 c -0.4,0 -0.9,0.2 -1.1,0.9 -0.1,0.5 -0.1,1.2 -0.1,1.8 0,0.6 0,1.2 0.1,1.7 0.2,0.7 0.7,0.8 1.1,0.8 0.4,0 0.9,-0.2 1,-0.8 0.1,-0.4 0.2,-1 0.2,-1.7 0,-0.6 0,-1.2 -0.2,-1.8 -0.1,-0.8 -0.7,-0.9 -1,-0.9 z" /><path
         inkscape:connector-curvature="0"
         id="path346"
         style="fill:#000000;fill-opacity:1;fill-rule:evenodd;stroke:none"
         d="m 259.7,632 c 0,0 0,0.1 -0.2,0.3 -1.5,1.5 -1.8,3.7 -1.8,5.6 0,2.1 0.4,4.1 1.9,5.6 0.1,0.2 0.1,0.2 0.1,0.3 0,0 0,0.1 -0.1,0.1 -0.1,0 -1.2,-0.8 -1.9,-2.4 -0.6,-1.3 -0.8,-2.6 -0.8,-3.6 0,-1 0.2,-2.4 0.8,-3.8 0.8,-1.5 1.8,-2.2 1.9,-2.2 0.1,0 0.1,0 0.1,0.1 z" /><path
         inkscape:connector-curvature="0"
         id="path348"
         style="fill:#000000;fill-opacity:1;fill-rule:evenodd;stroke:none"
         d="m 263.9,639.1 c 1,0.3 1.7,1.1 1.7,2.1 0,1 -1.1,1.7 -2.2,1.7 -1.2,0 -2.1,-0.8 -2.1,-1.7 0,-0.4 0.2,-0.6 0.5,-0.6 0.4,0 0.7,0.3 0.7,0.6 0,0.6 -0.6,0.6 -0.8,0.6 0.4,0.6 1.2,0.7 1.6,0.7 0.5,0 1.2,-0.2 1.2,-1.3 0,-0.1 0,-0.8 -0.4,-1.4 -0.3,-0.6 -0.7,-0.6 -1,-0.6 -0.1,0 -0.4,0 -0.5,0 -0.1,0 -0.2,-0.1 -0.2,-0.2 0,-0.1 0.1,-0.1 0.3,-0.1 h 0.5 c 1,0 1.5,-0.8 1.5,-2 0,-1.6 -0.8,-2 -1.4,-2 -0.5,0 -1.4,0.3 -1.8,0.9 0.4,0 0.8,0.2 0.8,0.7 0,0.4 -0.4,0.7 -0.7,0.7 -0.3,0 -0.7,-0.2 -0.7,-0.7 0,-1.1 1.1,-1.9 2.4,-1.9 1.5,0 2.6,1.1 2.6,2.3 0,1 -0.8,1.9 -2,2.2 z" /><path
         inkscape:connector-curvature="0"
         id="path350"
         style="fill:#000000;fill-opacity:1;fill-rule:evenodd;stroke:none"
         d="m 267.9,635.8 1.3,1.2 c 1.9,1.7 2.6,2.3 2.6,3.5 0,1.4 -1.1,2.4 -2.6,2.4 -1.3,0 -2.2,-1.2 -2.2,-2.2 0,-0.7 0.6,-0.7 0.6,-0.7 0.2,0 0.6,0.2 0.6,0.6 0,0.3 -0.2,0.7 -0.6,0.7 -0.1,0 -0.1,0 -0.1,0 0.2,0.7 0.9,1.2 1.6,1.2 1.1,0 1.6,-1 1.6,-2 0,-0.9 -0.6,-1.9 -1.3,-2.6 l -2.3,-2.6 c -0.1,-0.1 -0.1,-0.1 -0.1,-0.4 h 4.4 l 0.4,2 h -0.3 c -0.1,-0.3 -0.2,-0.9 -0.3,-1 -0.1,-0.1 -0.9,-0.1 -1.1,-0.1 z" /><path
         inkscape:connector-curvature="0"
         id="path352"
         style="fill:#000000;fill-opacity:1;fill-rule:evenodd;stroke:none"
         d="m 272.8,638 c 0.5,1.3 1.8,1.3 1.9,1.3 1.9,0 2,-2.1 2,-3 0,-0.8 -0.1,-0.9 -0.1,-1.2 -0.3,-0.9 -0.7,-2.3 -0.7,-2.6 0,-0.1 0.1,-0.2 0.2,-0.2 0.1,0 0.2,0.3 0.3,0.8 0.3,0.9 0.4,1.6 0.5,2 0,0.1 0.1,0.3 0.1,0.5 0.4,1.1 1.2,2.9 1.6,3.9 0.1,0.1 0.3,0.4 0.3,0.5 0,0.1 -0.2,0.1 -0.2,0.1 0,0 -0.1,0 -0.1,-0.1 -0.7,-1.2 -1.1,-2.4 -1.6,-3.5 0,0.3 0,1.2 -0.5,2.4 -0.3,0.7 -0.8,1.3 -1.6,1.3 -1.5,0 -2.3,-1.8 -2.3,-2.2 0,-0.1 0.1,-0.1 0.2,-0.1 z" /><path
         inkscape:connector-curvature="0"
         id="path354"
         style="fill:#000000;fill-opacity:1;fill-rule:evenodd;stroke:none"
         d="m 282.9,635.7 c 0,1 -0.1,1.7 -0.5,2.2 -0.3,0.4 -0.8,0.8 -1.4,0.8 -2,0 -2,-2.3 -2,-3 0,-0.5 0,-2.8 2,-2.8 1.9,0 1.9,2.3 1.9,2.8 z m -1.9,-2.5 c -0.5,0 -1,0.2 -1.1,0.9 -0.2,0.5 -0.2,1.2 -0.2,1.8 0,0.6 0,1.2 0.2,1.7 0.1,0.7 0.7,0.8 1.1,0.8 0.4,0 0.8,-0.2 1,-0.8 0.1,-0.4 0.1,-1 0.1,-1.7 0,-0.6 0,-1.2 -0.1,-1.8 -0.2,-0.8 -0.7,-0.9 -1,-0.9 z" /><path
         inkscape:connector-curvature="0"
         id="path356"
         style="fill:#000000;fill-opacity:1;fill-rule:evenodd;stroke:none"
         d="m 291.5,637.6 h 3.3 c 0.2,0 0.4,0 0.4,0.3 0,0.3 -0.2,0.3 -0.4,0.3 h -3.3 v 3.3 c 0,0.2 0,0.4 -0.3,0.4 -0.2,0 -0.2,-0.2 -0.2,-0.4 v -3.3 h -3.4 c -0.2,0 -0.4,0 -0.4,-0.3 0,-0.3 0.2,-0.3 0.4,-0.3 h 3.4 v -3.3 c 0,-0.2 0,-0.4 0.2,-0.4 0.3,0 0.3,0.2 0.3,0.4 z" /><path
         inkscape:connector-curvature="0"
         id="path358"
         style="fill:#000000;fill-opacity:1;fill-rule:evenodd;stroke:none"
         d="m 300.1,638.8 v 0.3 c 0,3 1.5,3.4 2.1,3.4 0.3,0 0.8,0 1.1,-0.4 -0.2,0 -0.7,0 -0.7,-0.5 0,-0.4 0.3,-0.6 0.6,-0.6 0.1,0 0.5,0.1 0.5,0.6 0,0.7 -0.5,1.3 -1.5,1.3 -1.6,0 -3.2,-1.6 -3.2,-4.2 0,-3.3 1.4,-4.1 2.5,-4.1 1.4,0 2.5,1.1 2.5,2.7 0,1.5 -1.1,2.7 -2.4,2.7 -0.8,0 -1.3,-0.6 -1.5,-1.2 z m 1.4,-3.9 c -0.7,0 -1.1,0.8 -1.2,0.9 -0.2,0.6 -0.2,1.5 -0.2,1.8 0,0.9 0.4,2.1 1.5,2.1 0.2,0 0.7,0 1.1,-0.7 0.2,-0.5 0.2,-1.1 0.2,-1.7 0,-0.5 0,-1.1 -0.2,-1.6 -0.4,-0.7 -0.9,-0.8 -1.2,-0.8 z" /><path
         inkscape:connector-curvature="0"
         id="path360"
         style="fill:#000000;fill-opacity:1;fill-rule:evenodd;stroke:none"
         d="m 308,639.3 h 2.1 c 0.1,0 0.5,0 0.5,0.5 0,0.3 -0.2,0.3 -0.4,0.3 h -3.4 c -0.2,0 -0.7,0 -1.2,-0.6 -0.4,-0.5 -0.8,-1 -0.8,-1.1 0,0 0,-0.1 0.2,-0.1 0.1,0 0.1,0.1 0.2,0.1 0.5,0.9 1.2,0.9 1.5,0.9 h 1 l -1.2,-3.8 c 0,-0.1 -0.1,-0.4 -0.1,-0.4 0,-0.2 0.1,-0.4 0.3,-0.4 0.4,0 0.5,0.4 0.5,0.5 z" /><path
         inkscape:connector-curvature="0"
         id="path362"
         style="fill:#000000;fill-opacity:1;fill-rule:evenodd;stroke:none"
         d="m 314.1,635.7 c 0,1 -0.1,1.7 -0.5,2.2 -0.3,0.4 -0.8,0.8 -1.5,0.8 -1.9,0 -1.9,-2.3 -1.9,-3 0,-0.5 0,-2.8 1.9,-2.8 2,0 2,2.3 2,2.8 z m -2,-2.5 c -0.4,0 -0.9,0.2 -1,0.9 -0.2,0.5 -0.2,1.2 -0.2,1.8 0,0.6 0,1.2 0.2,1.7 0.1,0.7 0.7,0.8 1,0.8 0.5,0 0.9,-0.2 1.1,-0.8 0.1,-0.4 0.1,-1 0.1,-1.7 0,-0.6 0,-1.2 -0.1,-1.8 -0.2,-0.8 -0.8,-0.9 -1.1,-0.9 z" /><path
         inkscape:connector-curvature="0"
         id="path364"
         style="fill:#000000;fill-opacity:1;fill-rule:evenodd;stroke:none"
         d="m 318.5,637.9 c 0,0.9 -0.1,2.4 -0.7,3.7 -0.8,1.5 -1.8,2.3 -2,2.3 0,0 -0.1,-0.1 -0.1,-0.1 0,-0.1 0,-0.1 0.2,-0.3 1.3,-1.2 2,-3.1 2,-5.6 0,-2.1 -0.5,-4.2 -2,-5.7 -0.2,-0.1 -0.2,-0.2 -0.2,-0.2 0,-0.1 0.1,-0.1 0.1,-0.1 0.2,0 1.3,0.8 2,2.3 0.6,1.3 0.7,2.7 0.7,3.7 z" /><path
         inkscape:connector-curvature="0"
         id="path366"
         style="fill:#000000;fill-opacity:1;fill-rule:evenodd;stroke:none"
         d="m 281.5,629.5 h -38.3 v 0.6 h 76.6 v -0.6 z" /><path
         inkscape:connector-curvature="0"
         id="path368"
         style="fill:#000000;fill-opacity:1;fill-rule:evenodd;stroke:none"
         d="m 257.7,626.3 c 0,0.3 0,0.3 -0.3,0.3 -0.8,-0.8 -1.8,-0.8 -2.2,-0.8 v -0.4 c 0.2,0 0.9,0 1.5,0.4 v -6.3 c 0,-0.4 0,-0.5 -1,-0.5 h -0.5 v -0.4 c 0.5,0 1.5,0 2,0 0.5,0 1.5,0 2,0 v 0.4 h -0.4 c -1.1,0 -1.1,0.1 -1.1,0.5 z" /><path
         inkscape:connector-curvature="0"
         id="path370"
         style="fill:#000000;fill-opacity:1;fill-rule:evenodd;stroke:none"
         d="m 263.6,622.8 c 1,0.3 1.6,1.2 1.6,2.1 0,1 -1,1.7 -2.2,1.7 -1.2,0 -2.1,-0.7 -2.1,-1.6 0,-0.4 0.3,-0.7 0.6,-0.7 0.4,0 0.7,0.3 0.7,0.7 0,0.6 -0.6,0.6 -0.8,0.6 0.3,0.5 1.2,0.7 1.6,0.7 0.5,0 1.2,-0.3 1.2,-1.3 0,-0.2 -0.1,-0.9 -0.4,-1.4 -0.4,-0.6 -0.8,-0.6 -1.1,-0.7 0,0 -0.3,0 -0.4,0 -0.1,0 -0.2,0 -0.2,-0.1 0,-0.2 0.1,-0.2 0.3,-0.2 h 0.5 c 1,0 1.4,-0.8 1.4,-1.9 0,-1.7 -0.8,-2 -1.3,-2 -0.5,0 -1.4,0.2 -1.9,0.9 0.5,-0.1 0.8,0.2 0.8,0.7 0,0.4 -0.3,0.6 -0.6,0.6 -0.3,0 -0.7,-0.2 -0.7,-0.7 0,-1.1 1.1,-1.8 2.4,-1.8 1.5,0 2.6,1 2.6,2.3 0,0.9 -0.8,1.9 -2,2.1 z" /><path
         inkscape:connector-curvature="0"
         id="path372"
         style="fill:#000000;fill-opacity:1;fill-rule:evenodd;stroke:none"
         d="m 266.5,621.7 c 0.5,1.3 1.8,1.3 1.9,1.3 1.9,0 2,-2.1 2,-3 0,-0.8 -0.1,-0.9 -0.2,-1.2 -0.2,-0.9 -0.6,-2.2 -0.6,-2.6 0,-0.1 0.1,-0.2 0.2,-0.2 0.1,0 0.2,0.3 0.3,0.8 0.3,0.9 0.5,1.6 0.5,2 0.1,0.1 0.1,0.3 0.1,0.5 0.4,1.1 1.2,2.9 1.6,3.9 0.1,0.1 0.3,0.4 0.3,0.5 0,0.1 -0.1,0.1 -0.2,0.1 0,0 -0.1,0 -0.1,-0.1 -0.7,-1.2 -1.1,-2.4 -1.6,-3.5 0,0.3 0,1.2 -0.5,2.4 -0.3,0.7 -0.8,1.3 -1.6,1.3 -1.5,0 -2.3,-1.8 -2.3,-2.2 0,-0.1 0.1,-0.1 0.2,-0.1 z" /><path
         inkscape:connector-curvature="0"
         id="path374"
         style="fill:#000000;fill-opacity:1;fill-rule:evenodd;stroke:none"
         d="m 276.6,619.4 c 0,1 -0.1,1.7 -0.5,2.2 -0.2,0.4 -0.8,0.8 -1.4,0.8 -2,0 -2,-2.3 -2,-3 0,-0.5 0,-2.8 2,-2.8 1.9,0 1.9,2.3 1.9,2.8 z m -1.9,-2.5 c -0.4,0 -1,0.2 -1.1,0.9 -0.2,0.5 -0.2,1.2 -0.2,1.8 0,0.6 0,1.2 0.2,1.7 0.1,0.7 0.7,0.8 1.1,0.8 0.4,0 0.8,-0.2 1,-0.8 0.1,-0.4 0.1,-1 0.1,-1.7 0,-0.6 0,-1.2 0,-1.8 -0.3,-0.8 -0.8,-0.9 -1.1,-0.9 z" /><path
         inkscape:connector-curvature="0"
         id="path376"
         style="fill:#000000;fill-opacity:1;fill-rule:evenodd;stroke:none"
         d="m 285.2,621.3 h 3.3 c 0.2,0 0.4,0 0.4,0.3 0,0.3 -0.2,0.3 -0.4,0.3 h -3.3 v 3.3 c 0,0.2 0,0.4 -0.3,0.4 -0.2,0 -0.2,-0.2 -0.2,-0.4 v -3.3 h -3.4 c -0.2,0 -0.4,0 -0.4,-0.3 0,-0.3 0.2,-0.3 0.4,-0.3 h 3.4 V 618 c 0,-0.2 0,-0.4 0.2,-0.4 0.3,0 0.3,0.2 0.3,0.4 z" /><path
         inkscape:connector-curvature="0"
         id="path378"
         style="fill:#000000;fill-opacity:1;fill-rule:evenodd;stroke:none"
         d="m 294.2,624.1 c -0.6,0.3 -0.6,0.8 -0.6,1 0,0.7 0.8,1.2 1.6,1.2 0.9,0 1.7,-0.6 1.7,-1.5 0,-0.7 -0.5,-1.3 -1.3,-1.7 z m 1.7,-1.2 c 0.9,0.5 1.5,1.1 1.5,1.9 0,1.1 -1.1,1.8 -2.2,1.8 -1.2,0 -2.1,-0.9 -2.1,-2 0,-0.3 0,-0.8 0.5,-1.3 0.1,-0.2 0.6,-0.5 0.9,-0.7 -0.8,-0.3 -1.8,-1 -1.8,-2.2 0,-1.3 1.2,-2 2.5,-2 1.4,0 2.5,0.9 2.5,2.2 0,0.4 -0.1,1 -0.6,1.5 -0.2,0.2 -0.4,0.3 -1.2,0.8 z m -1.2,-0.5 1.5,-0.9 c 0.3,-0.2 0.9,-0.6 0.9,-1.3 0,-0.9 -0.9,-1.5 -1.9,-1.5 -1,0 -1.9,0.7 -1.9,1.7 0,0.7 0.4,1.5 1.4,2 z" /><path
         inkscape:connector-curvature="0"
         id="path380"
         style="fill:#000000;fill-opacity:1;fill-rule:evenodd;stroke:none"
         d="m 301.7,623 h 2 c 0.2,0 0.6,0 0.6,0.5 0,0.3 -0.3,0.3 -0.5,0.3 h -3.3 c -0.3,0 -0.7,0 -1.2,-0.6 -0.5,-0.5 -0.8,-1 -0.8,-1.1 0,0 0,-0.1 0.1,-0.1 0.1,0 0.2,0.1 0.2,0.1 0.6,0.9 1.3,0.9 1.5,0.9 h 1.1 l -1.2,-3.8 c -0.1,-0.1 -0.1,-0.4 -0.1,-0.4 0,-0.2 0,-0.4 0.3,-0.4 0.4,0 0.5,0.4 0.5,0.5 z" /><path
         inkscape:connector-curvature="0"
         id="path382"
         style="fill:#000000;fill-opacity:1;fill-rule:evenodd;stroke:none"
         d="m 307.8,619.4 c 0,1 -0.1,1.7 -0.5,2.2 -0.3,0.4 -0.8,0.8 -1.5,0.8 -1.9,0 -1.9,-2.3 -1.9,-3 0,-0.5 0,-2.8 1.9,-2.8 2,0 2,2.3 2,2.8 z m -2,-2.5 c -0.4,0 -0.9,0.2 -1,0.9 -0.2,0.5 -0.2,1.2 -0.2,1.8 0,0.6 0,1.2 0.2,1.7 0.1,0.7 0.7,0.8 1,0.8 0.5,0 0.9,-0.2 1.1,-0.8 0.1,-0.4 0.1,-1 0.1,-1.7 0,-0.6 0,-1.2 -0.1,-1.8 -0.2,-0.8 -0.7,-0.9 -1.1,-0.9 z" /><path
         inkscape:connector-curvature="0"
         id="path384"
         style="fill:#ffffff;fill-opacity:1;fill-rule:evenodd;stroke:none"
         d="m 367.1,617.1 h -26.8 v 25.8 h 53.6 v -25.8 z" /><path
         inkscape:connector-curvature="0"
         id="path386"
         style="fill:#000000;fill-opacity:1;fill-rule:evenodd;stroke:none"
         d="m 356.5,637.3 v -1 c 0,-0.4 0,-0.6 -0.9,-0.6 h -0.2 v -0.4 c 0.5,0.1 1.1,0.1 1.6,0.1 0.5,0 1.1,0 1.6,-0.1 v 0.4 h -0.2 c -0.9,0 -0.9,0.2 -0.9,0.6 v 1 h 1.2 v 0.4 h -1.2 v 5.5 c 0,0.2 0,0.3 -0.2,0.3 -0.1,0 -0.2,0 -0.3,-0.2 l -3.7,-5.6 v -0.4 z m 0.1,0.4 h -2.9 l 2.9,4.5 z" /><path
         inkscape:connector-curvature="0"
         id="path388"
         style="fill:#000000;fill-opacity:1;fill-rule:evenodd;stroke:none"
         d="m 362.5,639.8 h 2.1 c 0.1,0 0.5,0 0.5,0.4 0,0.3 -0.2,0.3 -0.4,0.3 h -3.4 c -0.2,0 -0.7,0 -1.2,-0.5 -0.4,-0.5 -0.8,-1 -0.8,-1.1 0,0 0,-0.1 0.2,-0.1 0.1,0 0.1,0 0.2,0.1 0.5,0.9 1.2,0.9 1.5,0.9 h 1 L 361,636 c 0,-0.1 -0.1,-0.4 -0.1,-0.5 0,-0.1 0.1,-0.3 0.3,-0.3 0.4,0 0.5,0.4 0.5,0.5 z" /><path
         inkscape:connector-curvature="0"
         id="path390"
         style="fill:#000000;fill-opacity:1;fill-rule:evenodd;stroke:none"
         d="m 368.6,636.2 c 0,1 -0.1,1.7 -0.5,2.2 -0.3,0.4 -0.8,0.8 -1.5,0.8 -1.9,0 -1.9,-2.3 -1.9,-3 0,-0.5 0,-2.8 1.9,-2.8 2,0 2,2.3 2,2.8 z m -2,-2.6 c -0.4,0 -0.9,0.3 -1,1 -0.2,0.4 -0.2,1.2 -0.2,1.8 0,0.6 0,1.2 0.2,1.7 0.1,0.6 0.7,0.8 1,0.8 0.5,0 0.9,-0.3 1.1,-0.8 0.1,-0.4 0.1,-1 0.1,-1.7 0,-0.6 0,-1.3 -0.1,-1.8 -0.2,-0.8 -0.7,-1 -1.1,-1 z" /><path
         inkscape:connector-curvature="0"
         id="path392"
         style="fill:#000000;fill-opacity:1;fill-rule:evenodd;stroke:none"
         d="m 370.1,638.4 c 0.5,1.4 1.8,1.4 1.9,1.4 1.8,0 2,-2.1 2,-3 0,-0.8 -0.1,-0.9 -0.2,-1.2 -0.2,-0.9 -0.6,-2.3 -0.6,-2.6 0,-0.1 0,-0.2 0.1,-0.2 0.2,0 0.3,0.3 0.4,0.7 0.3,1 0.4,1.7 0.5,2.1 0,0.1 0,0.3 0,0.5 0.4,1.1 1.2,2.9 1.7,3.9 0.1,0.1 0.2,0.4 0.2,0.4 0,0.1 -0.1,0.1 -0.1,0.1 -0.1,0 -0.1,0 -0.2,0 -0.6,-1.2 -1.1,-2.4 -1.6,-3.6 0,0.4 0,1.3 -0.4,2.5 -0.3,0.7 -0.8,1.3 -1.6,1.3 -1.5,0 -2.4,-1.9 -2.4,-2.2 0,-0.1 0.1,-0.1 0.2,-0.1 z" /><path
         inkscape:connector-curvature="0"
         id="path394"
         style="fill:#000000;fill-opacity:1;fill-rule:evenodd;stroke:none"
         d="m 380.1,636.2 c 0,1 -0.1,1.7 -0.5,2.2 -0.2,0.4 -0.7,0.8 -1.4,0.8 -2,0 -2,-2.3 -2,-3 0,-0.5 0,-2.8 2,-2.8 1.9,0 1.9,2.3 1.9,2.8 z m -1.9,-2.6 c -0.4,0 -0.9,0.3 -1.1,1 -0.1,0.4 -0.1,1.2 -0.1,1.8 0,0.6 0,1.2 0.1,1.7 0.2,0.6 0.7,0.8 1.1,0.8 0.4,0 0.9,-0.3 1,-0.8 0.1,-0.4 0.1,-1 0.1,-1.7 0,-0.6 0,-1.3 0,-1.8 -0.2,-0.8 -0.8,-1 -1.1,-1 z" /><path
         inkscape:connector-curvature="0"
         id="path396"
         style="fill:#000000;fill-opacity:1;fill-rule:evenodd;stroke:none"
         d="m 367.1,630 h -27.4 v 0.5 h 54.8 V 630 Z" /><path
         inkscape:connector-curvature="0"
         id="path398"
         style="fill:#000000;fill-opacity:1;fill-rule:evenodd;stroke:none"
         d="m 343.3,626.7 c 0,0.3 0,0.3 -0.3,0.3 -0.8,-0.7 -1.8,-0.7 -2.2,-0.7 v -0.4 c 0.2,0 0.9,0 1.5,0.3 V 620 c 0,-0.4 0,-0.6 -1,-0.6 h -0.5 v -0.3 c 0.5,0 1.5,0 2,0 0.5,0 1.5,0 2,0 v 0.3 h -0.4 c -1.1,0 -1.1,0.2 -1.1,0.6 z" /><path
         inkscape:connector-curvature="0"
         id="path400"
         style="fill:#000000;fill-opacity:1;fill-rule:evenodd;stroke:none"
         d="m 349.3,626.7 c 0,0.3 0,0.3 -0.3,0.3 -0.8,-0.7 -1.9,-0.7 -2.2,-0.7 v -0.4 c 0.2,0 0.9,0 1.5,0.3 V 620 c 0,-0.4 0,-0.6 -1.1,-0.6 h -0.4 v -0.3 c 0.4,0 1.5,0 2,0 0.5,0 1.5,0 2,0 v 0.3 h -0.4 c -1.1,0 -1.1,0.2 -1.1,0.6 z" /><path
         inkscape:connector-curvature="0"
         id="path402"
         style="fill:#000000;fill-opacity:1;fill-rule:evenodd;stroke:none"
         d="m 352.2,622.1 c 0.5,1.4 1.8,1.4 1.9,1.4 1.8,0 2,-2.1 2,-3.1 0,-0.7 -0.1,-0.9 -0.2,-1.1 -0.2,-0.9 -0.6,-2.3 -0.6,-2.6 0,-0.2 0,-0.2 0.1,-0.2 0.2,0 0.3,0.2 0.4,0.7 0.3,1 0.4,1.7 0.5,2.1 0,0.1 0,0.3 0,0.4 0.4,1.2 1.2,3 1.7,3.9 0.1,0.2 0.2,0.5 0.2,0.5 0,0.1 -0.1,0.1 -0.1,0.1 -0.1,0 -0.1,0 -0.2,0 -0.6,-1.2 -1.1,-2.4 -1.6,-3.6 0,0.4 0,1.3 -0.4,2.5 -0.3,0.6 -0.8,1.3 -1.6,1.3 -1.5,0 -2.4,-1.9 -2.4,-2.3 0,-0.1 0.1,-0.1 0.2,-0.1 z" /><path
         inkscape:connector-curvature="0"
         id="path404"
         style="fill:#000000;fill-opacity:1;fill-rule:evenodd;stroke:none"
         d="m 362.2,619.9 c 0,1 -0.1,1.6 -0.5,2.2 -0.2,0.4 -0.7,0.7 -1.4,0.7 -2,0 -2,-2.3 -2,-2.9 0,-0.6 0,-2.8 2,-2.8 1.9,0 1.9,2.2 1.9,2.8 z m -1.9,-2.6 c -0.4,0 -0.9,0.3 -1.1,0.9 -0.1,0.5 -0.1,1.2 -0.1,1.8 0,0.7 0,1.3 0.1,1.7 0.2,0.7 0.7,0.9 1.1,0.9 0.4,0 0.9,-0.3 1,-0.8 0.1,-0.4 0.2,-1 0.2,-1.8 0,-0.6 0,-1.2 -0.2,-1.7 -0.1,-0.8 -0.7,-1 -1,-1 z" /><path
         inkscape:connector-curvature="0"
         id="path406"
         style="fill:#000000;fill-opacity:1;fill-rule:evenodd;stroke:none"
         d="m 370.8,621.8 h 3.4 c 0.1,0 0.3,0 0.3,0.2 0,0.3 -0.2,0.3 -0.3,0.3 h -3.4 v 3.4 c 0,0.2 0,0.4 -0.2,0.4 -0.3,0 -0.3,-0.2 -0.3,-0.4 v -3.4 H 367 c -0.2,0 -0.4,0 -0.4,-0.3 0,-0.2 0.2,-0.2 0.4,-0.2 h 3.3 v -3.3 c 0,-0.2 0,-0.4 0.3,-0.4 0.2,0 0.2,0.2 0.2,0.4 z" /><path
         inkscape:connector-curvature="0"
         id="path408"
         style="fill:#000000;fill-opacity:1;fill-rule:evenodd;stroke:none"
         d="m 379.4,620 1.3,1.2 c 1.9,1.7 2.6,2.3 2.6,3.5 0,1.4 -1.1,2.3 -2.6,2.3 -1.3,0 -2.2,-1.1 -2.2,-2.1 0,-0.7 0.6,-0.7 0.6,-0.7 0.2,0 0.6,0.2 0.6,0.6 0,0.3 -0.2,0.7 -0.6,0.7 -0.1,0 -0.1,0 -0.1,-0.1 0.2,0.8 0.9,1.3 1.6,1.3 1.1,0 1.6,-1 1.6,-2 0,-1 -0.6,-1.9 -1.3,-2.6 l -2.3,-2.6 c -0.1,-0.1 -0.1,-0.2 -0.1,-0.4 h 4.4 l 0.4,2 H 383 c -0.1,-0.3 -0.2,-0.9 -0.3,-1 -0.1,-0.1 -0.9,-0.1 -1.1,-0.1 z" /><path
         inkscape:connector-curvature="0"
         id="path410"
         style="fill:#000000;fill-opacity:1;fill-rule:evenodd;stroke:none"
         d="m 387.4,623.5 h 2 c 0.2,0 0.6,0 0.6,0.4 0,0.3 -0.3,0.3 -0.5,0.3 h -3.4 c -0.2,0 -0.7,0 -1.2,-0.6 -0.4,-0.4 -0.7,-0.9 -0.7,-1 0,0 0,-0.1 0.1,-0.1 0.1,0 0.1,0 0.2,0.1 0.6,0.9 1.3,0.9 1.5,0.9 h 1 l -1.1,-3.8 c -0.1,-0.2 -0.2,-0.4 -0.2,-0.5 0,-0.1 0.1,-0.3 0.4,-0.3 0.4,0 0.5,0.4 0.5,0.5 z" /><path
         inkscape:connector-curvature="0"
         id="path412"
         style="fill:#000000;fill-opacity:1;fill-rule:evenodd;stroke:none"
         d="m 393.4,619.9 c 0,1 -0.1,1.6 -0.5,2.2 -0.2,0.4 -0.7,0.7 -1.4,0.7 -2,0 -2,-2.3 -2,-2.9 0,-0.6 0,-2.8 2,-2.8 1.9,0 1.9,2.2 1.9,2.8 z m -1.9,-2.6 c -0.4,0 -0.9,0.3 -1.1,0.9 -0.1,0.5 -0.1,1.2 -0.1,1.8 0,0.7 0,1.3 0.1,1.7 0.2,0.7 0.7,0.9 1.1,0.9 0.4,0 0.9,-0.3 1,-0.8 0.1,-0.4 0.1,-1 0.1,-1.8 0,-0.6 0,-1.2 -0.1,-1.7 -0.1,-0.8 -0.7,-1 -1,-1 z" /></g></g></svg>